EESchema Schematic File Version 2
LIBS:Control Ducha-rescue
LIBS:power
LIBS:device
LIBS:transistors
LIBS:conn
LIBS:linear
LIBS:regul
LIBS:74xx
LIBS:cmos4000
LIBS:adc-dac
LIBS:memory
LIBS:xilinx
LIBS:microcontrollers
LIBS:dsp
LIBS:microchip
LIBS:analog_switches
LIBS:motorola
LIBS:texas
LIBS:intel
LIBS:audio
LIBS:interface
LIBS:digital-audio
LIBS:philips
LIBS:display
LIBS:cypress
LIBS:siliconi
LIBS:opto
LIBS:atmel
LIBS:contrib
LIBS:valves
LIBS:capteurs
LIBS:Control Ducha-cache
EELAYER 25 0
EELAYER END
$Descr A4 11693 8268
encoding utf-8
Sheet 1 1
Title ""
Date ""
Rev ""
Comp ""
Comment1 ""
Comment2 ""
Comment3 ""
Comment4 ""
$EndDescr
$Comp
L TL074 U2
U 1 1 561A77C1
P 7200 1400
F 0 "U2" H 7250 1600 60  0000 C CNN
F 1 "TL084" H 7350 1200 50  0000 C CNN
F 2 "Housings_DIP:DIP-14_W7.62mm_LongPads" H 7200 1400 60  0001 C CNN
F 3 "" H 7200 1400 60  0000 C CNN
	1    7200 1400
	1    0    0    1   
$EndComp
$Comp
L TL074 U2
U 2 1 561A781A
P 9400 1500
F 0 "U2" H 9450 1700 60  0000 C CNN
F 1 "TL084" H 9550 1300 50  0000 C CNN
F 2 "Housings_DIP:DIP-14_W7.62mm_LongPads" H 9400 1500 60  0001 C CNN
F 3 "" H 9400 1500 60  0000 C CNN
	2    9400 1500
	1    0    0    1   
$EndComp
$Comp
L R R3
U 1 1 561A7FEE
P 1850 1000
F 0 "R3" V 1930 1000 50  0000 C CNN
F 1 "10K" V 1750 1000 50  0000 C CNN
F 2 "Discret:R3-LARGE_PADS" V 1780 1000 30  0001 C CNN
F 3 "" H 1850 1000 30  0000 C CNN
	1    1850 1000
	1    0    0    -1  
$EndComp
$Comp
L R R8
U 1 1 561A802D
P 1850 1600
F 0 "R8" V 1930 1600 50  0000 C CNN
F 1 "10K" V 1750 1600 50  0000 C CNN
F 2 "Discret:R3-LARGE_PADS" V 1780 1600 30  0001 C CNN
F 3 "" H 1850 1600 30  0000 C CNN
	1    1850 1600
	1    0    0    -1  
$EndComp
$Comp
L R R9
U 1 1 561A8092
P 3200 1700
F 0 "R9" V 3280 1700 50  0000 C CNN
F 1 "10K" V 3100 1700 50  0000 C CNN
F 2 "Discret:R3-LARGE_PADS" V 3130 1700 30  0001 C CNN
F 3 "" H 3200 1700 30  0000 C CNN
	1    3200 1700
	0    1    1    0   
$EndComp
$Comp
L TIP32C Q2
U 1 1 561A8A74
P 3950 1650
F 0 "Q2" H 4200 1725 50  0000 L CNN
F 1 "TIP32C" H 4200 1650 50  0000 L CNN
F 2 "Power_Integrations:TO-220" H 4200 1575 50  0000 L CIN
F 3 "" H 3950 1650 50  0000 L CNN
	1    3950 1650
	1    0    0    1   
$EndComp
$Comp
L TIP31C Q1
U 1 1 561A9939
P 3950 1050
F 0 "Q1" H 4200 1125 50  0000 L CNN
F 1 "TIP31C" H 4200 1050 50  0000 L CNN
F 2 "Power_Integrations:TO-220" H 4200 975 50  0000 L CIN
F 3 "" H 3950 1050 50  0000 L CNN
	1    3950 1050
	1    0    0    -1  
$EndComp
$Comp
L CP1 C1
U 1 1 561AA0C5
P 4700 1050
F 0 "C1" H 4725 1150 50  0000 L CNN
F 1 "220 uF" H 4750 900 50  0000 L CNN
F 2 "Capacitors_ThroughHole:C_Radial_D6.3_L11.2_P2.5" H 4700 1050 60  0001 C CNN
F 3 "" H 4700 1050 60  0000 C CNN
	1    4700 1050
	1    0    0    -1  
$EndComp
$Comp
L CP1 C2
U 1 1 561AA110
P 4700 1650
F 0 "C2" H 4725 1750 50  0000 L CNN
F 1 "220 uF" H 4750 1500 50  0000 L CNN
F 2 "Capacitors_ThroughHole:C_Radial_D6.3_L11.2_P2.5" H 4700 1650 60  0001 C CNN
F 3 "" H 4700 1650 60  0000 C CNN
	1    4700 1650
	1    0    0    -1  
$EndComp
$Comp
L CONN_01X02 P1
U 1 1 561AC01B
P 900 900
F 0 "P1" H 900 1050 50  0000 C CNN
F 1 "ALIMENTACION" V 1000 900 50  0000 C CNN
F 2 "Connect:JACK_ALIM" H 900 900 60  0001 C CNN
F 3 "" H 900 900 60  0000 C CNN
	1    900  900 
	0    -1   -1   0   
$EndComp
Text Label 850  2100 0    60   ~ 0
GND
Text GLabel 4900 750  2    60   Output ~ 0
+7.5V
Text GLabel 4900 1950 2    60   Output ~ 0
-7.5V
$Comp
L LM335-RESCUE-Control_Ducha U3
U 1 1 561A909D
P 6000 1650
F 0 "U3" H 5700 1700 60  0000 C CNN
F 1 "LM335" H 5700 1600 60  0000 C CNN
F 2 "Pin_Headers:Pin_Header_Straight_1x03" H 6000 1650 60  0001 C CNN
F 3 "" H 6000 1650 60  0000 C CNN
	1    6000 1650
	1    0    0    -1  
$EndComp
$Comp
L R R4
U 1 1 561AD578
P 6000 1050
F 0 "R4" V 6080 1050 50  0000 C CNN
F 1 "1K" V 5900 1050 50  0000 C CNN
F 2 "Discret:R3-LARGE_PADS" V 5930 1050 30  0001 C CNN
F 3 "" H 6000 1050 30  0000 C CNN
	1    6000 1050
	1    0    0    -1  
$EndComp
Text GLabel 5900 700  0    60   Input ~ 0
+7.5V
$Comp
L R R5
U 1 1 561AD99D
P 6350 1300
F 0 "R5" V 6430 1300 50  0000 C CNN
F 1 "1K" V 6250 1300 50  0000 C CNN
F 2 "Discret:R3-LARGE_PADS" V 6280 1300 30  0001 C CNN
F 3 "" H 6350 1300 30  0000 C CNN
	1    6350 1300
	0    1    1    0   
$EndComp
$Comp
L R R1
U 1 1 561AD9FE
P 7100 800
F 0 "R1" V 7180 800 50  0000 C CNN
F 1 "1K" V 7000 800 50  0000 C CNN
F 2 "Discret:R3-LARGE_PADS" V 7030 800 30  0001 C CNN
F 3 "" H 7100 800 30  0000 C CNN
	1    7100 800 
	0    1    1    0   
$EndComp
$Comp
L R R10
U 1 1 561B2028
P 7700 1700
F 0 "R10" V 7800 1700 50  0000 C CNN
F 1 "27K" V 7600 1700 50  0000 C CNN
F 2 "Discret:R3-LARGE_PADS" V 7630 1700 30  0001 C CNN
F 3 "" H 7700 1700 30  0000 C CNN
	1    7700 1700
	0    1    1    0   
$EndComp
$Comp
L R R2
U 1 1 561B2067
P 9300 850
F 0 "R2" V 9400 850 50  0000 C CNN
F 1 "33K" V 9200 850 50  0000 C CNN
F 2 "Discret:R3-LARGE_PADS" V 9230 850 30  0001 C CNN
F 3 "" H 9300 850 30  0000 C CNN
	1    9300 850 
	0    1    1    0   
$EndComp
$Comp
L TL081 U1
U 1 1 561B24B2
P 2750 1350
F 0 "U1" H 2900 1650 70  0000 C CNN
F 1 "TL081" H 2900 1550 70  0000 C CNN
F 2 "Housings_DIP:DIP-8_W7.62mm_LongPads" H 2750 1350 60  0001 C CNN
F 3 "" H 2750 1350 60  0000 C CNN
	1    2750 1350
	1    0    0    -1  
$EndComp
Text GLabel 6950 950  0    60   Input ~ 0
-7.5V
Text GLabel 6950 1950 0    60   Input ~ 0
+7.5V
NoConn ~ 9300 1100
NoConn ~ 9300 1900
$Comp
L R R11
U 1 1 561ADE41
P 8100 1700
F 0 "R11" V 8180 1700 50  0000 C CNN
F 1 "470" V 8000 1700 50  0000 C CNN
F 2 "Discret:R3-LARGE_PADS" V 8030 1700 30  0001 C CNN
F 3 "" H 8100 1700 30  0000 C CNN
	1    8100 1700
	0    1    1    0   
$EndComp
NoConn ~ 6150 1700
$Comp
L R R7
U 1 1 561B0904
P 10250 1500
F 0 "R7" V 10330 1500 50  0000 C CNN
F 1 "1K" V 10150 1500 50  0000 C CNN
F 2 "Discret:R3-LARGE_PADS" V 10180 1500 30  0001 C CNN
F 3 "" H 10250 1500 30  0000 C CNN
	1    10250 1500
	0    1    1    0   
$EndComp
$Comp
L C C3
U 1 1 561B0A37
P 10600 1750
F 0 "C3" H 10625 1850 50  0000 L CNN
F 1 "0.1uF" H 10625 1650 50  0000 L CNN
F 2 "Capacitors_ThroughHole:C_Rect_L7_W2_P5" H 10638 1600 30  0001 C CNN
F 3 "" H 10600 1750 60  0000 C CNN
	1    10600 1750
	1    0    0    -1  
$EndComp
Text GLabel 10750 1500 2    60   Input ~ 0
ADC0
$Comp
L 7805 U4
U 1 1 561C50FF
P 2000 2600
F 0 "U4" H 2150 2404 60  0000 C CNN
F 1 "7805" H 2000 2800 60  0000 C CNN
F 2 "Power_Integrations:TO-220" H 2000 2600 60  0001 C CNN
F 3 "" H 2000 2600 60  0000 C CNN
	1    2000 2600
	1    0    0    -1  
$EndComp
$Comp
L C C4
U 1 1 561C62C0
P 1400 3000
F 0 "C4" H 1425 3100 50  0000 L CNN
F 1 "0.1uF" H 1425 2900 50  0000 L CNN
F 2 "Capacitors_ThroughHole:C_Rect_L7_W2_P5" H 1438 2850 30  0001 C CNN
F 3 "" H 1400 3000 60  0000 C CNN
	1    1400 3000
	1    0    0    -1  
$EndComp
$Comp
L C C5
U 1 1 561C6347
P 2550 3000
F 0 "C5" H 2575 3100 50  0000 L CNN
F 1 "0.1uF" H 2575 2900 50  0000 L CNN
F 2 "Capacitors_ThroughHole:C_Rect_L7_W2_P5" H 2588 2850 30  0001 C CNN
F 3 "" H 2550 3000 60  0000 C CNN
	1    2550 3000
	1    0    0    -1  
$EndComp
$Comp
L CP1 C6
U 1 1 561C63E8
P 3000 3000
F 0 "C6" H 3025 3100 50  0000 L CNN
F 1 "10uF" H 3025 2900 50  0000 L CNN
F 2 "Capacitors_ThroughHole:C_Radial_D5_L11_P2.5" H 3000 3000 60  0001 C CNN
F 3 "" H 3000 3000 60  0000 C CNN
	1    3000 3000
	1    0    0    -1  
$EndComp
Text GLabel 1050 2550 0    60   Input ~ 0
+7.5V
Text GLabel 3650 2550 2    60   Output ~ 0
+5V
$Comp
L CONN_02X12 P6
U 1 1 561CA2EA
P 1550 4900
F 0 "P6" H 1550 5550 50  0000 C CNN
F 1 "CONN_02X12" V 1550 4900 50  0000 C CNN
F 2 "Pin_Headers:Pin_Header_Straight_2x12" H 1550 3700 60  0001 C CNN
F 3 "" H 1550 3700 60  0000 C CNN
	1    1550 4900
	1    0    0    -1  
$EndComp
$Comp
L CONN_02X13 P5
U 1 1 561CA383
P 3200 4850
F 0 "P5" H 3200 5550 50  0000 C CNN
F 1 "CONN_02X13" V 3200 4850 50  0000 C CNN
F 2 "Pin_Headers:Pin_Header_Straight_2x13" H 3200 3700 60  0001 C CNN
F 3 "" H 3200 3700 60  0000 C CNN
	1    3200 4850
	1    0    0    -1  
$EndComp
Text GLabel 3600 4250 2    60   Input ~ 0
+5V
$Comp
L CONN_01X03 P3
U 1 1 561CBDDF
P 5050 3250
F 0 "P3" H 5050 3450 50  0000 C CNN
F 1 "UART" V 5150 3250 50  0000 C CNN
F 2 "Pin_Headers:Pin_Header_Straight_1x03" H 5050 3250 60  0001 C CNN
F 3 "" H 5050 3250 60  0000 C CNN
	1    5050 3250
	1    0    0    -1  
$EndComp
$Comp
L GND #PWR01
U 1 1 561CCC3F
P 5000 1400
F 0 "#PWR01" H 5000 1150 50  0001 C CNN
F 1 "GND" H 5000 1250 50  0000 C CNN
F 2 "" H 5000 1400 60  0000 C CNN
F 3 "" H 5000 1400 60  0000 C CNN
	1    5000 1400
	1    0    0    -1  
$EndComp
$Comp
L GND #PWR02
U 1 1 561CDB5B
P 2000 3400
F 0 "#PWR02" H 2000 3150 50  0001 C CNN
F 1 "GND" H 2000 3250 50  0000 C CNN
F 2 "" H 2000 3400 60  0000 C CNN
F 3 "" H 2000 3400 60  0000 C CNN
	1    2000 3400
	1    0    0    -1  
$EndComp
$Comp
L GND #PWR03
U 1 1 561CE1A7
P 6650 1550
F 0 "#PWR03" H 6650 1300 50  0001 C CNN
F 1 "GND" H 6650 1400 50  0000 C CNN
F 2 "" H 6650 1550 60  0000 C CNN
F 3 "" H 6650 1550 60  0000 C CNN
	1    6650 1550
	1    0    0    -1  
$EndComp
$Comp
L GND #PWR04
U 1 1 561CF227
P 6000 1950
F 0 "#PWR04" H 6000 1700 50  0001 C CNN
F 1 "GND" H 6000 1800 50  0000 C CNN
F 2 "" H 6000 1950 60  0000 C CNN
F 3 "" H 6000 1950 60  0000 C CNN
	1    6000 1950
	1    0    0    -1  
$EndComp
$Comp
L GND #PWR05
U 1 1 561CF5E3
P 8800 1850
F 0 "#PWR05" H 8800 1600 50  0001 C CNN
F 1 "GND" H 8800 1700 50  0000 C CNN
F 2 "" H 8800 1850 60  0000 C CNN
F 3 "" H 8800 1850 60  0000 C CNN
	1    8800 1850
	1    0    0    -1  
$EndComp
$Comp
L GND #PWR06
U 1 1 561CF65F
P 10600 2100
F 0 "#PWR06" H 10600 1850 50  0001 C CNN
F 1 "GND" H 10600 1950 50  0000 C CNN
F 2 "" H 10600 2100 60  0000 C CNN
F 3 "" H 10600 2100 60  0000 C CNN
	1    10600 2100
	1    0    0    -1  
$EndComp
Text GLabel 7450 1850 3    60   Input ~ 0
+7.5V
$Comp
L GND #PWR07
U 1 1 561D36BB
P 4400 3200
F 0 "#PWR07" H 4400 2950 50  0001 C CNN
F 1 "GND" H 4400 3050 50  0000 C CNN
F 2 "" H 4400 3200 60  0000 C CNN
F 3 "" H 4400 3200 60  0000 C CNN
	1    4400 3200
	1    0    0    -1  
$EndComp
$Comp
L CONN_01X02 P2
U 1 1 561D4BF5
P 5000 2550
F 0 "P2" H 5000 2700 50  0000 C CNN
F 1 "+3.3V" V 5100 2550 50  0000 C CNN
F 2 "Pin_Headers:Pin_Header_Straight_1x02" H 5000 2550 60  0001 C CNN
F 3 "" H 5000 2550 60  0000 C CNN
	1    5000 2550
	1    0    0    -1  
$EndComp
$Comp
L GND #PWR08
U 1 1 561D4DFC
P 4750 2650
F 0 "#PWR08" H 4750 2400 50  0001 C CNN
F 1 "GND" H 4750 2500 50  0000 C CNN
F 2 "" H 4750 2650 60  0000 C CNN
F 3 "" H 4750 2650 60  0000 C CNN
	1    4750 2650
	1    0    0    -1  
$EndComp
$Comp
L SW_PUSH SW2
U 1 1 561D5017
P 2200 3900
F 0 "SW2" H 2350 4010 50  0000 C CNN
F 1 "RESET NC" H 2200 3820 50  0000 C CNN
F 2 "Buttons_Switches_ThroughHole:SW_PUSH_SMALL" H 2200 3900 60  0001 C CNN
F 3 "" H 2200 3900 60  0000 C CNN
	1    2200 3900
	1    0    0    -1  
$EndComp
Text GLabel 1950 4650 2    60   Input ~ 0
ADC0
Text GLabel 1950 4750 2    60   Input ~ 0
ADC1
Text GLabel 1150 4850 0    60   Input ~ 0
ADC2
$Comp
L CONN_01X03 P8
U 1 1 561DB0C2
P 9400 6050
F 0 "P8" H 9400 6250 50  0000 C CNN
F 1 "PWM6" V 9500 6050 50  0000 C CNN
F 2 "Pin_Headers:Pin_Header_Straight_1x03" H 9400 6050 60  0001 C CNN
F 3 "" H 9400 6050 60  0000 C CNN
	1    9400 6050
	1    0    0    -1  
$EndComp
Text GLabel 8600 6050 0    60   Input ~ 0
+6V
$Comp
L CONN_01X03 P9
U 1 1 561DC267
P 10850 6050
F 0 "P9" H 10850 6250 50  0000 C CNN
F 1 "PWM4" V 10950 6050 50  0000 C CNN
F 2 "Pin_Headers:Pin_Header_Straight_1x03" H 10850 6050 60  0001 C CNN
F 3 "" H 10850 6050 60  0000 C CNN
	1    10850 6050
	1    0    0    -1  
$EndComp
Text GLabel 10000 6050 0    60   Input ~ 0
+6V
Text GLabel 950  6650 0    60   Input ~ 0
+3.3V
$Comp
L GND #PWR09
U 1 1 561E1AF5
P 1600 6700
F 0 "#PWR09" H 1600 6450 50  0001 C CNN
F 1 "GND" H 1600 6550 50  0000 C CNN
F 2 "" H 1600 6700 60  0000 C CNN
F 3 "" H 1600 6700 60  0000 C CNN
	1    1600 6700
	1    0    0    -1  
$EndComp
$Comp
L SW_PUSH SW3
U 1 1 561E2C0E
P 1550 7100
F 0 "SW3" H 1700 7210 50  0000 C CNN
F 1 "RESET NC" H 1550 7000 50  0000 C CNN
F 2 "Buttons_Switches_ThroughHole:SW_PUSH_SMALL" H 1550 7100 60  0001 C CNN
F 3 "" H 1550 7100 60  0000 C CNN
	1    1550 7100
	1    0    0    -1  
$EndComp
$Comp
L R R14
U 1 1 561F029A
P 3400 2750
F 0 "R14" V 3480 2750 50  0000 C CNN
F 1 "470" V 3300 2750 50  0000 C CNN
F 2 "Discret:R3-LARGE_PADS" V 3330 2750 30  0001 C CNN
F 3 "" H 3400 2750 30  0000 C CNN
	1    3400 2750
	1    0    0    -1  
$EndComp
$Comp
L LED D1
U 1 1 561F0546
P 3400 3150
F 0 "D1" H 3400 3250 50  0000 C CNN
F 1 "LED" H 3400 3050 50  0000 C CNN
F 2 "LEDs:LED-5MM" H 3400 3150 60  0001 C CNN
F 3 "" H 3400 3150 60  0000 C CNN
	1    3400 3150
	0    -1   -1   0   
$EndComp
$Comp
L R R22
U 1 1 561F3BB1
P 3100 3900
F 0 "R22" V 3180 3900 50  0000 C CNN
F 1 "10K" V 3000 3900 50  0000 C CNN
F 2 "Discret:R3-LARGE_PADS" V 3030 3900 30  0001 C CNN
F 3 "" H 3100 3900 30  0000 C CNN
	1    3100 3900
	0    1    1    0   
$EndComp
$Comp
L GND #PWR010
U 1 1 561F3D43
P 1400 3950
F 0 "#PWR010" H 1400 3700 50  0001 C CNN
F 1 "GND" H 1400 3800 50  0000 C CNN
F 2 "" H 1400 3950 60  0000 C CNN
F 3 "" H 1400 3950 60  0000 C CNN
	1    1400 3950
	1    0    0    -1  
$EndComp
$Comp
L R R34
U 1 1 561F6354
P 2100 6300
F 0 "R34" V 2180 6300 50  0000 C CNN
F 1 "10K" V 2000 6300 50  0000 C CNN
F 2 "Discret:R3-LARGE_PADS" V 2030 6300 30  0001 C CNN
F 3 "" H 2100 6300 30  0000 C CNN
	1    2100 6300
	1    0    0    -1  
$EndComp
$Comp
L GND #PWR011
U 1 1 561F6360
P 700 7150
F 0 "#PWR011" H 700 6900 50  0001 C CNN
F 1 "GND" H 700 7000 50  0000 C CNN
F 2 "" H 700 7150 60  0000 C CNN
F 3 "" H 700 7150 60  0000 C CNN
	1    700  7150
	1    0    0    -1  
$EndComp
$Comp
L R R35
U 1 1 56211FEE
P 3150 6400
F 0 "R35" V 3230 6400 50  0000 C CNN
F 1 "330" V 3050 6400 50  0000 C CNN
F 2 "Discret:R3-LARGE_PADS" V 3080 6400 30  0001 C CNN
F 3 "" H 3150 6400 30  0000 C CNN
	1    3150 6400
	1    0    0    -1  
$EndComp
$Comp
L LED D2
U 1 1 56211FF4
P 3150 6850
F 0 "D2" H 3150 6950 50  0000 C CNN
F 1 "LED" H 3150 6750 50  0000 C CNN
F 2 "LEDs:LED-5MM" H 3150 6850 60  0001 C CNN
F 3 "" H 3150 6850 60  0000 C CNN
	1    3150 6850
	0    -1   -1   0   
$EndComp
$Comp
L GND #PWR012
U 1 1 56211FFA
P 3150 7100
F 0 "#PWR012" H 3150 6850 50  0001 C CNN
F 1 "GND" H 3150 6950 50  0000 C CNN
F 2 "" H 3150 7100 60  0000 C CNN
F 3 "" H 3150 7100 60  0000 C CNN
	1    3150 7100
	1    0    0    -1  
$EndComp
NoConn ~ 4800 4950
Text GLabel 4700 3800 0    60   Input ~ 0
D0
Text GLabel 4700 3900 0    60   Input ~ 0
D1
Text GLabel 1150 4350 0    60   Output ~ 0
SW1
Text GLabel 1150 4450 0    60   Output ~ 0
SW2
Text GLabel 1150 4550 0    60   Output ~ 0
SW3
Text GLabel 1150 4650 0    60   Output ~ 0
SW4
Text GLabel 3600 5350 2    60   Output ~ 0
PWM6
Text GLabel 2800 5450 0    60   Output ~ 0
PWM4
Text GLabel 4700 6950 0    60   Input ~ 0
PWM4
Text GLabel 4700 6200 0    60   Input ~ 0
PWM6
Text GLabel 4700 5050 0    60   Input ~ 0
SW1
Text GLabel 4700 5150 0    60   Input ~ 0
SW2
Text GLabel 4700 5450 0    60   Input ~ 0
SW3
Text GLabel 4700 5550 0    60   Input ~ 0
SW4
Text GLabel 1150 5150 0    60   Output ~ 0
LED-uC-1
Text GLabel 3100 6150 0    60   Input ~ 0
LED-uC-1
Text GLabel 1950 5250 2    60   Output ~ 0
SCK
Text GLabel 1950 5350 2    60   Output ~ 0
MISO
Text GLabel 1150 5450 0    60   Output ~ 0
MOSI
Text GLabel 1950 5450 2    60   Output ~ 0
SSEL
Text GLabel 1600 6450 2    60   Input ~ 0
SCK
Text GLabel 900  6450 0    60   Input ~ 0
MOSI
Text GLabel 1600 6350 2    60   Input ~ 0
MISO
Text GLabel 900  6550 0    60   Input ~ 0
SSEL
Text GLabel 3600 4350 2    60   Output ~ 0
+3.3V
Text GLabel 4700 2500 0    60   Input ~ 0
+3.3V
Text GLabel 1950 4950 2    60   Output ~ 0
TXD
Text GLabel 1950 5050 2    60   Input ~ 0
RXD
Text GLabel 4750 3350 0    60   Output ~ 0
RXD
Text GLabel 4750 3250 0    60   Input ~ 0
TXD
Text GLabel 1150 5250 0    60   Output ~ 0
LED-uC-2
$Comp
L R R36
U 1 1 562D15B0
P 3900 6400
F 0 "R36" V 3980 6400 50  0000 C CNN
F 1 "330" V 3800 6400 50  0000 C CNN
F 2 "Discret:R3-LARGE_PADS" V 3830 6400 30  0001 C CNN
F 3 "" H 3900 6400 30  0000 C CNN
	1    3900 6400
	1    0    0    -1  
$EndComp
$Comp
L LED D3
U 1 1 562D15B6
P 3900 6850
F 0 "D3" H 3900 6950 50  0000 C CNN
F 1 "LED" H 3900 6750 50  0000 C CNN
F 2 "LEDs:LED-5MM" H 3900 6850 60  0001 C CNN
F 3 "" H 3900 6850 60  0000 C CNN
	1    3900 6850
	0    -1   -1   0   
$EndComp
$Comp
L GND #PWR013
U 1 1 562D15BC
P 3900 7100
F 0 "#PWR013" H 3900 6850 50  0001 C CNN
F 1 "GND" H 3900 6950 50  0000 C CNN
F 2 "" H 3900 7100 60  0000 C CNN
F 3 "" H 3900 7100 60  0000 C CNN
	1    3900 7100
	1    0    0    -1  
$EndComp
Text GLabel 3850 6150 0    60   Input ~ 0
LED-uC-2
$Comp
L GND #PWR014
U 1 1 561D3481
P 2800 4100
F 0 "#PWR014" H 2800 3850 50  0001 C CNN
F 1 "GND" H 2800 3950 50  0000 C CNN
F 2 "" H 2800 4100 60  0000 C CNN
F 3 "" H 2800 4100 60  0000 C CNN
	1    2800 4100
	1    0    0    -1  
$EndComp
NoConn ~ 1300 4750
NoConn ~ 1800 4450
NoConn ~ 1800 4550
NoConn ~ 1800 5150
NoConn ~ 1300 5350
NoConn ~ 1300 5050
NoConn ~ 1300 4950
NoConn ~ 2950 4450
NoConn ~ 2950 4550
NoConn ~ 2950 4750
NoConn ~ 3450 5450
NoConn ~ 3450 5250
NoConn ~ 3450 5050
NoConn ~ 3450 4950
NoConn ~ 3450 4750
NoConn ~ 3450 4450
Text GLabel 2800 5350 0    60   Output ~ 0
D0
Text GLabel 2800 5250 0    60   Output ~ 0
D1
Text GLabel 3600 5150 2    60   Output ~ 0
D2
Text GLabel 3600 4550 2    60   Output ~ 0
RS
Text GLabel 2800 4650 0    60   Output ~ 0
R/W
Text GLabel 3600 4650 2    60   Output ~ 0
E
Text GLabel 2800 4850 0    60   Output ~ 0
D7
Text GLabel 3600 4850 2    60   Output ~ 0
D6
Text GLabel 2800 4950 0    60   Output ~ 0
D5
Text GLabel 2800 5050 0    60   Output ~ 0
D4
Text GLabel 2800 5150 0    60   Output ~ 0
D3
NoConn ~ 1800 4350
Text GLabel 4700 4000 0    60   Input ~ 0
D2
Text GLabel 4700 4100 0    60   Input ~ 0
D3
Text GLabel 4700 4200 0    60   Input ~ 0
D4
Text GLabel 4700 4300 0    60   Input ~ 0
D5
Text GLabel 4700 4400 0    60   Input ~ 0
D6
Text GLabel 4700 4500 0    60   Input ~ 0
D7
Text GLabel 4700 4600 0    60   Input ~ 0
E
Text GLabel 4700 4700 0    60   Input ~ 0
R/W
Text GLabel 4700 4800 0    60   Input ~ 0
RS
Text GLabel 4700 5350 0    60   Input ~ 0
+5V
$Comp
L GND #PWR015
U 1 1 562ED504
P 4300 5300
F 0 "#PWR015" H 4300 5050 50  0001 C CNN
F 1 "GND" H 4300 5150 50  0000 C CNN
F 2 "" H 4300 5300 60  0000 C CNN
F 3 "" H 4300 5300 60  0000 C CNN
	1    4300 5300
	-1   0    0    -1  
$EndComp
Text Label 750  3850 0    60   ~ 0
LPC2124
Text Label 1200 4350 0    30   ~ 0
P0.21
Text Label 1200 4450 0    30   ~ 0
P0.23
Text Label 1200 4550 0    30   ~ 0
P0.24
Text Label 1200 4650 0    30   ~ 0
P0.25
Text Label 1200 4850 0    30   ~ 0
P0.29
Text Label 1200 5150 0    30   ~ 0
P0.2
Text Label 1200 5250 0    30   ~ 0
P0.3
Text Label 1200 5450 0    30   ~ 0
P0.6
Text Label 1800 5450 0    30   ~ 0
P0.7
Text Label 1800 5350 0    30   ~ 0
P0.5
Text Label 1800 5250 0    30   ~ 0
P0.4
Text Label 1800 5050 0    30   ~ 0
P0.1
Text Label 1800 4950 0    30   ~ 0
P0.0
Text Label 1800 4850 0    30   ~ 0
P0.30
Text Label 1800 4750 0    30   ~ 0
P0.28
Text Label 1800 4650 0    30   ~ 0
P0.27
Text Label 1850 4350 0    30   ~ 0
P0.22
Text Label 2800 4350 0    30   ~ 0
Reset
Text Label 2850 4650 0    30   ~ 0
P0.19
Text Label 2850 4850 0    30   ~ 0
P0.17
Text Label 2850 4950 0    30   ~ 0
P0.15
Text Label 2850 5050 0    30   ~ 0
P0.14
Text Label 2850 5150 0    30   ~ 0
P0.13
Text Label 2850 5250 0    30   ~ 0
P0.11
Text Label 2850 5350 0    30   ~ 0
P0.10
Text Label 2850 5450 0    30   ~ 0
P0.8
Text Label 3450 4550 0    30   ~ 0
P0.20
Text Label 3450 4650 0    30   ~ 0
P0.18
Text Label 3450 4850 0    30   ~ 0
P0.16
Text Label 3450 5150 0    30   ~ 0
P0.12
Text Label 3450 5350 0    30   ~ 0
P0.9
Text Label 3450 4350 0    30   ~ 0
3.3V
$Comp
L R R31
U 1 1 5632CDE2
P 7400 6050
F 0 "R31" V 7480 6050 50  0000 C CNN
F 1 "15k" V 7300 6050 50  0000 C CNN
F 2 "Discret:R3-LARGE_PADS" V 7330 6050 30  0001 C CNN
F 3 "" H 7400 6050 30  0000 C CNN
	1    7400 6050
	0    -1   -1   0   
$EndComp
$Comp
L R R32
U 1 1 5632CECD
P 7900 6050
F 0 "R32" V 7980 6050 50  0000 C CNN
F 1 "10k" V 7800 6050 50  0000 C CNN
F 2 "Discret:R3-LARGE_PADS" V 7830 6050 30  0001 C CNN
F 3 "" H 7900 6050 30  0000 C CNN
	1    7900 6050
	0    -1   -1   0   
$EndComp
Text GLabel 7800 6250 2    60   Output ~ 0
+6V
Text Label 750  700  0    60   ~ 0
Fuente-Simetrica
Text Label 700  3450 0    60   ~ 0
Fuente-5V
Text Label 10700 700  0    60   ~ 0
CAS
Text Label 4400 5900 0    60   ~ 0
SALIDA-PWM
Text Label 2750 5900 0    60   ~ 0
LED-DEBUG
Text Label 750  5900 0    60   ~ 0
ETHERNET
Text Label 4300 3550 0    60   ~ 0
UART
Text Label 4300 2850 0    60   ~ 0
3.3V
$Comp
L PWR_FLAG #FLG016
U 1 1 561F565B
P 12450 -1250
F 0 "#FLG016" H 12450 -1155 50  0001 C CNN
F 1 "PWR_FLAG" H 12450 -1070 50  0000 C CNN
F 2 "" H 12450 -1250 60  0000 C CNN
F 3 "" H 12450 -1250 60  0000 C CNN
	1    12450 -1250
	1    0    0    -1  
$EndComp
$Comp
L PWR_FLAG #FLG017
U 1 1 561F5747
P 13000 -1250
F 0 "#FLG017" H 13000 -1155 50  0001 C CNN
F 1 "PWR_FLAG" H 13000 -1070 50  0000 C CNN
F 2 "" H 13000 -1250 60  0000 C CNN
F 3 "" H 13000 -1250 60  0000 C CNN
	1    13000 -1250
	1    0    0    -1  
$EndComp
$Comp
L GND #PWR018
U 1 1 561F57EB
P 12450 -1050
F 0 "#PWR018" H 12450 -1300 50  0001 C CNN
F 1 "GND" H 12450 -1200 50  0000 C CNN
F 2 "" H 12450 -1050 60  0000 C CNN
F 3 "" H 12450 -1050 60  0000 C CNN
	1    12450 -1050
	1    0    0    -1  
$EndComp
Text GLabel 13000 -1000 3    60   Input ~ 0
+7.5V
$Comp
L PWR_FLAG #FLG019
U 1 1 561F7A9F
P 13500 -1250
F 0 "#FLG019" H 13500 -1155 50  0001 C CNN
F 1 "PWR_FLAG" H 13500 -1070 50  0000 C CNN
F 2 "" H 13500 -1250 60  0000 C CNN
F 3 "" H 13500 -1250 60  0000 C CNN
	1    13500 -1250
	1    0    0    -1  
$EndComp
Text GLabel 13500 -1000 3    60   Input ~ 0
-7.5V
Text GLabel 2000 5900 0    60   Input ~ 0
+3.3V
$Comp
L CONN_02X05 P10
U 1 1 56210DB7
P 1250 6450
F 0 "P10" H 1250 6750 50  0000 C CNN
F 1 "CONN_02X05" H 1250 6150 50  0000 C CNN
F 2 "Connect:VASCH5x2" H 1250 5250 60  0001 C CNN
F 3 "" H 1250 5250 60  0000 C CNN
	1    1250 6450
	1    0    0    -1  
$EndComp
NoConn ~ 1500 6250
NoConn ~ 1000 6250
NoConn ~ 1000 6350
$Comp
L SPST SW1
U 1 1 5621761E
P 1250 1300
F 0 "SW1" H 1250 1400 50  0000 C CNN
F 1 "SPST" H 1250 1200 50  0000 C CNN
F 2 "Pin_Headers:Pin_Header_Straight_1x02" H 1250 1300 60  0001 C CNN
F 3 "" H 1250 1300 60  0000 C CNN
	1    1250 1300
	0    -1   -1   0   
$EndComp
$Comp
L R R6
U 1 1 561B1FD7
P 8200 1400
F 0 "R6" V 8300 1400 50  0000 C CNN
F 1 "10K" V 8100 1400 50  0000 C CNN
F 2 "Discret:R3-LARGE_PADS" V 8130 1400 30  0001 C CNN
F 3 "" H 8200 1400 30  0000 C CNN
	1    8200 1400
	0    1    1    0   
$EndComp
Text GLabel 10750 3200 2    60   Input ~ 0
ADC1
Text GLabel 10750 4800 2    60   Input ~ 0
ADC2
$Comp
L CP1 C10
U 1 1 5631856E
P 8900 6150
F 0 "C10" H 8650 6200 50  0000 L CNN
F 1 "470uF" H 8650 6050 50  0000 L CNN
F 2 "Capacitors_ThroughHole:C_Radial_D6.3_L11.2_P2.5" H 8900 6150 60  0001 C CNN
F 3 "" H 8900 6150 60  0000 C CNN
	1    8900 6150
	0    -1   -1   0   
$EndComp
$Comp
L CP1 C11
U 1 1 5631A56B
P 10350 6150
F 0 "C11" H 10100 6200 50  0000 L CNN
F 1 "470uF" H 10100 6050 50  0000 L CNN
F 2 "Capacitors_ThroughHole:C_Radial_D6.3_L11.2_P2.5" H 10350 6150 60  0001 C CNN
F 3 "" H 10350 6150 60  0000 C CNN
	1    10350 6150
	0    -1   -1   0   
$EndComp
$Comp
L R R21
U 1 1 5631FE75
P 1650 3900
F 0 "R21" V 1730 3900 50  0000 C CNN
F 1 "1K" V 1550 3900 50  0000 C CNN
F 2 "Discret:R3-LARGE_PADS" V 1580 3900 30  0001 C CNN
F 3 "" H 1650 3900 30  0000 C CNN
	1    1650 3900
	0    1    1    0   
$EndComp
$Comp
L C C8
U 1 1 56320278
P 2450 4350
F 0 "C8" H 2475 4450 50  0000 L CNN
F 1 "0.1uF" H 2475 4250 50  0000 L CNN
F 2 "Capacitors_ThroughHole:C_Rect_L7_W2_P5" H 2488 4200 30  0001 C CNN
F 3 "" H 2450 4350 60  0000 C CNN
	1    2450 4350
	0    -1   -1   0   
$EndComp
$Comp
L GND #PWR020
U 1 1 563235A1
P 2250 4400
F 0 "#PWR020" H 2250 4150 50  0001 C CNN
F 1 "GND" H 2250 4250 50  0000 C CNN
F 2 "" H 2250 4400 60  0000 C CNN
F 3 "" H 2250 4400 60  0000 C CNN
	1    2250 4400
	1    0    0    -1  
$EndComp
$Comp
L C C12
U 1 1 56324BD2
P 2100 6850
F 0 "C12" H 2125 6950 50  0000 L CNN
F 1 "0.1uF" H 2150 6750 50  0000 L CNN
F 2 "Capacitors_ThroughHole:C_Rect_L7_W2_P5" H 2138 6700 30  0001 C CNN
F 3 "" H 2100 6850 60  0000 C CNN
	1    2100 6850
	1    0    0    -1  
$EndComp
$Comp
L GND #PWR021
U 1 1 56324CA1
P 2100 7100
F 0 "#PWR021" H 2100 6850 50  0001 C CNN
F 1 "GND" H 2100 6950 50  0000 C CNN
F 2 "" H 2100 7100 60  0000 C CNN
F 3 "" H 2100 7100 60  0000 C CNN
	1    2100 7100
	1    0    0    -1  
$EndComp
$Comp
L R R39
U 1 1 5632552A
P 950 7100
F 0 "R39" V 1030 7100 50  0000 C CNN
F 1 "1K" V 850 7100 50  0000 C CNN
F 2 "Discret:R3-LARGE_PADS" V 880 7100 30  0001 C CNN
F 3 "" H 950 7100 30  0000 C CNN
	1    950  7100
	0    1    1    0   
$EndComp
$Comp
L CONN_01X11 P4
U 1 1 5634C823
P 5000 4300
F 0 "P4" V 5100 4000 50  0000 C CNN
F 1 "LCD" V 5100 4300 50  0000 C CNN
F 2 "Pin_Headers:Pin_Header_Straight_1x11" H 5000 4300 60  0001 C CNN
F 3 "" H 5000 4300 60  0000 C CNN
	1    5000 4300
	1    0    0    -1  
$EndComp
$Comp
L CONN_01X07 P7
U 1 1 5634CAFA
P 5000 5250
F 0 "P7" V 5100 4950 50  0000 C CNN
F 1 "TECLADO" V 5100 5250 50  0000 C CNN
F 2 "Pin_Headers:Pin_Header_Straight_1x07" H 5000 5250 60  0001 C CNN
F 3 "" H 5000 5250 60  0000 C CNN
	1    5000 5250
	1    0    0    -1  
$EndComp
Text GLabel 850  1200 3    60   Output ~ 0
+15V
$Comp
L Earth #PWR022
U 1 1 56337C93
P 950 1200
F 0 "#PWR022" H 950 950 50  0001 C CNN
F 1 "Earth" H 950 1050 50  0001 C CNN
F 2 "" H 950 1200 60  0000 C CNN
F 3 "" H 950 1200 60  0000 C CNN
	1    950  1200
	1    0    0    -1  
$EndComp
Text GLabel 1050 1850 0    60   Input ~ 0
+15V
$Comp
L Earth #PWR023
U 1 1 5633A11F
P 1250 2000
F 0 "#PWR023" H 1250 1750 50  0001 C CNN
F 1 "Earth" H 1250 1850 50  0001 C CNN
F 2 "" H 1250 2000 60  0000 C CNN
F 3 "" H 1250 2000 60  0000 C CNN
	1    1250 2000
	1    0    0    -1  
$EndComp
$Comp
L Earth #PWR024
U 1 1 56345E07
P 8150 6100
F 0 "#PWR024" H 8150 5850 50  0001 C CNN
F 1 "Earth" H 8150 5950 50  0001 C CNN
F 2 "" H 8150 6100 60  0000 C CNN
F 3 "" H 8150 6100 60  0000 C CNN
	1    8150 6100
	1    0    0    -1  
$EndComp
Wire Wire Line
	4050 1250 4050 1450
Wire Wire Line
	4700 1200 4700 1500
Wire Wire Line
	3850 1350 5000 1350
Connection ~ 4700 1350
Connection ~ 4050 1350
Wire Wire Line
	3750 1050 3600 1050
Wire Wire Line
	3600 1050 3600 1650
Wire Wire Line
	3600 1650 3750 1650
Wire Wire Line
	3250 1350 3600 1350
Connection ~ 3600 1350
Wire Wire Line
	4700 750  4700 900 
Wire Wire Line
	4050 750  4050 850 
Wire Wire Line
	2650 750  2650 950 
Connection ~ 4050 750 
Wire Wire Line
	1850 750  1850 850 
Connection ~ 2650 750 
Wire Wire Line
	1850 1150 1850 1450
Wire Wire Line
	1850 1250 2250 1250
Connection ~ 1850 1250
Wire Wire Line
	4700 1950 4700 1800
Wire Wire Line
	4050 1950 4050 1850
Wire Wire Line
	1850 1950 1850 1750
Connection ~ 4050 1950
Wire Wire Line
	2650 1750 2650 1950
Connection ~ 2650 1950
Wire Wire Line
	2250 1450 2150 1450
Wire Wire Line
	2150 1450 2150 1700
Wire Wire Line
	2150 1700 3050 1700
Wire Wire Line
	3350 1700 3450 1700
Wire Wire Line
	3450 1700 3450 1450
Wire Wire Line
	3450 1450 3850 1450
Wire Wire Line
	3850 1450 3850 1350
Connection ~ 1850 750 
Connection ~ 1850 1950
Connection ~ 4700 750 
Connection ~ 4700 1950
Wire Wire Line
	5900 700  6000 700 
Wire Wire Line
	6000 700  6000 900 
Connection ~ 6000 1300
Wire Wire Line
	6950 1950 7100 1950
Wire Wire Line
	10600 1600 10600 1500
Wire Wire Line
	10400 1500 10750 1500
Wire Wire Line
	10600 1900 10600 2100
Connection ~ 10600 1500
Wire Wire Line
	6200 1300 6000 1300
Wire Wire Line
	6500 1300 6700 1300
Wire Wire Line
	6950 800  6600 800 
Wire Wire Line
	6600 800  6600 1300
Connection ~ 6600 1300
Wire Wire Line
	8350 1400 8900 1400
Wire Wire Line
	8250 1700 8700 1700
Wire Wire Line
	8700 1700 8700 850 
Connection ~ 8700 1400
Wire Wire Line
	8700 850  9150 850 
Wire Wire Line
	8900 1600 8800 1600
Wire Wire Line
	8800 1600 8800 1850
Wire Wire Line
	7950 1700 7850 1700
Wire Wire Line
	7550 1700 7450 1700
Wire Wire Line
	7450 1700 7450 1850
Wire Notes Line
	600  550  5300 550 
Wire Notes Line
	600  550  600  2200
Wire Notes Line
	600  2200 5300 2200
Wire Wire Line
	1050 2550 1600 2550
Wire Wire Line
	2000 2850 2000 3400
Wire Wire Line
	1400 2550 1400 2850
Connection ~ 1400 2550
Wire Wire Line
	2400 2550 3650 2550
Wire Wire Line
	2550 2550 2550 2850
Wire Wire Line
	3000 2550 3000 2850
Connection ~ 2550 2550
Connection ~ 3000 2550
Wire Wire Line
	5000 1350 5000 1400
Wire Wire Line
	6700 1500 6650 1500
Wire Wire Line
	6650 1500 6650 1550
Wire Wire Line
	4800 2600 4750 2600
Wire Wire Line
	4750 2600 4750 2650
Wire Wire Line
	1800 4750 1950 4750
Wire Wire Line
	1800 4650 1950 4650
Wire Wire Line
	9050 6150 9200 6150
Wire Wire Line
	10000 6050 10650 6050
Wire Wire Line
	10500 6150 10650 6150
Wire Wire Line
	10600 6150 10600 6200
Wire Wire Line
	7100 1950 7100 1800
Wire Wire Line
	7100 1000 7100 950 
Wire Wire Line
	7100 950  6950 950 
Wire Wire Line
	3400 2550 3400 2600
Connection ~ 3400 2550
Wire Notes Line
	600  2300 600  3600
Wire Notes Line
	600  3600 4100 3600
Wire Notes Line
	4100 3600 4100 2300
Wire Notes Line
	4100 2300 600  2300
Wire Wire Line
	3150 6550 3150 6650
Wire Wire Line
	3150 7050 3150 7100
Wire Wire Line
	3150 6150 3150 6250
Wire Wire Line
	1150 4350 1300 4350
Wire Wire Line
	1150 4450 1300 4450
Wire Wire Line
	1150 4550 1300 4550
Wire Wire Line
	1150 4650 1300 4650
Wire Wire Line
	9100 5950 9200 5950
Wire Wire Line
	10650 5950 10550 5950
Wire Wire Line
	3600 5350 3450 5350
Wire Wire Line
	2800 5450 2950 5450
Wire Wire Line
	1150 5150 1300 5150
Wire Wire Line
	3100 6150 3150 6150
Wire Wire Line
	1800 5450 1950 5450
Wire Wire Line
	1800 5350 1950 5350
Wire Wire Line
	1800 5250 1950 5250
Wire Wire Line
	1150 5450 1300 5450
Wire Wire Line
	4800 2500 4700 2500
Wire Wire Line
	1800 4950 1950 4950
Wire Wire Line
	1800 5050 1950 5050
Wire Wire Line
	4750 3250 4850 3250
Wire Wire Line
	4850 3350 4750 3350
Wire Wire Line
	4850 3150 4400 3150
Wire Wire Line
	4400 3150 4400 3200
Wire Wire Line
	1150 5250 1300 5250
Wire Wire Line
	3900 6550 3900 6650
Wire Wire Line
	3900 7050 3900 7100
Wire Wire Line
	3900 6150 3900 6250
Wire Wire Line
	3850 6150 3900 6150
Wire Wire Line
	2950 4250 2900 4250
Wire Wire Line
	2900 4250 2900 4050
Wire Wire Line
	2800 4100 2800 4050
Wire Wire Line
	2800 4050 2900 4050
Wire Wire Line
	3250 3900 3500 3900
Wire Wire Line
	3500 3900 3500 4250
Connection ~ 3500 4250
Wire Wire Line
	2800 5150 2950 5150
Wire Wire Line
	2800 5250 2950 5250
Wire Wire Line
	2800 5350 2950 5350
Wire Wire Line
	2800 4850 2950 4850
Wire Wire Line
	2800 4950 2950 4950
Wire Wire Line
	2800 5050 2950 5050
Wire Wire Line
	2800 4650 2950 4650
Wire Wire Line
	3450 4650 3600 4650
Wire Wire Line
	3600 4550 3450 4550
Wire Wire Line
	3600 4850 3450 4850
Wire Wire Line
	3600 5150 3450 5150
Wire Wire Line
	3600 4350 3450 4350
Wire Wire Line
	3450 4250 3600 4250
Wire Wire Line
	4800 4800 4700 4800
Wire Wire Line
	4800 4700 4700 4700
Wire Wire Line
	4700 4600 4800 4600
Wire Wire Line
	4800 4500 4700 4500
Wire Wire Line
	4700 4400 4800 4400
Wire Wire Line
	4800 4300 4700 4300
Wire Wire Line
	4700 4200 4800 4200
Wire Wire Line
	4800 4100 4700 4100
Wire Wire Line
	4700 4000 4800 4000
Wire Wire Line
	4800 3900 4700 3900
Wire Wire Line
	4700 3800 4800 3800
Wire Wire Line
	4300 5250 4800 5250
Wire Wire Line
	4700 5350 4800 5350
Wire Wire Line
	4800 5450 4700 5450
Wire Wire Line
	4700 5550 4800 5550
Wire Wire Line
	3400 2900 3400 2950
Wire Wire Line
	1400 3400 3400 3400
Wire Wire Line
	3400 3400 3400 3350
Wire Wire Line
	1400 3400 1400 3150
Connection ~ 2000 3400
Wire Wire Line
	2550 3150 2550 3400
Connection ~ 2550 3400
Wire Wire Line
	3000 3150 3000 3400
Connection ~ 3000 3400
Wire Notes Line
	600  3700 4100 3700
Wire Notes Line
	4100 3700 4100 5650
Wire Notes Line
	600  3750 600  5650
Wire Notes Line
	600  3800 600  3700
Wire Wire Line
	7100 6050 7250 6050
Wire Notes Line
	4200 3700 4200 5650
Wire Notes Line
	4200 5650 5300 5650
Wire Notes Line
	5300 5650 5300 3700
Wire Notes Line
	5300 3700 4200 3700
Wire Notes Line
	600  5650 4100 5650
Wire Notes Line
	600  5750 2400 5750
Wire Notes Line
	600  7650 2400 7650
Wire Notes Line
	600  7650 600  5750
Wire Notes Line
	4100 7650 4100 5750
Wire Notes Line
	4200 5750 4200 7650
Wire Notes Line
	4200 7650 6900 7650
Wire Notes Line
	4200 5750 11100 5750
Wire Notes Line
	11100 550  11100 5650
Wire Notes Line
	11100 550  5400 550 
Wire Notes Line
	5400 550  5400 5650
Wire Notes Line
	5400 5650 11100 5650
Wire Notes Line
	5300 2300 4200 2300
Wire Notes Line
	4200 3000 5300 3000
Wire Notes Line
	5300 3000 5300 3600
Wire Notes Line
	5300 3600 4200 3600
Wire Notes Line
	4200 3600 4200 3000
Wire Notes Line
	5300 2200 5300 550 
Wire Wire Line
	4800 5050 4700 5050
Wire Wire Line
	9150 6150 9150 6200
Wire Wire Line
	6000 1850 6000 1950
Wire Wire Line
	6000 1200 6000 1450
Wire Wire Line
	13000 -1250 13000 -1000
Wire Wire Line
	12450 -1250 12450 -1050
Wire Wire Line
	13500 -1250 13500 -1000
Wire Wire Line
	1600 6700 1600 6650
Wire Wire Line
	1600 6650 1500 6650
Wire Wire Line
	1600 6450 1500 6450
Wire Wire Line
	1600 6350 1500 6350
Wire Wire Line
	900  6550 1000 6550
Wire Wire Line
	900  6450 1000 6450
Wire Wire Line
	1250 800  1250 750 
Wire Wire Line
	1250 750  4900 750 
Wire Wire Line
	1250 1850 1250 1800
Wire Wire Line
	9450 850  10000 850 
Wire Wire Line
	10000 850  10000 1500
Wire Wire Line
	9900 1500 10100 1500
Connection ~ 10000 1500
Wire Wire Line
	7700 1400 8050 1400
Wire Wire Line
	7250 800  7750 800 
Wire Wire Line
	7750 800  7750 1400
Connection ~ 7750 1400
Connection ~ 9150 6150
Connection ~ 10600 6150
Wire Wire Line
	2500 3900 2950 3900
Wire Wire Line
	2600 4350 2950 4350
Wire Wire Line
	2700 4350 2700 3900
Connection ~ 2700 3900
Wire Wire Line
	1400 3950 1400 3900
Wire Wire Line
	1400 3900 1500 3900
Wire Wire Line
	1800 3900 1900 3900
Connection ~ 2700 4350
Wire Wire Line
	2300 4350 2250 4350
Wire Wire Line
	2250 4350 2250 4400
Wire Wire Line
	1500 6550 2100 6550
Wire Wire Line
	2100 6450 2100 6700
Connection ~ 2100 6550
Wire Wire Line
	1950 6550 1950 7100
Wire Wire Line
	1950 7100 1850 7100
Connection ~ 1950 6550
Wire Wire Line
	2100 7000 2100 7100
Wire Wire Line
	1250 7100 1100 7100
Wire Wire Line
	800  7100 700  7100
Wire Wire Line
	700  7100 700  7150
Wire Wire Line
	2000 5900 2100 5900
Wire Wire Line
	2100 5900 2100 6150
Wire Notes Line
	2400 7650 2400 5750
Wire Notes Line
	2500 5750 2500 7650
Wire Notes Line
	2500 7650 4100 7650
Wire Notes Line
	4100 5750 2500 5750
Wire Wire Line
	4800 5150 4700 5150
Wire Wire Line
	4300 5250 4300 5300
Wire Wire Line
	1000 6650 950  6650
Wire Wire Line
	850  1200 850  1100
Wire Wire Line
	950  1100 950  1200
Wire Wire Line
	1250 1850 1050 1850
Wire Wire Line
	1250 1950 4900 1950
Wire Wire Line
	1250 1950 1250 2000
Wire Notes Line
	5300 2900 4200 2900
Wire Notes Line
	5300 2300 5300 2900
Wire Notes Line
	4200 2900 4200 2300
Wire Wire Line
	7550 6050 7750 6050
Connection ~ 7650 6050
Wire Wire Line
	8050 6050 8150 6050
$Comp
L Earth #PWR025
U 1 1 5634AE8E
P 9150 6200
F 0 "#PWR025" H 9150 5950 50  0001 C CNN
F 1 "Earth" H 9150 6050 50  0001 C CNN
F 2 "" H 9150 6200 60  0000 C CNN
F 3 "" H 9150 6200 60  0000 C CNN
	1    9150 6200
	1    0    0    -1  
$EndComp
$Comp
L Earth #PWR026
U 1 1 5634AF42
P 10600 6200
F 0 "#PWR026" H 10600 5950 50  0001 C CNN
F 1 "Earth" H 10600 6050 50  0001 C CNN
F 2 "" H 10600 6200 60  0000 C CNN
F 3 "" H 10600 6200 60  0000 C CNN
	1    10600 6200
	1    0    0    -1  
$EndComp
$Comp
L GND #PWR027
U 1 1 56356D30
P 5150 7250
F 0 "#PWR027" H 5150 7000 50  0001 C CNN
F 1 "GND" H 5150 7100 50  0000 C CNN
F 2 "" H 5150 7250 60  0000 C CNN
F 3 "" H 5150 7250 60  0000 C CNN
	1    5150 7250
	1    0    0    -1  
$EndComp
$Comp
L GND #PWR028
U 1 1 56357308
P 5150 6500
F 0 "#PWR028" H 5150 6250 50  0001 C CNN
F 1 "GND" H 5150 6350 50  0000 C CNN
F 2 "" H 5150 6500 60  0000 C CNN
F 3 "" H 5150 6500 60  0000 C CNN
	1    5150 6500
	1    0    0    -1  
$EndComp
$Comp
L R R33
U 1 1 563573C0
P 5000 6200
F 0 "R33" V 5080 6200 50  0000 C CNN
F 1 "330" V 4900 6200 50  0000 C CNN
F 2 "Discret:R3-LARGE_PADS" V 4930 6200 30  0001 C CNN
F 3 "" H 5000 6200 30  0000 C CNN
	1    5000 6200
	0    1    1    0   
$EndComp
$Comp
L R R38
U 1 1 5635749D
P 5000 6950
F 0 "R38" V 5080 6950 50  0000 C CNN
F 1 "330" V 4900 6950 50  0000 C CNN
F 2 "Discret:R3-LARGE_PADS" V 4930 6950 30  0001 C CNN
F 3 "" H 5000 6950 30  0000 C CNN
	1    5000 6950
	0    1    1    0   
$EndComp
Wire Wire Line
	5150 6950 5250 6950
Wire Wire Line
	5250 7150 5150 7150
Wire Wire Line
	5150 7150 5150 7250
Wire Wire Line
	4700 6200 4850 6200
Wire Wire Line
	5150 6200 5250 6200
Wire Wire Line
	5250 6400 5150 6400
Wire Wire Line
	5150 6400 5150 6500
Wire Wire Line
	8750 6150 8700 6150
Wire Wire Line
	8700 6150 8700 6050
Wire Wire Line
	8600 6050 9200 6050
Connection ~ 8700 6050
Wire Wire Line
	10200 6150 10150 6150
Wire Wire Line
	10150 6150 10150 6050
Connection ~ 10150 6050
Wire Notes Line
	11100 5750 11100 6450
Wire Notes Line
	11100 6450 6900 6450
Wire Notes Line
	6900 6450 6900 7650
Text GLabel 7100 6050 0    60   Input ~ 0
+15V
Wire Wire Line
	8150 6050 8150 6100
Wire Wire Line
	7650 6050 7650 6250
Wire Wire Line
	7650 6250 7800 6250
Wire Wire Line
	4850 6950 4700 6950
Text GLabel 6150 6400 2    60   Output ~ 0
SSERVO1
Text GLabel 9100 5950 0    60   Input ~ 0
SSERVO1
Text GLabel 6150 7150 2    60   Output ~ 0
SSERVO2
Text GLabel 10550 5950 0    60   Input ~ 0
SSERVO2
Wire Wire Line
	5850 7150 6150 7150
Wire Wire Line
	5850 6400 6150 6400
Text GLabel 5950 6200 2    60   Input ~ 0
+6V
Text GLabel 5950 6950 2    60   Input ~ 0
+6V
Wire Wire Line
	5950 6950 5850 6950
Wire Wire Line
	5950 6200 5850 6200
$Comp
L LTV-817 U8
U 1 1 5639E86B
P 5550 6300
F 0 "U8" H 5350 6500 50  0000 L CNN
F 1 "LTV-817" H 5550 6500 50  0000 L CNN
F 2 "Housings_DIP:DIP-4_W7.62mm_LongPads" H 5350 6100 50  0000 L CIN
F 3 "" H 5550 6200 50  0000 L CNN
	1    5550 6300
	1    0    0    -1  
$EndComp
$Comp
L LTV-817 U9
U 1 1 5639E934
P 5550 7050
F 0 "U9" H 5350 7250 50  0000 L CNN
F 1 "LTV-817" H 5550 7250 50  0000 L CNN
F 2 "Housings_DIP:DIP-4_W7.62mm_LongPads" H 5350 6850 50  0000 L CIN
F 3 "" H 5550 6950 50  0000 L CNN
	1    5550 7050
	1    0    0    -1  
$EndComp
$Comp
L R R40
U 1 1 5639F71F
P 6150 7350
F 0 "R40" V 6230 7350 50  0000 C CNN
F 1 "1k" V 6050 7350 50  0000 C CNN
F 2 "Discret:R3-LARGE_PADS" V 6080 7350 30  0001 C CNN
F 3 "" H 6150 7350 30  0000 C CNN
	1    6150 7350
	0    1    1    0   
$EndComp
$Comp
L Earth #PWR029
U 1 1 5639F83F
P 6450 7450
F 0 "#PWR029" H 6450 7200 50  0001 C CNN
F 1 "Earth" H 6450 7300 50  0001 C CNN
F 2 "" H 6450 7450 60  0000 C CNN
F 3 "" H 6450 7450 60  0000 C CNN
	1    6450 7450
	1    0    0    -1  
$EndComp
Wire Wire Line
	6450 7450 6450 7350
Wire Wire Line
	6450 7350 6300 7350
Wire Wire Line
	6000 7350 5950 7350
Wire Wire Line
	5950 7350 5950 7150
Connection ~ 5950 7150
$Comp
L R R37
U 1 1 563A04A7
P 6150 6600
F 0 "R37" V 6230 6600 50  0000 C CNN
F 1 "1k" V 6050 6600 50  0000 C CNN
F 2 "Discret:R3-LARGE_PADS" V 6080 6600 30  0001 C CNN
F 3 "" H 6150 6600 30  0000 C CNN
	1    6150 6600
	0    1    1    0   
$EndComp
$Comp
L Earth #PWR030
U 1 1 563A04AD
P 6450 6700
F 0 "#PWR030" H 6450 6450 50  0001 C CNN
F 1 "Earth" H 6450 6550 50  0001 C CNN
F 2 "" H 6450 6700 60  0000 C CNN
F 3 "" H 6450 6700 60  0000 C CNN
	1    6450 6700
	1    0    0    -1  
$EndComp
Wire Wire Line
	6450 6700 6450 6600
Wire Wire Line
	6450 6600 6300 6600
Wire Wire Line
	6000 6600 5950 6600
Wire Wire Line
	5950 6600 5950 6400
Connection ~ 5950 6400
Wire Wire Line
	1300 4850 1150 4850
NoConn ~ 1800 4850
$Comp
L TL074 U2
U 4 1 56386563
P 7200 3100
F 0 "U2" H 7250 3300 60  0000 C CNN
F 1 "TL084" H 7350 2900 50  0000 C CNN
F 2 "Housings_DIP:DIP-14_W7.62mm_LongPads" H 7200 3100 60  0001 C CNN
F 3 "" H 7200 3100 60  0000 C CNN
	4    7200 3100
	1    0    0    1   
$EndComp
$Comp
L TL074 U2
U 3 1 56386569
P 9400 3200
F 0 "U2" H 9450 3400 60  0000 C CNN
F 1 "TL084" H 9550 3000 50  0000 C CNN
F 2 "Housings_DIP:DIP-14_W7.62mm_LongPads" H 9400 3200 60  0001 C CNN
F 3 "" H 9400 3200 60  0000 C CNN
	3    9400 3200
	1    0    0    1   
$EndComp
$Comp
L LM335-RESCUE-Control_Ducha U5
U 1 1 5638656F
P 6000 3350
F 0 "U5" H 5700 3400 60  0000 C CNN
F 1 "LM335" H 5700 3300 60  0000 C CNN
F 2 "Pin_Headers:Pin_Header_Straight_1x03" H 6000 3350 60  0001 C CNN
F 3 "" H 6000 3350 60  0000 C CNN
	1    6000 3350
	1    0    0    -1  
$EndComp
$Comp
L R R15
U 1 1 56386575
P 6000 2750
F 0 "R15" V 6080 2750 50  0000 C CNN
F 1 "1K" V 5900 2750 50  0000 C CNN
F 2 "Discret:R3-LARGE_PADS" V 5930 2750 30  0001 C CNN
F 3 "" H 6000 2750 30  0000 C CNN
	1    6000 2750
	1    0    0    -1  
$EndComp
Text GLabel 5900 2400 0    60   Input ~ 0
+7.5V
$Comp
L R R16
U 1 1 5638657C
P 6350 3000
F 0 "R16" V 6430 3000 50  0000 C CNN
F 1 "1K" V 6250 3000 50  0000 C CNN
F 2 "Discret:R3-LARGE_PADS" V 6280 3000 30  0001 C CNN
F 3 "" H 6350 3000 30  0000 C CNN
	1    6350 3000
	0    1    1    0   
$EndComp
$Comp
L R R12
U 1 1 56386582
P 7100 2500
F 0 "R12" V 7180 2500 50  0000 C CNN
F 1 "1K" V 7000 2500 50  0000 C CNN
F 2 "Discret:R3-LARGE_PADS" V 7030 2500 30  0001 C CNN
F 3 "" H 7100 2500 30  0000 C CNN
	1    7100 2500
	0    1    1    0   
$EndComp
$Comp
L R R19
U 1 1 56386588
P 7700 3400
F 0 "R19" V 7800 3400 50  0000 C CNN
F 1 "27K" V 7600 3400 50  0000 C CNN
F 2 "Discret:R3-LARGE_PADS" V 7630 3400 30  0001 C CNN
F 3 "" H 7700 3400 30  0000 C CNN
	1    7700 3400
	0    1    1    0   
$EndComp
$Comp
L R R13
U 1 1 5638658E
P 9300 2550
F 0 "R13" V 9400 2550 50  0000 C CNN
F 1 "33K" V 9200 2550 50  0000 C CNN
F 2 "Discret:R3-LARGE_PADS" V 9230 2550 30  0001 C CNN
F 3 "" H 9300 2550 30  0000 C CNN
	1    9300 2550
	0    1    1    0   
$EndComp
Text GLabel 6950 2650 0    60   Input ~ 0
-7.5V
Text GLabel 6950 3650 0    60   Input ~ 0
+7.5V
NoConn ~ 9300 2800
NoConn ~ 9300 3600
$Comp
L R R20
U 1 1 56386598
P 8100 3400
F 0 "R20" V 8180 3400 50  0000 C CNN
F 1 "470" V 8000 3400 50  0000 C CNN
F 2 "Discret:R3-LARGE_PADS" V 8030 3400 30  0001 C CNN
F 3 "" H 8100 3400 30  0000 C CNN
	1    8100 3400
	0    1    1    0   
$EndComp
NoConn ~ 6150 3400
$Comp
L R R18
U 1 1 5638659F
P 10250 3200
F 0 "R18" V 10330 3200 50  0000 C CNN
F 1 "1K" V 10150 3200 50  0000 C CNN
F 2 "Discret:R3-LARGE_PADS" V 10180 3200 30  0001 C CNN
F 3 "" H 10250 3200 30  0000 C CNN
	1    10250 3200
	0    1    1    0   
$EndComp
$Comp
L C C7
U 1 1 563865A5
P 10600 3450
F 0 "C7" H 10625 3550 50  0000 L CNN
F 1 "0.1uF" H 10625 3350 50  0000 L CNN
F 2 "Capacitors_ThroughHole:C_Rect_L7_W2_P5" H 10638 3300 30  0001 C CNN
F 3 "" H 10600 3450 60  0000 C CNN
	1    10600 3450
	1    0    0    -1  
$EndComp
$Comp
L GND #PWR031
U 1 1 563865AB
P 6650 3250
F 0 "#PWR031" H 6650 3000 50  0001 C CNN
F 1 "GND" H 6650 3100 50  0000 C CNN
F 2 "" H 6650 3250 60  0000 C CNN
F 3 "" H 6650 3250 60  0000 C CNN
	1    6650 3250
	1    0    0    -1  
$EndComp
$Comp
L GND #PWR032
U 1 1 563865B1
P 6000 3650
F 0 "#PWR032" H 6000 3400 50  0001 C CNN
F 1 "GND" H 6000 3500 50  0000 C CNN
F 2 "" H 6000 3650 60  0000 C CNN
F 3 "" H 6000 3650 60  0000 C CNN
	1    6000 3650
	1    0    0    -1  
$EndComp
$Comp
L GND #PWR033
U 1 1 563865B7
P 8800 3550
F 0 "#PWR033" H 8800 3300 50  0001 C CNN
F 1 "GND" H 8800 3400 50  0000 C CNN
F 2 "" H 8800 3550 60  0000 C CNN
F 3 "" H 8800 3550 60  0000 C CNN
	1    8800 3550
	1    0    0    -1  
$EndComp
$Comp
L GND #PWR034
U 1 1 563865BD
P 10600 3800
F 0 "#PWR034" H 10600 3550 50  0001 C CNN
F 1 "GND" H 10600 3650 50  0000 C CNN
F 2 "" H 10600 3800 60  0000 C CNN
F 3 "" H 10600 3800 60  0000 C CNN
	1    10600 3800
	1    0    0    -1  
$EndComp
Text GLabel 7450 3550 3    60   Input ~ 0
+7.5V
$Comp
L R R17
U 1 1 563865C5
P 8200 3100
F 0 "R17" V 8300 3100 50  0000 C CNN
F 1 "10K" V 8100 3100 50  0000 C CNN
F 2 "Discret:R3-LARGE_PADS" V 8130 3100 30  0001 C CNN
F 3 "" H 8200 3100 30  0000 C CNN
	1    8200 3100
	0    1    1    0   
$EndComp
Wire Wire Line
	5900 2400 6000 2400
Wire Wire Line
	6000 2400 6000 2600
Connection ~ 6000 3000
Wire Wire Line
	6950 3650 7100 3650
Wire Wire Line
	10600 3300 10600 3200
Wire Wire Line
	10400 3200 10750 3200
Wire Wire Line
	10600 3600 10600 3800
Connection ~ 10600 3200
Wire Wire Line
	6200 3000 6000 3000
Wire Wire Line
	6500 3000 6700 3000
Wire Wire Line
	6950 2500 6600 2500
Wire Wire Line
	6600 2500 6600 3000
Connection ~ 6600 3000
Wire Wire Line
	8350 3100 8900 3100
Wire Wire Line
	8250 3400 8700 3400
Wire Wire Line
	8700 3400 8700 2550
Connection ~ 8700 3100
Wire Wire Line
	8700 2550 9150 2550
Wire Wire Line
	8900 3300 8800 3300
Wire Wire Line
	8800 3300 8800 3550
Wire Wire Line
	7950 3400 7850 3400
Wire Wire Line
	7550 3400 7450 3400
Wire Wire Line
	7450 3400 7450 3550
Wire Wire Line
	6700 3200 6650 3200
Wire Wire Line
	6650 3200 6650 3250
Wire Wire Line
	7100 3650 7100 3500
Wire Wire Line
	7100 2700 7100 2650
Wire Wire Line
	7100 2650 6950 2650
Wire Wire Line
	6000 3550 6000 3650
Wire Wire Line
	6000 2900 6000 3150
Wire Wire Line
	9450 2550 10000 2550
Wire Wire Line
	10000 2550 10000 3200
Wire Wire Line
	9900 3200 10100 3200
Connection ~ 10000 3200
Wire Wire Line
	7700 3100 8050 3100
Wire Wire Line
	7250 2500 7750 2500
Wire Wire Line
	7750 2500 7750 3100
Connection ~ 7750 3100
$Comp
L GND #PWR035
U 1 1 56387190
P 10600 3700
F 0 "#PWR035" H 10600 3450 50  0001 C CNN
F 1 "GND" H 10600 3550 50  0000 C CNN
F 2 "" H 10600 3700 60  0000 C CNN
F 3 "" H 10600 3700 60  0000 C CNN
	1    10600 3700
	1    0    0    -1  
$EndComp
$Comp
L TL074 U6
U 1 1 56387196
P 7200 4700
F 0 "U6" H 7250 4900 60  0000 C CNN
F 1 "TL084" H 7350 4500 50  0000 C CNN
F 2 "Housings_DIP:DIP-14_W7.62mm_LongPads" H 7200 4700 60  0001 C CNN
F 3 "" H 7200 4700 60  0000 C CNN
	1    7200 4700
	1    0    0    1   
$EndComp
$Comp
L TL074 U6
U 2 1 5638719C
P 9400 4800
F 0 "U6" H 9450 5000 60  0000 C CNN
F 1 "TL084" H 9550 4600 50  0000 C CNN
F 2 "Housings_DIP:DIP-14_W7.62mm_LongPads" H 9400 4800 60  0001 C CNN
F 3 "" H 9400 4800 60  0000 C CNN
	2    9400 4800
	1    0    0    1   
$EndComp
$Comp
L LM335-RESCUE-Control_Ducha U7
U 1 1 563871A2
P 6000 4950
F 0 "U7" H 5700 5000 60  0000 C CNN
F 1 "LM335" H 5700 4900 60  0000 C CNN
F 2 "Pin_Headers:Pin_Header_Straight_1x03" H 6000 4950 60  0001 C CNN
F 3 "" H 6000 4950 60  0000 C CNN
	1    6000 4950
	1    0    0    -1  
$EndComp
$Comp
L R R25
U 1 1 563871A8
P 6000 4350
F 0 "R25" V 6080 4350 50  0000 C CNN
F 1 "1K" V 5900 4350 50  0000 C CNN
F 2 "Discret:R3-LARGE_PADS" V 5930 4350 30  0001 C CNN
F 3 "" H 6000 4350 30  0000 C CNN
	1    6000 4350
	1    0    0    -1  
$EndComp
Text GLabel 5900 4000 0    60   Input ~ 0
+7.5V
$Comp
L R R26
U 1 1 563871AF
P 6350 4600
F 0 "R26" V 6430 4600 50  0000 C CNN
F 1 "1K" V 6250 4600 50  0000 C CNN
F 2 "Discret:R3-LARGE_PADS" V 6280 4600 30  0001 C CNN
F 3 "" H 6350 4600 30  0000 C CNN
	1    6350 4600
	0    1    1    0   
$EndComp
$Comp
L R R23
U 1 1 563871B5
P 7100 4100
F 0 "R23" V 7180 4100 50  0000 C CNN
F 1 "1K" V 7000 4100 50  0000 C CNN
F 2 "Discret:R3-LARGE_PADS" V 7030 4100 30  0001 C CNN
F 3 "" H 7100 4100 30  0000 C CNN
	1    7100 4100
	0    1    1    0   
$EndComp
$Comp
L R R29
U 1 1 563871BB
P 7700 5000
F 0 "R29" V 7800 5000 50  0000 C CNN
F 1 "27K" V 7600 5000 50  0000 C CNN
F 2 "Discret:R3-LARGE_PADS" V 7630 5000 30  0001 C CNN
F 3 "" H 7700 5000 30  0000 C CNN
	1    7700 5000
	0    1    1    0   
$EndComp
$Comp
L R R24
U 1 1 563871C1
P 9300 4150
F 0 "R24" V 9400 4150 50  0000 C CNN
F 1 "33K" V 9200 4150 50  0000 C CNN
F 2 "Discret:R3-LARGE_PADS" V 9230 4150 30  0001 C CNN
F 3 "" H 9300 4150 30  0000 C CNN
	1    9300 4150
	0    1    1    0   
$EndComp
Text GLabel 6950 4250 0    60   Input ~ 0
-7.5V
Text GLabel 6950 5250 0    60   Input ~ 0
+7.5V
NoConn ~ 9300 4400
NoConn ~ 9300 5200
$Comp
L R R30
U 1 1 563871CB
P 8100 5000
F 0 "R30" V 8180 5000 50  0000 C CNN
F 1 "470" V 8000 5000 50  0000 C CNN
F 2 "Discret:R3-LARGE_PADS" V 8030 5000 30  0001 C CNN
F 3 "" H 8100 5000 30  0000 C CNN
	1    8100 5000
	0    1    1    0   
$EndComp
NoConn ~ 6150 5000
$Comp
L R R28
U 1 1 563871D2
P 10250 4800
F 0 "R28" V 10330 4800 50  0000 C CNN
F 1 "1K" V 10150 4800 50  0000 C CNN
F 2 "Discret:R3-LARGE_PADS" V 10180 4800 30  0001 C CNN
F 3 "" H 10250 4800 30  0000 C CNN
	1    10250 4800
	0    1    1    0   
$EndComp
$Comp
L C C9
U 1 1 563871D8
P 10600 5050
F 0 "C9" H 10625 5150 50  0000 L CNN
F 1 "0.1uF" H 10625 4950 50  0000 L CNN
F 2 "Capacitors_ThroughHole:C_Rect_L7_W2_P5" H 10638 4900 30  0001 C CNN
F 3 "" H 10600 5050 60  0000 C CNN
	1    10600 5050
	1    0    0    -1  
$EndComp
$Comp
L GND #PWR036
U 1 1 563871DE
P 6650 4850
F 0 "#PWR036" H 6650 4600 50  0001 C CNN
F 1 "GND" H 6650 4700 50  0000 C CNN
F 2 "" H 6650 4850 60  0000 C CNN
F 3 "" H 6650 4850 60  0000 C CNN
	1    6650 4850
	1    0    0    -1  
$EndComp
$Comp
L GND #PWR037
U 1 1 563871E4
P 6000 5250
F 0 "#PWR037" H 6000 5000 50  0001 C CNN
F 1 "GND" H 6000 5100 50  0000 C CNN
F 2 "" H 6000 5250 60  0000 C CNN
F 3 "" H 6000 5250 60  0000 C CNN
	1    6000 5250
	1    0    0    -1  
$EndComp
$Comp
L GND #PWR038
U 1 1 563871EA
P 8800 5150
F 0 "#PWR038" H 8800 4900 50  0001 C CNN
F 1 "GND" H 8800 5000 50  0000 C CNN
F 2 "" H 8800 5150 60  0000 C CNN
F 3 "" H 8800 5150 60  0000 C CNN
	1    8800 5150
	1    0    0    -1  
$EndComp
$Comp
L GND #PWR039
U 1 1 563871F0
P 10600 5400
F 0 "#PWR039" H 10600 5150 50  0001 C CNN
F 1 "GND" H 10600 5250 50  0000 C CNN
F 2 "" H 10600 5400 60  0000 C CNN
F 3 "" H 10600 5400 60  0000 C CNN
	1    10600 5400
	1    0    0    -1  
$EndComp
Text GLabel 7450 5150 3    60   Input ~ 0
+7.5V
$Comp
L R R27
U 1 1 563871F7
P 8200 4700
F 0 "R27" V 8300 4700 50  0000 C CNN
F 1 "10K" V 8100 4700 50  0000 C CNN
F 2 "Discret:R3-LARGE_PADS" V 8130 4700 30  0001 C CNN
F 3 "" H 8200 4700 30  0000 C CNN
	1    8200 4700
	0    1    1    0   
$EndComp
Wire Wire Line
	5900 4000 6000 4000
Wire Wire Line
	6000 4000 6000 4200
Connection ~ 6000 4600
Wire Wire Line
	6950 5250 7100 5250
Wire Wire Line
	10600 4900 10600 4800
Wire Wire Line
	10400 4800 10750 4800
Wire Wire Line
	10600 5200 10600 5400
Connection ~ 10600 4800
Wire Wire Line
	6200 4600 6000 4600
Wire Wire Line
	6500 4600 6700 4600
Wire Wire Line
	6950 4100 6600 4100
Wire Wire Line
	6600 4100 6600 4600
Connection ~ 6600 4600
Wire Wire Line
	8350 4700 8900 4700
Wire Wire Line
	8250 5000 8700 5000
Wire Wire Line
	8700 5000 8700 4150
Connection ~ 8700 4700
Wire Wire Line
	8700 4150 9150 4150
Wire Wire Line
	8900 4900 8800 4900
Wire Wire Line
	8800 4900 8800 5150
Wire Wire Line
	7950 5000 7850 5000
Wire Wire Line
	7550 5000 7450 5000
Wire Wire Line
	7450 5000 7450 5150
Wire Wire Line
	6700 4800 6650 4800
Wire Wire Line
	6650 4800 6650 4850
Wire Wire Line
	7100 5250 7100 5100
Wire Wire Line
	7100 4300 7100 4250
Wire Wire Line
	7100 4250 6950 4250
Wire Wire Line
	6000 5150 6000 5250
Wire Wire Line
	6000 4500 6000 4750
Wire Wire Line
	9450 4150 10000 4150
Wire Wire Line
	10000 4150 10000 4800
Wire Wire Line
	9900 4800 10100 4800
Connection ~ 10000 4800
Wire Wire Line
	7700 4700 8050 4700
Wire Wire Line
	7250 4100 7750 4100
Wire Wire Line
	7750 4100 7750 4700
Connection ~ 7750 4700
$EndSCHEMATC
