EESchema Schematic File Version 2
LIBS:power
LIBS:device
LIBS:transistors
LIBS:conn
LIBS:linear
LIBS:regul
LIBS:74xx
LIBS:cmos4000
LIBS:adc-dac
LIBS:memory
LIBS:xilinx
LIBS:special
LIBS:microcontrollers
LIBS:dsp
LIBS:microchip
LIBS:analog_switches
LIBS:motorola
LIBS:texas
LIBS:intel
LIBS:audio
LIBS:interface
LIBS:digital-audio
LIBS:philips
LIBS:display
LIBS:cypress
LIBS:siliconi
LIBS:opto
LIBS:atmel
LIBS:contrib
LIBS:valves
LIBS:fuente-cache
EELAYER 24 0
EELAYER END
$Descr A4 11693 8268
encoding utf-8
Sheet 1 1
Title "noname.sch"
Date ""
Rev ""
Comp ""
Comment1 ""
Comment2 ""
Comment3 ""
Comment4 ""
$EndDescr
$Comp
L TL082 U1
U 2 1 52A10FBB
P 3300 3300
F 0 "U1" H 3250 3500 60  0000 L CNN
F 1 "TL082" H 3250 3050 60  0000 L CNN
F 2 "" H 3300 3300 60  0000 C CNN
F 3 "" H 3300 3300 60  0000 C CNN
	2    3300 3300
	1    0    0    -1  
$EndComp
$Comp
L TL082 U2
U 2 1 52A10FCA
P 5100 3200
F 0 "U2" H 5050 3400 60  0000 L CNN
F 1 "TL082" H 5050 2950 60  0000 L CNN
F 2 "" H 5100 3200 60  0000 C CNN
F 3 "" H 5100 3200 60  0000 C CNN
	2    5100 3200
	1    0    0    -1  
$EndComp
$Comp
L TL082 U1
U 1 1 52A10FF4
P 2700 4850
F 0 "U1" H 2650 5050 60  0000 L CNN
F 1 "TL082" H 2650 4600 60  0000 L CNN
F 2 "" H 2700 4850 60  0000 C CNN
F 3 "" H 2700 4850 60  0000 C CNN
	1    2700 4850
	1    0    0    -1  
$EndComp
$Comp
L TL082 U2
U 1 1 52A11003
P 4500 4750
F 0 "U2" H 4450 4950 60  0000 L CNN
F 1 "TL082" H 4450 4500 60  0000 L CNN
F 2 "" H 4500 4750 60  0000 C CNN
F 3 "" H 4500 4750 60  0000 C CNN
	1    4500 4750
	1    0    0    -1  
$EndComp
$Comp
L TL082 U3
U 1 1 52A11012
P 6300 4650
F 0 "U3" H 6250 4850 60  0000 L CNN
F 1 "TL082" H 6250 4400 60  0000 L CNN
F 2 "" H 6300 4650 60  0000 C CNN
F 3 "" H 6300 4650 60  0000 C CNN
	1    6300 4650
	1    0    0    -1  
$EndComp
$Comp
L TL082 U3
U 2 1 52A11021
P 8050 4550
F 0 "U3" H 8000 4750 60  0000 L CNN
F 1 "TL082" H 8000 4300 60  0000 L CNN
F 2 "" H 8050 4550 60  0000 C CNN
F 3 "" H 8050 4550 60  0000 C CNN
	2    8050 4550
	1    0    0    -1  
$EndComp
$Comp
L R R2
U 1 1 52A1104F
P 2350 3400
F 0 "R2" V 2430 3400 40  0000 C CNN
F 1 "R" V 2357 3401 40  0000 C CNN
F 2 "" V 2280 3400 30  0000 C CNN
F 3 "" H 2350 3400 30  0000 C CNN
	1    2350 3400
	0    -1   -1   0   
$EndComp
$Comp
L R R6
U 1 1 52A1105E
P 4200 3300
F 0 "R6" V 4280 3300 40  0000 C CNN
F 1 "R" V 4207 3301 40  0000 C CNN
F 2 "" V 4130 3300 30  0000 C CNN
F 3 "" H 4200 3300 30  0000 C CNN
	1    4200 3300
	0    -1   -1   0   
$EndComp
$Comp
L R R8
U 1 1 52A1108C
P 4900 3800
F 0 "R8" V 4980 3800 40  0000 C CNN
F 1 "R" V 4907 3801 40  0000 C CNN
F 2 "" V 4830 3800 30  0000 C CNN
F 3 "" H 4900 3800 30  0000 C CNN
	1    4900 3800
	0    -1   -1   0   
$EndComp
$Comp
L R R4
U 1 1 52A1109B
P 3100 3900
F 0 "R4" V 3180 3900 40  0000 C CNN
F 1 "R" V 3107 3901 40  0000 C CNN
F 2 "" V 3030 3900 30  0000 C CNN
F 3 "" H 3100 3900 30  0000 C CNN
	1    3100 3900
	0    -1   -1   0   
$EndComp
$Comp
L R R1
U 1 1 52A110DF
P 1800 4950
F 0 "R1" V 1880 4950 40  0000 C CNN
F 1 "R" V 1807 4951 40  0000 C CNN
F 2 "" V 1730 4950 30  0000 C CNN
F 3 "" H 1800 4950 30  0000 C CNN
	1    1800 4950
	0    -1   -1   0   
$EndComp
$Comp
L R R5
U 1 1 52A110EE
P 3600 4850
F 0 "R5" V 3680 4850 40  0000 C CNN
F 1 "R" V 3607 4851 40  0000 C CNN
F 2 "" V 3530 4850 30  0000 C CNN
F 3 "" H 3600 4850 30  0000 C CNN
	1    3600 4850
	0    -1   -1   0   
$EndComp
$Comp
L R R3
U 1 1 52A110FD
P 2550 5450
F 0 "R3" V 2630 5450 40  0000 C CNN
F 1 "R" V 2557 5451 40  0000 C CNN
F 2 "" V 2480 5450 30  0000 C CNN
F 3 "" H 2550 5450 30  0000 C CNN
	1    2550 5450
	0    -1   -1   0   
$EndComp
$Comp
L R R7
U 1 1 52A1110C
P 4350 5350
F 0 "R7" V 4430 5350 40  0000 C CNN
F 1 "R" V 4357 5351 40  0000 C CNN
F 2 "" V 4280 5350 30  0000 C CNN
F 3 "" H 4350 5350 30  0000 C CNN
	1    4350 5350
	0    -1   -1   0   
$EndComp
$Comp
L R R10
U 1 1 52A1111B
P 6150 5250
F 0 "R10" V 6230 5250 40  0000 C CNN
F 1 "R" V 6157 5251 40  0000 C CNN
F 2 "" V 6080 5250 30  0000 C CNN
F 3 "" H 6150 5250 30  0000 C CNN
	1    6150 5250
	0    -1   -1   0   
$EndComp
$Comp
L R R11
U 1 1 52A11139
P 7250 4650
F 0 "R11" V 7330 4650 40  0000 C CNN
F 1 "R" V 7257 4651 40  0000 C CNN
F 2 "" V 7180 4650 30  0000 C CNN
F 3 "" H 7250 4650 30  0000 C CNN
	1    7250 4650
	0    -1   -1   0   
$EndComp
$Comp
L R R9
U 1 1 52A11148
P 5350 4500
F 0 "R9" V 5430 4500 40  0000 C CNN
F 1 "R" V 5357 4501 40  0000 C CNN
F 2 "" V 5280 4500 30  0000 C CNN
F 3 "" H 5350 4500 30  0000 C CNN
	1    5350 4500
	-1   0    0    1   
$EndComp
$Comp
L +5V #PWR01
U 1 1 52A11329
P 4100 2500
F 0 "#PWR01" H 4100 2590 20  0001 C CNN
F 1 "+5V" H 4100 2590 30  0000 C CNN
F 2 "" H 4100 2500 60  0000 C CNN
F 3 "" H 4100 2500 60  0000 C CNN
	1    4100 2500
	1    0    0    -1  
$EndComp
$Comp
L GND #PWR02
U 1 1 52A115AF
P 3850 4700
F 0 "#PWR02" H 3850 4700 30  0001 C CNN
F 1 "GND" H 3850 4630 30  0001 C CNN
F 2 "" H 3850 4700 60  0000 C CNN
F 3 "" H 3850 4700 60  0000 C CNN
	1    3850 4700
	1    0    0    -1  
$EndComp
$Comp
L GND #PWR03
U 1 1 52A115BE
P 2100 4850
F 0 "#PWR03" H 2100 4850 30  0001 C CNN
F 1 "GND" H 2100 4780 30  0001 C CNN
F 2 "" H 2100 4850 60  0000 C CNN
F 3 "" H 2100 4850 60  0000 C CNN
	1    2100 4850
	1    0    0    -1  
$EndComp
$Comp
L GND #PWR04
U 1 1 52A115CD
P 5700 4650
F 0 "#PWR04" H 5700 4650 30  0001 C CNN
F 1 "GND" H 5700 4580 30  0001 C CNN
F 2 "" H 5700 4650 60  0000 C CNN
F 3 "" H 5700 4650 60  0000 C CNN
	1    5700 4650
	1    0    0    -1  
$EndComp
$Comp
L GND #PWR05
U 1 1 52A115DC
P 4450 3200
F 0 "#PWR05" H 4450 3200 30  0001 C CNN
F 1 "GND" H 4450 3130 30  0001 C CNN
F 2 "" H 4450 3200 60  0000 C CNN
F 3 "" H 4450 3200 60  0000 C CNN
	1    4450 3200
	1    0    0    -1  
$EndComp
$Comp
L GND #PWR06
U 1 1 52A115EB
P 2650 3300
F 0 "#PWR06" H 2650 3300 30  0001 C CNN
F 1 "GND" H 2650 3230 30  0001 C CNN
F 2 "" H 2650 3300 60  0000 C CNN
F 3 "" H 2650 3300 60  0000 C CNN
	1    2650 3300
	1    0    0    -1  
$EndComp
$Comp
L GND #PWR07
U 1 1 52A115FA
P 7450 4550
F 0 "#PWR07" H 7450 4550 30  0001 C CNN
F 1 "GND" H 7450 4480 30  0001 C CNN
F 2 "" H 7450 4550 60  0000 C CNN
F 3 "" H 7450 4550 60  0000 C CNN
	1    7450 4550
	1    0    0    -1  
$EndComp
$Comp
L LM-35 U4
U 1 1 52A11A1D
P 1400 2800
F 0 "U4" H 1400 2651 40  0000 R CNN
F 1 "LM-35" H 1400 2950 40  0000 R CNN
F 2 "TO92" H 1300 2902 29  0000 C CNN
F 3 "" H 1400 2800 60  0000 C CNN
	1    1400 2800
	-1   0    0    -1  
$EndComp
$Comp
L ZENER D1
U 1 1 52A11BF4
P 6650 3000
F 0 "D1" H 6650 3100 50  0000 C CNN
F 1 "ZENER" H 6650 2900 40  0000 C CNN
F 2 "" H 6650 3000 60  0000 C CNN
F 3 "" H 6650 3000 60  0000 C CNN
	1    6650 3000
	0    -1   -1   0   
$EndComp
$Comp
L R R16
U 1 1 52A11C03
P 6100 2800
F 0 "R16" V 6180 2800 40  0000 C CNN
F 1 "R" V 6107 2801 40  0000 C CNN
F 2 "" V 6030 2800 30  0000 C CNN
F 3 "" H 6100 2800 30  0000 C CNN
	1    6100 2800
	0    -1   -1   0   
$EndComp
$Comp
L GND #PWR08
U 1 1 52A11CCB
P 6650 3450
F 0 "#PWR08" H 6650 3450 30  0001 C CNN
F 1 "GND" H 6650 3380 30  0001 C CNN
F 2 "" H 6650 3450 60  0000 C CNN
F 3 "" H 6650 3450 60  0000 C CNN
	1    6650 3450
	1    0    0    -1  
$EndComp
$Comp
L CONN_2 P1
U 1 1 52A11D39
P 750 5050
F 0 "P1" V 700 5050 40  0000 C CNN
F 1 "CONN_2" V 800 5050 40  0000 C CNN
F 2 "" H 750 5050 60  0000 C CNN
F 3 "" H 750 5050 60  0000 C CNN
	1    750  5050
	-1   0    0    1   
$EndComp
$Comp
L GND #PWR09
U 1 1 52A11D48
P 1200 5400
F 0 "#PWR09" H 1200 5400 30  0001 C CNN
F 1 "GND" H 1200 5330 30  0001 C CNN
F 2 "" H 1200 5400 60  0000 C CNN
F 3 "" H 1200 5400 60  0000 C CNN
	1    1200 5400
	1    0    0    -1  
$EndComp
$Comp
L R R17
U 1 1 52A11EE0
P 9050 4550
F 0 "R17" V 9130 4550 40  0000 C CNN
F 1 "R" V 9057 4551 40  0000 C CNN
F 2 "" V 8980 4550 30  0000 C CNN
F 3 "" H 9050 4550 30  0000 C CNN
	1    9050 4550
	0    -1   -1   0   
$EndComp
$Comp
L ZENER D2
U 1 1 52A11EEF
P 9550 4850
F 0 "D2" H 9550 4950 50  0000 C CNN
F 1 "ZENER" H 9550 4750 40  0000 C CNN
F 2 "" H 9550 4850 60  0000 C CNN
F 3 "" H 9550 4850 60  0000 C CNN
	1    9550 4850
	0    -1   -1   0   
$EndComp
$Comp
L GND #PWR010
U 1 1 52A11FCF
P 9550 5200
F 0 "#PWR010" H 9550 5200 30  0001 C CNN
F 1 "GND" H 9550 5130 30  0001 C CNN
F 2 "" H 9550 5200 60  0000 C CNN
F 3 "" H 9550 5200 60  0000 C CNN
	1    9550 5200
	1    0    0    -1  
$EndComp
$Comp
L C C2
U 1 1 52A12058
P 4050 3650
F 0 "C2" H 4050 3750 40  0000 L CNN
F 1 "C" H 4056 3565 40  0000 L CNN
F 2 "" H 4088 3500 30  0000 C CNN
F 3 "" H 4050 3650 60  0000 C CNN
	1    4050 3650
	1    0    0    -1  
$EndComp
$Comp
L GND #PWR011
U 1 1 52A12067
P 4050 3950
F 0 "#PWR011" H 4050 3950 30  0001 C CNN
F 1 "GND" H 4050 3880 30  0001 C CNN
F 2 "" H 4050 3950 60  0000 C CNN
F 3 "" H 4050 3950 60  0000 C CNN
	1    4050 3950
	1    0    0    -1  
$EndComp
$Comp
L C C1
U 1 1 52A1214F
P 3450 5250
F 0 "C1" H 3450 5350 40  0000 L CNN
F 1 "C" H 3456 5165 40  0000 L CNN
F 2 "" H 3488 5100 30  0000 C CNN
F 3 "" H 3450 5250 60  0000 C CNN
	1    3450 5250
	1    0    0    -1  
$EndComp
$Comp
L GND #PWR012
U 1 1 52A1215E
P 3450 5550
F 0 "#PWR012" H 3450 5550 30  0001 C CNN
F 1 "GND" H 3450 5480 30  0001 C CNN
F 2 "" H 3450 5550 60  0000 C CNN
F 3 "" H 3450 5550 60  0000 C CNN
	1    3450 5550
	1    0    0    -1  
$EndComp
Wire Wire Line
	4450 3300 4600 3300
Wire Wire Line
	3800 3300 3950 3300
Wire Wire Line
	3900 3900 3350 3900
Wire Wire Line
	3900 3300 3900 3900
Connection ~ 3900 3300
Wire Wire Line
	5600 3800 5150 3800
Wire Wire Line
	5600 2800 5600 3800
Wire Wire Line
	4650 3800 4550 3800
Wire Wire Line
	4550 3800 4550 3300
Connection ~ 4550 3300
Wire Wire Line
	2850 3900 2700 3900
Wire Wire Line
	2700 3900 2700 3400
Wire Wire Line
	2600 3400 2800 3400
Connection ~ 2700 3400
Wire Wire Line
	3200 4850 3350 4850
Wire Wire Line
	2050 4950 2200 4950
Wire Wire Line
	2150 4950 2150 5450
Wire Wire Line
	2150 5450 2300 5450
Connection ~ 2150 4950
Wire Wire Line
	3300 5450 2800 5450
Wire Wire Line
	3300 4850 3300 5450
Connection ~ 3300 4850
Wire Wire Line
	3950 5350 4100 5350
Wire Wire Line
	5000 4750 5350 4750
Wire Wire Line
	4600 5350 5100 5350
Wire Wire Line
	5100 5350 5100 4750
Connection ~ 5100 4750
Wire Wire Line
	5750 4750 5750 5250
Wire Wire Line
	5750 5250 5900 5250
Wire Wire Line
	6800 4650 7000 4650
Wire Wire Line
	6400 5250 6900 5250
Wire Wire Line
	6900 5250 6900 4650
Connection ~ 6900 4650
Wire Wire Line
	7500 4650 7550 4650
Wire Wire Line
	7500 4650 7500 5250
Wire Wire Line
	3900 5750 3900 5150
Wire Wire Line
	3900 5150 4400 5150
Wire Wire Line
	1350 5750 8750 5750
Wire Wire Line
	5900 5750 5900 5050
Wire Wire Line
	5900 5050 6200 5050
Connection ~ 3900 5750
Wire Wire Line
	3100 5750 3100 5250
Wire Wire Line
	3100 5250 2600 5250
Wire Wire Line
	2600 4450 2600 4150
Wire Wire Line
	2600 4150 6200 4150
Wire Wire Line
	6200 2500 6200 4250
Wire Wire Line
	4400 4350 4400 4150
Wire Wire Line
	4400 4150 4450 4150
Connection ~ 4450 4150
Connection ~ 6200 4150
Wire Wire Line
	5000 2500 5000 2800
Connection ~ 5000 2500
Wire Wire Line
	3200 2400 3200 2900
Connection ~ 4100 2500
Wire Wire Line
	1350 3700 3300 3700
Wire Wire Line
	1350 3700 1350 5750
Connection ~ 3100 5750
Connection ~ 6200 3300
Connection ~ 5900 5750
Wire Wire Line
	7550 4450 7450 4450
Wire Wire Line
	7450 4450 7450 4550
Wire Wire Line
	5800 4550 5700 4550
Wire Wire Line
	5700 4550 5700 4650
Wire Wire Line
	3850 4700 3850 4650
Wire Wire Line
	3850 4650 4000 4650
Wire Wire Line
	2100 4850 2100 4750
Wire Wire Line
	2100 4750 2200 4750
Wire Wire Line
	2650 3300 2650 3200
Wire Wire Line
	2650 3200 2800 3200
Wire Wire Line
	4450 3200 4450 3100
Wire Wire Line
	4450 3100 4600 3100
Wire Wire Line
	5000 3600 3300 3600
Wire Wire Line
	3300 3600 3300 3700
Connection ~ 3200 3700
Connection ~ 3200 2500
Wire Wire Line
	6350 2800 8300 2800
Wire Wire Line
	5850 2800 5600 2800
Connection ~ 5600 3200
Wire Wire Line
	6650 3200 6650 3450
Wire Wire Line
	1550 4950 1100 4950
Wire Wire Line
	1100 5150 1200 5150
Wire Wire Line
	1200 5150 1200 5400
Wire Wire Line
	7950 2500 7950 4150
Connection ~ 6200 2500
Wire Wire Line
	7250 4950 7950 4950
Wire Wire Line
	7250 4950 7250 5750
Connection ~ 7250 5750
Wire Wire Line
	8550 4550 8800 4550
Wire Wire Line
	9300 4550 9550 4550
Wire Wire Line
	9550 4300 9550 4650
Wire Wire Line
	9550 5050 9550 5200
Wire Wire Line
	4050 3950 4050 3850
Wire Wire Line
	4050 3450 3900 3450
Connection ~ 3900 3450
Wire Wire Line
	3450 5050 3450 4950
Wire Wire Line
	3450 4950 3300 4950
Connection ~ 3300 4950
Wire Wire Line
	3450 5450 3450 5550
$Comp
L CONN_2 P2
U 1 1 52A124D7
P 9750 4000
F 0 "P2" V 9700 4000 40  0000 C CNN
F 1 "CONN_2" V 9800 4000 40  0000 C CNN
F 2 "" H 9750 4000 60  0000 C CNN
F 3 "" H 9750 4000 60  0000 C CNN
	1    9750 4000
	1    0    0    -1  
$EndComp
$Comp
L CONN_3 K1
U 1 1 52A124E6
P 9750 2700
F 0 "K1" V 9700 2700 50  0000 C CNN
F 1 "CONN_3" V 9800 2700 40  0000 C CNN
F 2 "" H 9750 2700 60  0000 C CNN
F 3 "" H 9750 2700 60  0000 C CNN
	1    9750 2700
	1    0    0    -1  
$EndComp
Wire Wire Line
	9400 2500 9400 2600
Connection ~ 7950 2500
Wire Wire Line
	9400 2700 8750 2700
Wire Wire Line
	8750 2700 8750 5750
Connection ~ 8750 5750
Wire Wire Line
	8300 2800 8300 3900
Wire Wire Line
	8300 3900 9400 3900
Connection ~ 6650 2800
Wire Wire Line
	9550 4300 9300 4300
Wire Wire Line
	9300 4300 9300 4100
Wire Wire Line
	9300 4100 9400 4100
Connection ~ 9550 4550
$Comp
L GND #PWR013
U 1 1 52A1274C
P 9350 2900
F 0 "#PWR013" H 9350 2900 30  0001 C CNN
F 1 "GND" H 9350 2830 30  0001 C CNN
F 2 "" H 9350 2900 60  0000 C CNN
F 3 "" H 9350 2900 60  0000 C CNN
	1    9350 2900
	1    0    0    -1  
$EndComp
Wire Wire Line
	9350 2900 9350 2800
Wire Wire Line
	9350 2800 9400 2800
$Comp
L R R14
U 1 1 52A128EA
P 1850 2800
F 0 "R14" V 1930 2800 40  0000 C CNN
F 1 "R" V 1857 2801 40  0000 C CNN
F 2 "" V 1780 2800 30  0000 C CNN
F 3 "" H 1850 2800 30  0000 C CNN
	1    1850 2800
	1    0    0    -1  
$EndComp
$Comp
L R R15
U 1 1 52A128F9
P 1850 3350
F 0 "R15" V 1930 3350 40  0000 C CNN
F 1 "R" V 1857 3351 40  0000 C CNN
F 2 "" V 1780 3350 30  0000 C CNN
F 3 "" H 1850 3350 30  0000 C CNN
	1    1850 3350
	1    0    0    -1  
$EndComp
$Comp
L R R13
U 1 1 52A12908
P 1300 3350
F 0 "R13" V 1380 3350 40  0000 C CNN
F 1 "R" V 1307 3351 40  0000 C CNN
F 2 "" V 1230 3350 30  0000 C CNN
F 3 "" H 1300 3350 30  0000 C CNN
	1    1300 3350
	1    0    0    -1  
$EndComp
Wire Wire Line
	1850 3100 1850 3050
Wire Wire Line
	1300 3000 1300 3100
Wire Wire Line
	2100 3100 2100 3400
Wire Wire Line
	1300 3100 2100 3100
Connection ~ 1850 3100
Wire Wire Line
	1300 2400 1300 2600
Wire Wire Line
	1300 2400 3200 2400
Wire Wire Line
	3200 2500 9400 2500
Wire Wire Line
	1300 3600 1850 3600
$Comp
L GND #PWR014
U 1 1 52A12F32
P 1600 3800
F 0 "#PWR014" H 1600 3800 30  0001 C CNN
F 1 "GND" H 1600 3730 30  0001 C CNN
F 2 "" H 1600 3800 60  0000 C CNN
F 3 "" H 1600 3800 60  0000 C CNN
	1    1600 3800
	1    0    0    -1  
$EndComp
Wire Wire Line
	1600 3600 1600 3800
Connection ~ 1600 3600
Wire Wire Line
	1600 2800 1700 2800
Wire Wire Line
	1700 2800 1700 2550
Wire Wire Line
	1700 2550 1850 2550
Connection ~ 3300 4150
$Comp
L R R18
U 1 1 52A136F4
P 5550 4450
F 0 "R18" V 5630 4450 40  0000 C CNN
F 1 "R" V 5557 4451 40  0000 C CNN
F 2 "" V 5480 4450 30  0000 C CNN
F 3 "" H 5550 4450 30  0000 C CNN
	1    5550 4450
	1    0    0    -1  
$EndComp
Wire Wire Line
	5350 4250 5450 4250
Wire Wire Line
	5450 4250 5450 4200
Wire Wire Line
	5450 4200 5550 4200
Wire Wire Line
	5550 4700 5550 4750
Wire Wire Line
	5550 4750 5800 4750
Connection ~ 5750 4750
Wire Wire Line
	4000 5750 4000 6050
Connection ~ 4000 5750
$Comp
L -5V #PWR015
U 1 1 52A13C3E
P 4000 6050
F 0 "#PWR015" H 4000 6190 20  0001 C CNN
F 1 "-5V" H 4000 6160 30  0000 C CNN
F 2 "" H 4000 6050 60  0000 C CNN
F 3 "" H 4000 6050 60  0000 C CNN
	1    4000 6050
	-1   0    0    1   
$EndComp
Wire Wire Line
	4000 4850 3850 4850
$Comp
L POT RV1
U 1 1 52A14F67
P 7950 5250
F 0 "RV1" H 7950 5150 50  0000 C CNN
F 1 "POT" H 7950 5250 50  0000 C CNN
F 2 "" H 7950 5250 60  0000 C CNN
F 3 "" H 7950 5250 60  0000 C CNN
	1    7950 5250
	1    0    0    -1  
$EndComp
Connection ~ 7950 4950
Wire Wire Line
	7950 5100 8650 5100
Wire Wire Line
	8650 5100 8650 4550
Connection ~ 8650 4550
Wire Wire Line
	7500 5250 7700 5250
Wire Wire Line
	3950 5350 3950 4850
Connection ~ 3950 4850
$EndSCHEMATC
