%!PS-Adobe-3.0
%%Creator: PCBNEW
%%CreationDate: Tue Dec  3 16:35:44 2013
%%Title: /home/angelo/proyectoFinal/fuente/fuente-F_Cu.ps
%%Pages: 1
%%PageOrder: Ascend
%%BoundingBox: 0 0 596 842
%%DocumentMedia: A4 595 842 0 () ()
%%Orientation: Landscape
%%EndComments
%%BeginProlog
/line { newpath moveto lineto stroke } bind def
/cir0 { newpath 0 360 arc stroke } bind def
/cir1 { newpath 0 360 arc gsave fill grestore stroke } bind def
/cir2 { newpath 0 360 arc gsave fill grestore stroke } bind def
/arc0 { newpath arc stroke } bind def
/arc1 { newpath 4 index 4 index moveto arc closepath gsave fill
    grestore stroke } bind def
/arc2 { newpath 4 index 4 index moveto arc closepath gsave fill
    grestore stroke } bind def
/poly0 { stroke } bind def
/poly1 { closepath gsave fill grestore stroke } bind def
/poly2 { closepath gsave fill grestore stroke } bind def
/rect0 { rectstroke } bind def
/rect1 { rectfill } bind def
/rect2 { rectfill } bind def
/linemode0 { 0 setlinecap 0 setlinejoin 0 setlinewidth } bind def
/linemode1 { 1 setlinecap 1 setlinejoin } bind def
/dashedline { [200] 100 setdash } bind def
/solidline { [] 0 setdash } bind def
/phantomshow { moveto
    /KicadFont findfont 0.000001 scalefont setfont
    show } bind def
/textshow { gsave
    findfont exch scalefont setfont concat 1 scale 0 0 moveto show
    } bind def
/reencodefont {
  findfont dup length dict begin
  { 1 index /FID ne
    { def }
    { pop pop } ifelse
  } forall
  /Encoding ISOLatin1Encoding def
  currentdict
  end } bind def
/KicadFont /Helvetica reencodefont definefont pop
/KicadFont-Bold /Helvetica-Bold reencodefont definefont pop
/KicadFont-Oblique /Helvetica-Oblique reencodefont definefont pop
/KicadFont-BoldOblique /Helvetica-BoldOblique reencodefont definefont pop
%%EndProlog
%%Page: 1 1
%%BeginPageSetup
gsave
0.0072 0.0072 scale
linemode1
82680 0 translate 90 rotate
59.0551 setlinewidth
%%EndPageSetup
0 0 0 setrgbcolor
0 0 0 setrgbcolor
59.0551 setlinewidth
newpath
61289.4 48363.1 moveto
62017.7 48363.1 lineto
62017.7 47634.7 lineto
61289.4 47634.7 lineto
61289.4 48363.1 lineto
poly1
0 0 0 setrgbcolor
61653.5 44998.9 364.173 cir1
0 0 0 setrgbcolor
newpath
61289.4 41906.4 moveto
62017.7 41906.4 lineto
62017.7 41178 lineto
61289.4 41178 lineto
61289.4 41906.4 lineto
poly1
0 0 0 setrgbcolor
61653.5 38542.2 364.173 cir1
0 0 0 setrgbcolor
newpath
66486.2 46103.2 moveto
67214.6 46103.2 lineto
67214.6 45374.9 lineto
66486.2 45374.9 lineto
66486.2 46103.2 lineto
poly1
0 0 0 setrgbcolor
66850.4 44739.1 364.173 cir1
0 0 0 setrgbcolor
newpath
66486.2 41930 moveto
67214.6 41930 lineto
67214.6 41201.7 lineto
66486.2 41201.7 lineto
66486.2 41930 lineto
poly1
0 0 0 setrgbcolor
66850.4 40565.8 364.173 cir1
0 0 0 setrgbcolor
newpath
72942.9 48386.7 moveto
73671.3 48386.7 lineto
73671.3 47658.3 lineto
72942.9 47658.3 lineto
72942.9 48386.7 lineto
poly1
0 0 0 setrgbcolor
73307.1 47022.5 364.173 cir1
0 0 0 setrgbcolor
newpath
72864.2 39567.8 moveto
73592.5 39567.8 lineto
73592.5 38839.4 lineto
72864.2 38839.4 lineto
72864.2 39567.8 lineto
poly1
0 0 0 setrgbcolor
73228.3 38203.6 364.173 cir1
0 0 0 setrgbcolor
46456.7 39455.6 561.024 cir1
0 0 0 setrgbcolor
newpath
47017.7 45894.6 moveto
45895.7 45894.6 lineto
45895.7 47016.6 lineto
47017.7 47016.6 lineto
47017.7 45894.6 lineto
poly1
0 0 0 setrgbcolor
49881.9 39337.5 561.024 cir1
0 0 0 setrgbcolor
newpath
50442.9 45776.5 moveto
49320.9 45776.5 lineto
49320.9 46898.5 lineto
50442.9 46898.5 lineto
50442.9 45776.5 lineto
poly1
0 0 0 setrgbcolor
53385.8 39337.5 561.024 cir1
0 0 0 setrgbcolor
newpath
53946.9 45776.5 moveto
52824.8 45776.5 lineto
52824.8 46898.5 lineto
53946.9 46898.5 lineto
53946.9 45776.5 lineto
poly1
0 0 0 setrgbcolor
56850.4 39337.5 561.024 cir1
0 0 0 setrgbcolor
newpath
57411.4 45776.5 moveto
56289.4 45776.5 lineto
56289.4 46898.5 lineto
57411.4 46898.5 lineto
57411.4 45776.5 lineto
poly1
0 0 0 setrgbcolor
newpath
43238.2 40552 moveto
42116.1 40552 lineto
42116.1 41674.1 lineto
43238.2 41674.1 lineto
43238.2 40552 lineto
poly1
0 0 0 setrgbcolor
42677.2 43113.1 561.024 cir1
0 0 0 setrgbcolor
42677.2 45113.1 561.024 cir1
0 0 0 setrgbcolor
newpath
75750 45583.5 moveto
76690.9 45583.5 lineto
76690.9 44642.6 lineto
75750 44642.6 lineto
75750 45583.5 lineto
poly1
0 0 0 setrgbcolor
76220.5 43113.1 561.024 cir1
0 0 0 setrgbcolor
76220.5 41113.1 561.024 cir1
0 0 0 setrgbcolor
newpath
49439 36843.4 moveto
49439 37571.7 lineto
50167.3 37571.7 lineto
50167.3 36843.4 lineto
49439 36843.4 lineto
poly1
0 0 0 setrgbcolor
newpath
49557.1 47591.4 moveto
49557.1 48319.8 lineto
50285.4 48319.8 lineto
50285.4 47591.4 lineto
49557.1 47591.4 lineto
poly1
0 0 0 setrgbcolor
69291.3 45628.8 364.173 cir1
0 0 0 setrgbcolor
69291.3 48628.8 364.173 cir1
0 0 0 setrgbcolor
69488.2 40636.7 364.173 cir1
0 0 0 setrgbcolor
69488.2 37636.7 364.173 cir1
0 0 0 setrgbcolor
newpath
71465.9 43796.7 moveto
70975 43796.7 lineto
70975 44287.7 lineto
71465.9 44287.7 lineto
71465.9 43796.7 lineto
poly1
0 0 0 setrgbcolor
71220.5 45042.2 364.173 cir1
0 0 0 setrgbcolor
71220.5 46042.2 364.173 cir1
0 0 0 setrgbcolor
newpath
70975 42665.6 moveto
71465.9 42665.6 lineto
71465.9 42174.7 lineto
70975 42174.7 lineto
70975 42665.6 lineto
poly1
0 0 0 setrgbcolor
71220.5 41420.2 364.173 cir1
0 0 0 setrgbcolor
71220.5 40420.2 364.173 cir1
0 0 0 setrgbcolor
newpath
68293.3 48989.1 moveto
68293.3 48260.7 lineto
67565 48260.7 lineto
67565 48989.1 lineto
68293.3 48989.1 lineto
poly1
0 0 0 setrgbcolor
66929.1 48624.9 364.173 cir1
0 0 0 setrgbcolor
65929.1 48624.9 364.173 cir1
0 0 0 setrgbcolor
newpath
65683.7 37473.9 moveto
65683.7 37964.8 lineto
66174.6 37964.8 lineto
66174.6 37473.9 lineto
65683.7 37473.9 lineto
poly1
0 0 0 setrgbcolor
66929.1 37719.4 364.173 cir1
0 0 0 setrgbcolor
67929.1 37719.4 364.173 cir1
showpage
grestore
%%EOF
