%!PS-Adobe-3.0
%%Creator: PCBNEW
%%CreationDate: Tue Dec  3 16:35:44 2013
%%Title: /home/angelo/proyectoFinal/fuente/fuente-F_SilkS.ps
%%Pages: 1
%%PageOrder: Ascend
%%BoundingBox: 0 0 596 842
%%DocumentMedia: A4 595 842 0 () ()
%%Orientation: Landscape
%%EndComments
%%BeginProlog
/line { newpath moveto lineto stroke } bind def
/cir0 { newpath 0 360 arc stroke } bind def
/cir1 { newpath 0 360 arc gsave fill grestore stroke } bind def
/cir2 { newpath 0 360 arc gsave fill grestore stroke } bind def
/arc0 { newpath arc stroke } bind def
/arc1 { newpath 4 index 4 index moveto arc closepath gsave fill
    grestore stroke } bind def
/arc2 { newpath 4 index 4 index moveto arc closepath gsave fill
    grestore stroke } bind def
/poly0 { stroke } bind def
/poly1 { closepath gsave fill grestore stroke } bind def
/poly2 { closepath gsave fill grestore stroke } bind def
/rect0 { rectstroke } bind def
/rect1 { rectfill } bind def
/rect2 { rectfill } bind def
/linemode0 { 0 setlinecap 0 setlinejoin 0 setlinewidth } bind def
/linemode1 { 1 setlinecap 1 setlinejoin } bind def
/dashedline { [200] 100 setdash } bind def
/solidline { [] 0 setdash } bind def
/phantomshow { moveto
    /KicadFont findfont 0.000001 scalefont setfont
    show } bind def
/textshow { gsave
    findfont exch scalefont setfont concat 1 scale 0 0 moveto show
    } bind def
/reencodefont {
  findfont dup length dict begin
  { 1 index /FID ne
    { def }
    { pop pop } ifelse
  } forall
  /Encoding ISOLatin1Encoding def
  currentdict
  end } bind def
/KicadFont /Helvetica reencodefont definefont pop
/KicadFont-Bold /Helvetica-Bold reencodefont definefont pop
/KicadFont-Oblique /Helvetica-Oblique reencodefont definefont pop
/KicadFont-BoldOblique /Helvetica-BoldOblique reencodefont definefont pop
%%EndProlog
%%Page: 1 1
%%BeginPageSetup
gsave
0.0072 0.0072 scale
linemode1
82680 0 translate 90 rotate
59.0551 setlinewidth
%%EndPageSetup
0 0 0 setrgbcolor
0 0 0 setrgbcolor
59.0551 setlinewidth
61653.5 46498.9 3000 cir0
0 0 0 setrgbcolor
61653.5 40042.2 3000 cir0
0 0 0 setrgbcolor
80 setlinewidth
66850.4 45239.1 1600 cir0
0 0 0 setrgbcolor
66850.4 41065.8 1600 cir0
0 0 0 setrgbcolor
73307.1 47522.5 1600 cir0
0 0 0 setrgbcolor
73228.3 38703.6 1600 cir0
0 0 0 setrgbcolor
120 setlinewidth
newpath
47706.7 45705.6 moveto
47706.7 40455.6 lineto
stroke
0 0 0 setrgbcolor
newpath
47706.7 40455.6 moveto
45206.7 40455.6 lineto
stroke
0 0 0 setrgbcolor
newpath
45206.7 40455.6 moveto
45206.7 45705.6 lineto
stroke
0 0 0 setrgbcolor
newpath
46456.7 39455.6 moveto
46456.7 40455.6 lineto
stroke
0 0 0 setrgbcolor
newpath
47706.7 45705.6 moveto
45206.7 45705.6 lineto
stroke
0 0 0 setrgbcolor
newpath
45206.7 45455.6 moveto
47706.7 45455.6 lineto
stroke
0 0 0 setrgbcolor
newpath
47706.7 45205.6 moveto
45206.7 45205.6 lineto
stroke
0 0 0 setrgbcolor
newpath
46456.7 45705.6 moveto
46456.7 46455.6 lineto
stroke
0 0 0 setrgbcolor
newpath
51131.9 45587.5 moveto
51131.9 40337.5 lineto
stroke
0 0 0 setrgbcolor
newpath
51131.9 40337.5 moveto
48631.9 40337.5 lineto
stroke
0 0 0 setrgbcolor
newpath
48631.9 40337.5 moveto
48631.9 45587.5 lineto
stroke
0 0 0 setrgbcolor
newpath
49881.9 39337.5 moveto
49881.9 40337.5 lineto
stroke
0 0 0 setrgbcolor
newpath
51131.9 45587.5 moveto
48631.9 45587.5 lineto
stroke
0 0 0 setrgbcolor
newpath
48631.9 45337.5 moveto
51131.9 45337.5 lineto
stroke
0 0 0 setrgbcolor
newpath
51131.9 45087.5 moveto
48631.9 45087.5 lineto
stroke
0 0 0 setrgbcolor
newpath
49881.9 45587.5 moveto
49881.9 46337.5 lineto
stroke
0 0 0 setrgbcolor
newpath
54635.8 45587.5 moveto
54635.8 40337.5 lineto
stroke
0 0 0 setrgbcolor
newpath
54635.8 40337.5 moveto
52135.8 40337.5 lineto
stroke
0 0 0 setrgbcolor
newpath
52135.8 40337.5 moveto
52135.8 45587.5 lineto
stroke
0 0 0 setrgbcolor
newpath
53385.8 39337.5 moveto
53385.8 40337.5 lineto
stroke
0 0 0 setrgbcolor
newpath
54635.8 45587.5 moveto
52135.8 45587.5 lineto
stroke
0 0 0 setrgbcolor
newpath
52135.8 45337.5 moveto
54635.8 45337.5 lineto
stroke
0 0 0 setrgbcolor
newpath
54635.8 45087.5 moveto
52135.8 45087.5 lineto
stroke
0 0 0 setrgbcolor
newpath
53385.8 45587.5 moveto
53385.8 46337.5 lineto
stroke
0 0 0 setrgbcolor
newpath
58100.4 45587.5 moveto
58100.4 40337.5 lineto
stroke
0 0 0 setrgbcolor
newpath
58100.4 40337.5 moveto
55600.4 40337.5 lineto
stroke
0 0 0 setrgbcolor
newpath
55600.4 40337.5 moveto
55600.4 45587.5 lineto
stroke
0 0 0 setrgbcolor
newpath
56850.4 39337.5 moveto
56850.4 40337.5 lineto
stroke
0 0 0 setrgbcolor
newpath
58100.4 45587.5 moveto
55600.4 45587.5 lineto
stroke
0 0 0 setrgbcolor
newpath
55600.4 45337.5 moveto
58100.4 45337.5 lineto
stroke
0 0 0 setrgbcolor
newpath
58100.4 45087.5 moveto
55600.4 45087.5 lineto
stroke
0 0 0 setrgbcolor
newpath
56850.4 45587.5 moveto
56850.4 46337.5 lineto
stroke
0 0 0 setrgbcolor
newpath
44177.2 40113.1 moveto
41177.2 40113.1 lineto
stroke
0 0 0 setrgbcolor
newpath
44177.2 46113.1 moveto
41177.2 46113.1 lineto
stroke
0 0 0 setrgbcolor
newpath
43677.2 40113.1 moveto
43677.2 46113.1 lineto
stroke
0 0 0 setrgbcolor
newpath
41177.2 40113.1 moveto
41177.2 46113.1 lineto
stroke
0 0 0 setrgbcolor
newpath
44177.2 40113.1 moveto
44177.2 46113.1 lineto
stroke
0 0 0 setrgbcolor
newpath
74720.5 46113.1 moveto
77720.5 46113.1 lineto
stroke
0 0 0 setrgbcolor
newpath
74720.5 40113.1 moveto
77720.5 40113.1 lineto
stroke
0 0 0 setrgbcolor
newpath
75220.5 46113.1 moveto
75220.5 40113.1 lineto
stroke
0 0 0 setrgbcolor
newpath
77720.5 46113.1 moveto
77720.5 40113.1 lineto
stroke
0 0 0 setrgbcolor
newpath
74720.5 46113.1 moveto
74720.5 40113.1 lineto
stroke
0 0 0 setrgbcolor
125 setlinewidth
newpath
49303.1 36707.6 moveto
50303.1 36707.6 lineto
stroke
0 0 0 setrgbcolor
newpath
49303.1 37707.6 moveto
50303.1 37707.6 lineto
stroke
0 0 0 setrgbcolor
120 setlinewidth
newpath
49303.1 36707.6 moveto
49303.1 37707.6 lineto
stroke
0 0 0 setrgbcolor
newpath
50303.1 37707.6 moveto
50303.1 36707.6 lineto
stroke
0 0 0 setrgbcolor
125 setlinewidth
newpath
49421.3 47455.6 moveto
50421.3 47455.6 lineto
stroke
0 0 0 setrgbcolor
newpath
49421.3 48455.6 moveto
50421.3 48455.6 lineto
stroke
0 0 0 setrgbcolor
120 setlinewidth
newpath
49421.3 47455.6 moveto
49421.3 48455.6 lineto
stroke
0 0 0 setrgbcolor
newpath
50421.3 48455.6 moveto
50421.3 47455.6 lineto
stroke
0 0 0 setrgbcolor
80 setlinewidth
newpath
69291.3 45628.8 moveto
69291.3 45828.8 lineto
stroke
0 0 0 setrgbcolor
newpath
69291.3 48628.8 moveto
69291.3 48428.8 lineto
stroke
0 0 0 setrgbcolor
newpath
69291.3 48428.8 moveto
68891.3 48428.8 lineto
stroke
0 0 0 setrgbcolor
newpath
68891.3 48428.8 moveto
68891.3 45828.8 lineto
stroke
0 0 0 setrgbcolor
newpath
68891.3 45828.8 moveto
69691.3 45828.8 lineto
stroke
0 0 0 setrgbcolor
newpath
69691.3 45828.8 moveto
69691.3 48428.8 lineto
stroke
0 0 0 setrgbcolor
newpath
69691.3 48428.8 moveto
69291.3 48428.8 lineto
stroke
0 0 0 setrgbcolor
newpath
69091.3 45828.8 moveto
68891.3 46028.8 lineto
stroke
0 0 0 setrgbcolor
newpath
69488.2 40636.7 moveto
69488.2 40436.7 lineto
stroke
0 0 0 setrgbcolor
newpath
69488.2 37636.7 moveto
69488.2 37836.7 lineto
stroke
0 0 0 setrgbcolor
newpath
69488.2 37836.7 moveto
69888.2 37836.7 lineto
stroke
0 0 0 setrgbcolor
newpath
69888.2 37836.7 moveto
69888.2 40436.7 lineto
stroke
0 0 0 setrgbcolor
newpath
69888.2 40436.7 moveto
69088.2 40436.7 lineto
stroke
0 0 0 setrgbcolor
newpath
69088.2 40436.7 moveto
69088.2 37836.7 lineto
stroke
0 0 0 setrgbcolor
newpath
69088.2 37836.7 moveto
69488.2 37836.7 lineto
stroke
0 0 0 setrgbcolor
newpath
69688.2 40436.7 moveto
69888.2 40236.7 lineto
stroke
0 0 0 setrgbcolor
120 setlinewidth
newpath
71720.5 43542.2 moveto
70720.5 43542.2 lineto
stroke
0 0 0 setrgbcolor
newpath
70720.5 43542.2 moveto
70720.5 46542.2 lineto
stroke
0 0 0 setrgbcolor
newpath
70720.5 46542.2 moveto
71720.5 46542.2 lineto
stroke
0 0 0 setrgbcolor
newpath
71720.5 46542.2 moveto
71720.5 43542.2 lineto
stroke
0 0 0 setrgbcolor
newpath
70720.5 44542.2 moveto
71720.5 44542.2 lineto
stroke
0 0 0 setrgbcolor
newpath
70720.5 42920.2 moveto
71720.5 42920.2 lineto
stroke
0 0 0 setrgbcolor
newpath
71720.5 42920.2 moveto
71720.5 39920.2 lineto
stroke
0 0 0 setrgbcolor
newpath
71720.5 39920.2 moveto
70720.5 39920.2 lineto
stroke
0 0 0 setrgbcolor
newpath
70720.5 39920.2 moveto
70720.5 42920.2 lineto
stroke
0 0 0 setrgbcolor
newpath
71720.5 41920.2 moveto
70720.5 41920.2 lineto
stroke
0 0 0 setrgbcolor
newpath
68429.1 49124.9 moveto
68429.1 48124.9 lineto
stroke
0 0 0 setrgbcolor
newpath
68429.1 48124.9 moveto
65429.1 48124.9 lineto
stroke
0 0 0 setrgbcolor
newpath
65429.1 48124.9 moveto
65429.1 49124.9 lineto
stroke
0 0 0 setrgbcolor
newpath
65429.1 49124.9 moveto
68429.1 49124.9 lineto
stroke
0 0 0 setrgbcolor
newpath
67429.1 48124.9 moveto
67429.1 49124.9 lineto
stroke
0 0 0 setrgbcolor
newpath
65429.1 37219.4 moveto
65429.1 38219.4 lineto
stroke
0 0 0 setrgbcolor
newpath
65429.1 38219.4 moveto
68429.1 38219.4 lineto
stroke
0 0 0 setrgbcolor
newpath
68429.1 38219.4 moveto
68429.1 37219.4 lineto
stroke
0 0 0 setrgbcolor
newpath
68429.1 37219.4 moveto
65429.1 37219.4 lineto
stroke
0 0 0 setrgbcolor
newpath
66429.1 38219.4 moveto
66429.1 37219.4 lineto
stroke
0 0 0 setrgbcolor
59.0551 setlinewidth
0 0 0 setrgbcolor
0 0 0 setrgbcolor
newpath
65294.2 46433.3 moveto
65312.9 46414.5 lineto
65331.6 46358.3 lineto
65331.6 46320.8 lineto
65312.9 46264.6 lineto
65275.4 46227.1 lineto
65237.9 46208.3 lineto
65162.9 46189.6 lineto
65106.7 46189.6 lineto
65031.7 46208.3 lineto
64994.2 46227.1 lineto
64956.7 46264.6 lineto
64937.9 46320.8 lineto
64937.9 46358.3 lineto
64956.7 46414.5 lineto
64975.4 46433.3 lineto
stroke
newpath
65331.6 46808.2 moveto
65331.6 46583.3 lineto
stroke
newpath
65331.6 46695.7 moveto
64937.9 46695.7 lineto
64994.2 46658.3 lineto
65031.7 46620.8 lineto
65050.4 46583.3 lineto
stroke
0 0 0 setrgbcolor
0 0 0 setrgbcolor
0 0 0 setrgbcolor
newpath
60294.2 46423.9 moveto
60312.9 46405.2 lineto
60331.6 46348.9 lineto
60331.6 46311.4 lineto
60312.9 46255.2 lineto
60275.4 46217.7 lineto
60237.9 46198.9 lineto
60162.9 46180.2 lineto
60106.7 46180.2 lineto
60031.7 46198.9 lineto
59994.2 46217.7 lineto
59956.7 46255.2 lineto
59937.9 46311.4 lineto
59937.9 46348.9 lineto
59956.7 46405.2 lineto
59975.4 46423.9 lineto
stroke
newpath
60331.6 46592.6 moveto
59937.9 46592.6 lineto
59937.9 46742.6 lineto
59956.7 46780.1 lineto
59975.4 46798.9 lineto
60012.9 46817.6 lineto
60069.2 46817.6 lineto
60106.7 46798.9 lineto
60125.4 46780.1 lineto
60144.2 46742.6 lineto
60144.2 46592.6 lineto
stroke
0 0 0 setrgbcolor
0 0 0 setrgbcolor
0 0 0 setrgbcolor
newpath
65294.2 39976.6 moveto
65312.9 39957.8 lineto
65331.6 39901.6 lineto
65331.6 39864.1 lineto
65312.9 39807.9 lineto
65275.4 39770.4 lineto
65237.9 39751.6 lineto
65162.9 39732.9 lineto
65106.7 39732.9 lineto
65031.7 39751.6 lineto
64994.2 39770.4 lineto
64956.7 39807.9 lineto
64937.9 39864.1 lineto
64937.9 39901.6 lineto
64956.7 39957.8 lineto
64975.4 39976.6 lineto
stroke
newpath
64975.4 40126.6 moveto
64956.7 40145.3 lineto
64937.9 40182.8 lineto
64937.9 40276.6 lineto
64956.7 40314 lineto
64975.4 40332.8 lineto
65012.9 40351.5 lineto
65050.4 40351.5 lineto
65106.7 40332.8 lineto
65331.6 40107.8 lineto
65331.6 40351.5 lineto
stroke
0 0 0 setrgbcolor
0 0 0 setrgbcolor
0 0 0 setrgbcolor
newpath
60294.2 39967.2 moveto
60312.9 39948.5 lineto
60331.6 39892.2 lineto
60331.6 39854.7 lineto
60312.9 39798.5 lineto
60275.4 39761 lineto
60237.9 39742.2 lineto
60162.9 39723.5 lineto
60106.7 39723.5 lineto
60031.7 39742.2 lineto
59994.2 39761 lineto
59956.7 39798.5 lineto
59937.9 39854.7 lineto
59937.9 39892.2 lineto
59956.7 39948.5 lineto
59975.4 39967.2 lineto
stroke
newpath
60331.6 40135.9 moveto
59937.9 40135.9 lineto
59937.9 40285.9 lineto
59956.7 40323.4 lineto
59975.4 40342.2 lineto
60012.9 40360.9 lineto
60069.2 40360.9 lineto
60106.7 40342.2 lineto
60125.4 40323.4 lineto
60144.2 40285.9 lineto
60144.2 40135.9 lineto
stroke
0 0 0 setrgbcolor
80 setlinewidth
0 0 0 setrgbcolor
0 0 0 setrgbcolor
newpath
66193.3 45180.7 moveto
66212.3 45164.1 lineto
66231.3 45114.1 lineto
66231.3 45080.7 lineto
66212.3 45030.7 lineto
66174.2 44997.4 lineto
66136.1 44980.7 lineto
66059.9 44964.1 lineto
66002.8 44964.1 lineto
65926.6 44980.7 lineto
65888.5 44997.4 lineto
65850.4 45030.7 lineto
65831.3 45080.7 lineto
65831.3 45114.1 lineto
65850.4 45164.1 lineto
65869.4 45180.7 lineto
stroke
newpath
65831.3 45297.4 moveto
65831.3 45514.1 lineto
65983.7 45397.4 lineto
65983.7 45447.4 lineto
66002.8 45480.7 lineto
66021.8 45497.4 lineto
66059.9 45514.1 lineto
66155.2 45514.1 lineto
66193.3 45497.4 lineto
66212.3 45480.7 lineto
66231.3 45447.4 lineto
66231.3 45347.4 lineto
66212.3 45314.1 lineto
66193.3 45297.4 lineto
stroke
0 0 0 setrgbcolor
0 0 0 setrgbcolor
0 0 0 setrgbcolor
newpath
67692.3 45172.4 moveto
67711.3 45155.7 lineto
67730.3 45105.7 lineto
67730.3 45072.4 lineto
67711.3 45022.4 lineto
67673.2 44989.1 lineto
67635.1 44972.4 lineto
67558.9 44955.7 lineto
67501.8 44955.7 lineto
67425.6 44972.4 lineto
67387.5 44989.1 lineto
67349.4 45022.4 lineto
67330.3 45072.4 lineto
67330.3 45105.7 lineto
67349.4 45155.7 lineto
67368.4 45172.4 lineto
stroke
newpath
67730.3 45322.4 moveto
67330.3 45322.4 lineto
67330.3 45455.7 lineto
67349.4 45489.1 lineto
67368.4 45505.7 lineto
67406.5 45522.4 lineto
67463.7 45522.4 lineto
67501.8 45505.7 lineto
67520.8 45489.1 lineto
67539.9 45455.7 lineto
67539.9 45322.4 lineto
stroke
0 0 0 setrgbcolor
0 0 0 setrgbcolor
0 0 0 setrgbcolor
newpath
66893.3 46209.5 moveto
66893.3 46666.6 lineto
stroke
newpath
67121.8 46438.1 moveto
66664.7 46438.1 lineto
stroke
0 0 0 setrgbcolor
0 0 0 setrgbcolor
0 0 0 setrgbcolor
newpath
66193.3 41007.5 moveto
66212.3 40990.8 lineto
66231.3 40940.8 lineto
66231.3 40907.5 lineto
66212.3 40857.5 lineto
66174.2 40824.2 lineto
66136.1 40807.5 lineto
66059.9 40790.8 lineto
66002.8 40790.8 lineto
65926.6 40807.5 lineto
65888.5 40824.2 lineto
65850.4 40857.5 lineto
65831.3 40907.5 lineto
65831.3 40940.8 lineto
65850.4 40990.8 lineto
65869.4 41007.5 lineto
stroke
newpath
65964.7 41307.5 moveto
66231.3 41307.5 lineto
stroke
newpath
65812.3 41224.2 moveto
66098 41140.8 lineto
66098 41357.5 lineto
stroke
0 0 0 setrgbcolor
0 0 0 setrgbcolor
0 0 0 setrgbcolor
newpath
67692.3 40999.2 moveto
67711.3 40982.5 lineto
67730.3 40932.5 lineto
67730.3 40899.2 lineto
67711.3 40849.2 lineto
67673.2 40815.8 lineto
67635.1 40799.2 lineto
67558.9 40782.5 lineto
67501.8 40782.5 lineto
67425.6 40799.2 lineto
67387.5 40815.8 lineto
67349.4 40849.2 lineto
67330.3 40899.2 lineto
67330.3 40932.5 lineto
67349.4 40982.5 lineto
67368.4 40999.2 lineto
stroke
newpath
67730.3 41149.2 moveto
67330.3 41149.2 lineto
67330.3 41282.5 lineto
67349.4 41315.8 lineto
67368.4 41332.5 lineto
67406.5 41349.2 lineto
67463.7 41349.2 lineto
67501.8 41332.5 lineto
67520.8 41315.8 lineto
67539.9 41282.5 lineto
67539.9 41149.2 lineto
stroke
0 0 0 setrgbcolor
0 0 0 setrgbcolor
0 0 0 setrgbcolor
newpath
66893.3 42036.3 moveto
66893.3 42493.4 lineto
stroke
newpath
67121.8 42264.8 moveto
66664.7 42264.8 lineto
stroke
0 0 0 setrgbcolor
0 0 0 setrgbcolor
0 0 0 setrgbcolor
newpath
72649.9 47464.2 moveto
72669 47447.5 lineto
72688 47397.5 lineto
72688 47364.2 lineto
72669 47314.2 lineto
72630.9 47280.9 lineto
72592.8 47264.2 lineto
72516.6 47247.5 lineto
72459.5 47247.5 lineto
72383.3 47264.2 lineto
72345.2 47280.9 lineto
72307.1 47314.2 lineto
72288 47364.2 lineto
72288 47397.5 lineto
72307.1 47447.5 lineto
72326.1 47464.2 lineto
stroke
newpath
72288 47780.9 moveto
72288 47614.2 lineto
72478.5 47597.5 lineto
72459.5 47614.2 lineto
72440.4 47647.5 lineto
72440.4 47730.9 lineto
72459.5 47764.2 lineto
72478.5 47780.9 lineto
72516.6 47797.5 lineto
72611.8 47797.5 lineto
72649.9 47780.9 lineto
72669 47764.2 lineto
72688 47730.9 lineto
72688 47647.5 lineto
72669 47614.2 lineto
72649.9 47597.5 lineto
stroke
0 0 0 setrgbcolor
0 0 0 setrgbcolor
0 0 0 setrgbcolor
newpath
74148.9 47455.9 moveto
74168 47439.2 lineto
74187 47389.2 lineto
74187 47355.9 lineto
74168 47305.9 lineto
74129.9 47272.5 lineto
74091.8 47255.9 lineto
74015.6 47239.2 lineto
73958.5 47239.2 lineto
73882.3 47255.9 lineto
73844.2 47272.5 lineto
73806.1 47305.9 lineto
73787 47355.9 lineto
73787 47389.2 lineto
73806.1 47439.2 lineto
73825.1 47455.9 lineto
stroke
newpath
74187 47605.9 moveto
73787 47605.9 lineto
73787 47739.2 lineto
73806.1 47772.5 lineto
73825.1 47789.2 lineto
73863.2 47805.9 lineto
73920.4 47805.9 lineto
73958.5 47789.2 lineto
73977.5 47772.5 lineto
73996.6 47739.2 lineto
73996.6 47605.9 lineto
stroke
0 0 0 setrgbcolor
0 0 0 setrgbcolor
0 0 0 setrgbcolor
newpath
73349.9 48492.9 moveto
73349.9 48950.1 lineto
stroke
newpath
73578.5 48721.5 moveto
73121.4 48721.5 lineto
stroke
0 0 0 setrgbcolor
0 0 0 setrgbcolor
0 0 0 setrgbcolor
newpath
72571.2 38645.3 moveto
72590.3 38628.6 lineto
72609.3 38578.6 lineto
72609.3 38545.3 lineto
72590.3 38495.3 lineto
72552.2 38462 lineto
72514.1 38445.3 lineto
72437.9 38428.6 lineto
72380.7 38428.6 lineto
72304.5 38445.3 lineto
72266.4 38462 lineto
72228.3 38495.3 lineto
72209.3 38545.3 lineto
72209.3 38578.6 lineto
72228.3 38628.6 lineto
72247.4 38645.3 lineto
stroke
newpath
72209.3 38945.3 moveto
72209.3 38878.6 lineto
72228.3 38845.3 lineto
72247.4 38828.6 lineto
72304.5 38795.3 lineto
72380.7 38778.6 lineto
72533.1 38778.6 lineto
72571.2 38795.3 lineto
72590.3 38812 lineto
72609.3 38845.3 lineto
72609.3 38912 lineto
72590.3 38945.3 lineto
72571.2 38962 lineto
72533.1 38978.6 lineto
72437.9 38978.6 lineto
72399.8 38962 lineto
72380.7 38945.3 lineto
72361.7 38912 lineto
72361.7 38845.3 lineto
72380.7 38812 lineto
72399.8 38795.3 lineto
72437.9 38778.6 lineto
stroke
0 0 0 setrgbcolor
0 0 0 setrgbcolor
0 0 0 setrgbcolor
newpath
74070.2 38637 moveto
74089.3 38620.3 lineto
74108.3 38570.3 lineto
74108.3 38537 lineto
74089.3 38487 lineto
74051.2 38453.6 lineto
74013.1 38437 lineto
73936.9 38420.3 lineto
73879.7 38420.3 lineto
73803.5 38437 lineto
73765.4 38453.6 lineto
73727.3 38487 lineto
73708.3 38537 lineto
73708.3 38570.3 lineto
73727.3 38620.3 lineto
73746.4 38637 lineto
stroke
newpath
74108.3 38787 moveto
73708.3 38787 lineto
73708.3 38920.3 lineto
73727.3 38953.6 lineto
73746.4 38970.3 lineto
73784.5 38987 lineto
73841.6 38987 lineto
73879.7 38970.3 lineto
73898.8 38953.6 lineto
73917.8 38920.3 lineto
73917.8 38787 lineto
stroke
0 0 0 setrgbcolor
0 0 0 setrgbcolor
0 0 0 setrgbcolor
newpath
73271.2 39674.1 moveto
73271.2 40131.2 lineto
stroke
newpath
73499.8 39902.6 moveto
73042.6 39902.6 lineto
stroke
0 0 0 setrgbcolor
0 0 0 setrgbcolor
0 0 0 setrgbcolor
newpath
46228.1 42586.5 moveto
45628.1 42586.5 lineto
45628.1 42705.6 lineto
45656.7 42777 lineto
45713.8 42824.6 lineto
45771 42848.4 lineto
45885.3 42872.3 lineto
45971 42872.3 lineto
46085.3 42848.4 lineto
46142.4 42824.6 lineto
46199.6 42777 lineto
46228.1 42705.6 lineto
46228.1 42586.5 lineto
stroke
newpath
46228.1 43348.4 moveto
46228.1 43062.7 lineto
stroke
newpath
46228.1 43205.6 moveto
45628.1 43205.6 lineto
45713.8 43158 lineto
45771 43110.4 lineto
45799.6 43062.7 lineto
stroke
0 0 0 setrgbcolor
0 0 0 setrgbcolor
0 0 0 setrgbcolor
newpath
47228.1 41967.5 moveto
46628.1 41967.5 lineto
46628.1 42086.5 lineto
46656.7 42158 lineto
46713.8 42205.6 lineto
46771 42229.4 lineto
46885.3 42253.2 lineto
46971 42253.2 lineto
47085.3 42229.4 lineto
47142.4 42205.6 lineto
47199.6 42158 lineto
47228.1 42086.5 lineto
47228.1 41967.5 lineto
stroke
newpath
47228.1 42467.5 moveto
46628.1 42467.5 lineto
stroke
newpath
46628.1 42800.8 moveto
46628.1 42896.1 lineto
46656.7 42943.7 lineto
46713.8 42991.3 lineto
46828.1 43015.1 lineto
47028.1 43015.1 lineto
47142.4 42991.3 lineto
47199.6 42943.7 lineto
47228.1 42896.1 lineto
47228.1 42800.8 lineto
47199.6 42753.2 lineto
47142.4 42705.6 lineto
47028.1 42681.8 lineto
46828.1 42681.8 lineto
46713.8 42705.6 lineto
46656.7 42753.2 lineto
46628.1 42800.8 lineto
stroke
newpath
47228.1 43229.4 moveto
46628.1 43229.4 lineto
46628.1 43348.4 lineto
46656.7 43419.9 lineto
46713.8 43467.5 lineto
46771 43491.3 lineto
46885.3 43515.1 lineto
46971 43515.1 lineto
47085.3 43491.3 lineto
47142.4 43467.5 lineto
47199.6 43419.9 lineto
47228.1 43348.4 lineto
47228.1 43229.4 lineto
stroke
newpath
46913.8 43729.4 moveto
46913.8 43896.1 lineto
stroke
newpath
47228.1 43967.5 moveto
47228.1 43729.4 lineto
46628.1 43729.4 lineto
46628.1 43967.5 lineto
stroke
0 0 0 setrgbcolor
0 0 0 setrgbcolor
0 0 0 setrgbcolor
newpath
49653.3 42468.4 moveto
49053.3 42468.4 lineto
49053.3 42587.5 lineto
49081.9 42658.9 lineto
49139 42706.5 lineto
49196.2 42730.3 lineto
49310.5 42754.1 lineto
49396.2 42754.1 lineto
49510.5 42730.3 lineto
49567.6 42706.5 lineto
49624.7 42658.9 lineto
49653.3 42587.5 lineto
49653.3 42468.4 lineto
stroke
newpath
49110.5 42944.6 moveto
49081.9 42968.4 lineto
49053.3 43016.1 lineto
49053.3 43135.1 lineto
49081.9 43182.7 lineto
49110.5 43206.5 lineto
49167.6 43230.3 lineto
49224.7 43230.3 lineto
49310.5 43206.5 lineto
49653.3 42920.8 lineto
49653.3 43230.3 lineto
stroke
0 0 0 setrgbcolor
0 0 0 setrgbcolor
0 0 0 setrgbcolor
newpath
50653.3 41849.4 moveto
50053.3 41849.4 lineto
50053.3 41968.4 lineto
50081.9 42039.9 lineto
50139 42087.5 lineto
50196.2 42111.3 lineto
50310.5 42135.1 lineto
50396.2 42135.1 lineto
50510.5 42111.3 lineto
50567.6 42087.5 lineto
50624.7 42039.9 lineto
50653.3 41968.4 lineto
50653.3 41849.4 lineto
stroke
newpath
50653.3 42349.4 moveto
50053.3 42349.4 lineto
stroke
newpath
50053.3 42682.7 moveto
50053.3 42778 lineto
50081.9 42825.6 lineto
50139 42873.2 lineto
50253.3 42897 lineto
50453.3 42897 lineto
50567.6 42873.2 lineto
50624.7 42825.6 lineto
50653.3 42778 lineto
50653.3 42682.7 lineto
50624.7 42635.1 lineto
50567.6 42587.5 lineto
50453.3 42563.7 lineto
50253.3 42563.7 lineto
50139 42587.5 lineto
50081.9 42635.1 lineto
50053.3 42682.7 lineto
stroke
newpath
50653.3 43111.3 moveto
50053.3 43111.3 lineto
50053.3 43230.3 lineto
50081.9 43301.8 lineto
50139 43349.4 lineto
50196.2 43373.2 lineto
50310.5 43397 lineto
50396.2 43397 lineto
50510.5 43373.2 lineto
50567.6 43349.4 lineto
50624.7 43301.8 lineto
50653.3 43230.3 lineto
50653.3 43111.3 lineto
stroke
newpath
50339 43611.3 moveto
50339 43778 lineto
stroke
newpath
50653.3 43849.4 moveto
50653.3 43611.3 lineto
50053.3 43611.3 lineto
50053.3 43849.4 lineto
stroke
0 0 0 setrgbcolor
0 0 0 setrgbcolor
0 0 0 setrgbcolor
newpath
53157.3 42468.4 moveto
52557.3 42468.4 lineto
52557.3 42587.5 lineto
52585.8 42658.9 lineto
52643 42706.5 lineto
52700.1 42730.3 lineto
52814.4 42754.1 lineto
52900.1 42754.1 lineto
53014.4 42730.3 lineto
53071.5 42706.5 lineto
53128.7 42658.9 lineto
53157.3 42587.5 lineto
53157.3 42468.4 lineto
stroke
newpath
52557.3 42920.8 moveto
52557.3 43230.3 lineto
52785.8 43063.7 lineto
52785.8 43135.1 lineto
52814.4 43182.7 lineto
52843 43206.5 lineto
52900.1 43230.3 lineto
53043 43230.3 lineto
53100.1 43206.5 lineto
53128.7 43182.7 lineto
53157.3 43135.1 lineto
53157.3 42992.2 lineto
53128.7 42944.6 lineto
53100.1 42920.8 lineto
stroke
0 0 0 setrgbcolor
0 0 0 setrgbcolor
0 0 0 setrgbcolor
newpath
54157.3 41849.4 moveto
53557.3 41849.4 lineto
53557.3 41968.4 lineto
53585.8 42039.9 lineto
53643 42087.5 lineto
53700.1 42111.3 lineto
53814.4 42135.1 lineto
53900.1 42135.1 lineto
54014.4 42111.3 lineto
54071.5 42087.5 lineto
54128.7 42039.9 lineto
54157.3 41968.4 lineto
54157.3 41849.4 lineto
stroke
newpath
54157.3 42349.4 moveto
53557.3 42349.4 lineto
stroke
newpath
53557.3 42682.7 moveto
53557.3 42778 lineto
53585.8 42825.6 lineto
53643 42873.2 lineto
53757.3 42897 lineto
53957.3 42897 lineto
54071.5 42873.2 lineto
54128.7 42825.6 lineto
54157.3 42778 lineto
54157.3 42682.7 lineto
54128.7 42635.1 lineto
54071.5 42587.5 lineto
53957.3 42563.7 lineto
53757.3 42563.7 lineto
53643 42587.5 lineto
53585.8 42635.1 lineto
53557.3 42682.7 lineto
stroke
newpath
54157.3 43111.3 moveto
53557.3 43111.3 lineto
53557.3 43230.3 lineto
53585.8 43301.8 lineto
53643 43349.4 lineto
53700.1 43373.2 lineto
53814.4 43397 lineto
53900.1 43397 lineto
54014.4 43373.2 lineto
54071.5 43349.4 lineto
54128.7 43301.8 lineto
54157.3 43230.3 lineto
54157.3 43111.3 lineto
stroke
newpath
53843 43611.3 moveto
53843 43778 lineto
stroke
newpath
54157.3 43849.4 moveto
54157.3 43611.3 lineto
53557.3 43611.3 lineto
53557.3 43849.4 lineto
stroke
0 0 0 setrgbcolor
0 0 0 setrgbcolor
0 0 0 setrgbcolor
newpath
56621.8 42468.4 moveto
56021.8 42468.4 lineto
56021.8 42587.5 lineto
56050.4 42658.9 lineto
56107.5 42706.5 lineto
56164.7 42730.3 lineto
56279 42754.1 lineto
56364.7 42754.1 lineto
56479 42730.3 lineto
56536.1 42706.5 lineto
56593.3 42658.9 lineto
56621.8 42587.5 lineto
56621.8 42468.4 lineto
stroke
newpath
56221.8 43182.7 moveto
56621.8 43182.7 lineto
stroke
newpath
55993.3 43063.7 moveto
56421.8 42944.6 lineto
56421.8 43254.1 lineto
stroke
0 0 0 setrgbcolor
0 0 0 setrgbcolor
0 0 0 setrgbcolor
newpath
57621.8 41849.4 moveto
57021.8 41849.4 lineto
57021.8 41968.4 lineto
57050.4 42039.9 lineto
57107.5 42087.5 lineto
57164.7 42111.3 lineto
57279 42135.1 lineto
57364.7 42135.1 lineto
57479 42111.3 lineto
57536.1 42087.5 lineto
57593.3 42039.9 lineto
57621.8 41968.4 lineto
57621.8 41849.4 lineto
stroke
newpath
57621.8 42349.4 moveto
57021.8 42349.4 lineto
stroke
newpath
57021.8 42682.7 moveto
57021.8 42778 lineto
57050.4 42825.6 lineto
57107.5 42873.2 lineto
57221.8 42897 lineto
57421.8 42897 lineto
57536.1 42873.2 lineto
57593.3 42825.6 lineto
57621.8 42778 lineto
57621.8 42682.7 lineto
57593.3 42635.1 lineto
57536.1 42587.5 lineto
57421.8 42563.7 lineto
57221.8 42563.7 lineto
57107.5 42587.5 lineto
57050.4 42635.1 lineto
57021.8 42682.7 lineto
stroke
newpath
57621.8 43111.3 moveto
57021.8 43111.3 lineto
57021.8 43230.3 lineto
57050.4 43301.8 lineto
57107.5 43349.4 lineto
57164.7 43373.2 lineto
57279 43397 lineto
57364.7 43397 lineto
57479 43373.2 lineto
57536.1 43349.4 lineto
57593.3 43301.8 lineto
57621.8 43230.3 lineto
57621.8 43111.3 lineto
stroke
newpath
57307.5 43611.3 moveto
57307.5 43778 lineto
stroke
newpath
57621.8 43849.4 moveto
57621.8 43611.3 lineto
57021.8 43611.3 lineto
57021.8 43849.4 lineto
stroke
0 0 0 setrgbcolor
120 setlinewidth
0 0 0 setrgbcolor
0 0 0 setrgbcolor
newpath
40948.6 42670.2 moveto
40348.6 42670.2 lineto
stroke
newpath
40948.6 43013.1 moveto
40605.7 42755.9 lineto
stroke
newpath
40348.6 43013.1 moveto
40691.5 42670.2 lineto
stroke
newpath
40948.6 43584.5 moveto
40948.6 43241.6 lineto
stroke
newpath
40948.6 43413.1 moveto
40348.6 43413.1 lineto
40434.3 43355.9 lineto
40491.5 43298.8 lineto
40520 43241.6 lineto
stroke
0 0 0 setrgbcolor
0 0 0 setrgbcolor
0 0 0 setrgbcolor
newpath
44891.5 41841.6 moveto
44920 41813.1 lineto
44948.6 41727.4 lineto
44948.6 41670.2 lineto
44920 41584.5 lineto
44862.9 41527.4 lineto
44805.7 41498.8 lineto
44691.5 41470.2 lineto
44605.7 41470.2 lineto
44491.5 41498.8 lineto
44434.3 41527.4 lineto
44377.2 41584.5 lineto
44348.6 41670.2 lineto
44348.6 41727.4 lineto
44377.2 41813.1 lineto
44405.7 41841.6 lineto
stroke
newpath
44348.6 42213.1 moveto
44348.6 42327.4 lineto
44377.2 42384.5 lineto
44434.3 42441.6 lineto
44548.6 42470.2 lineto
44748.6 42470.2 lineto
44862.9 42441.6 lineto
44920 42384.5 lineto
44948.6 42327.4 lineto
44948.6 42213.1 lineto
44920 42155.9 lineto
44862.9 42098.8 lineto
44748.6 42070.2 lineto
44548.6 42070.2 lineto
44434.3 42098.8 lineto
44377.2 42155.9 lineto
44348.6 42213.1 lineto
stroke
newpath
44948.6 42727.4 moveto
44348.6 42727.4 lineto
44948.6 43070.2 lineto
44348.6 43070.2 lineto
stroke
newpath
44948.6 43355.9 moveto
44348.6 43355.9 lineto
44948.6 43698.8 lineto
44348.6 43698.8 lineto
stroke
newpath
45005.7 43841.6 moveto
45005.7 44298.8 lineto
stroke
newpath
44348.6 44384.5 moveto
44348.6 44755.9 lineto
44577.2 44555.9 lineto
44577.2 44641.6 lineto
44605.7 44698.8 lineto
44634.3 44727.4 lineto
44691.5 44755.9 lineto
44834.3 44755.9 lineto
44891.5 44727.4 lineto
44920 44698.8 lineto
44948.6 44641.6 lineto
44948.6 44470.2 lineto
44920 44413.1 lineto
44891.5 44384.5 lineto
stroke
0 0 0 setrgbcolor
0 0 0 setrgbcolor
0 0 0 setrgbcolor
newpath
78491.9 42670.2 moveto
77891.9 42670.2 lineto
stroke
newpath
78491.9 43013.1 moveto
78149 42755.9 lineto
stroke
newpath
77891.9 43013.1 moveto
78234.8 42670.2 lineto
stroke
newpath
77949 43241.6 moveto
77920.5 43270.2 lineto
77891.9 43327.4 lineto
77891.9 43470.2 lineto
77920.5 43527.4 lineto
77949 43555.9 lineto
78006.2 43584.5 lineto
78063.3 43584.5 lineto
78149 43555.9 lineto
78491.9 43213.1 lineto
78491.9 43584.5 lineto
stroke
0 0 0 setrgbcolor
0 0 0 setrgbcolor
0 0 0 setrgbcolor
newpath
74434.8 41841.6 moveto
74463.3 41813.1 lineto
74491.9 41727.4 lineto
74491.9 41670.2 lineto
74463.3 41584.5 lineto
74406.2 41527.4 lineto
74349 41498.8 lineto
74234.8 41470.2 lineto
74149 41470.2 lineto
74034.8 41498.8 lineto
73977.6 41527.4 lineto
73920.5 41584.5 lineto
73891.9 41670.2 lineto
73891.9 41727.4 lineto
73920.5 41813.1 lineto
73949 41841.6 lineto
stroke
newpath
73891.9 42213.1 moveto
73891.9 42327.4 lineto
73920.5 42384.5 lineto
73977.6 42441.6 lineto
74091.9 42470.2 lineto
74291.9 42470.2 lineto
74406.2 42441.6 lineto
74463.3 42384.5 lineto
74491.9 42327.4 lineto
74491.9 42213.1 lineto
74463.3 42155.9 lineto
74406.2 42098.8 lineto
74291.9 42070.2 lineto
74091.9 42070.2 lineto
73977.6 42098.8 lineto
73920.5 42155.9 lineto
73891.9 42213.1 lineto
stroke
newpath
74491.9 42727.4 moveto
73891.9 42727.4 lineto
74491.9 43070.2 lineto
73891.9 43070.2 lineto
stroke
newpath
74491.9 43355.9 moveto
73891.9 43355.9 lineto
74491.9 43698.8 lineto
73891.9 43698.8 lineto
stroke
newpath
74549 43841.6 moveto
74549 44298.8 lineto
stroke
newpath
73891.9 44384.5 moveto
73891.9 44755.9 lineto
74120.5 44555.9 lineto
74120.5 44641.6 lineto
74149 44698.8 lineto
74177.6 44727.4 lineto
74234.8 44755.9 lineto
74377.6 44755.9 lineto
74434.8 44727.4 lineto
74463.3 44698.8 lineto
74491.9 44641.6 lineto
74491.9 44470.2 lineto
74463.3 44413.1 lineto
74434.8 44384.5 lineto
stroke
0 0 0 setrgbcolor
107 setlinewidth
0 0 0 setrgbcolor
0 0 0 setrgbcolor
newpath
49487.2 37899.5 moveto
49487.2 38580.5 lineto
49650.3 38580.5 lineto
49691.1 38548.1 lineto
49711.4 38515.6 lineto
49731.8 38450.8 lineto
49731.8 38353.5 lineto
49711.4 38288.6 lineto
49691.1 38256.2 lineto
49650.3 38223.8 lineto
49487.2 38223.8 lineto
stroke
newpath
50139.4 37899.5 moveto
49894.9 37899.5 lineto
stroke
newpath
50017.1 37899.5 moveto
50017.1 38580.5 lineto
49976.4 38483.2 lineto
49935.6 38418.3 lineto
49894.9 38385.9 lineto
stroke
0 0 0 setrgbcolor
0 0 0 setrgbcolor
0 0 0 setrgbcolor
newpath
49605.4 48647.5 moveto
49605.4 49328.5 lineto
49768.4 49328.5 lineto
49809.2 49296.1 lineto
49829.5 49263.7 lineto
49849.9 49198.8 lineto
49849.9 49101.5 lineto
49829.5 49036.7 lineto
49809.2 49004.2 lineto
49768.4 48971.8 lineto
49605.4 48971.8 lineto
stroke
newpath
50013 49263.7 moveto
50033.4 49296.1 lineto
50074.1 49328.5 lineto
50176 49328.5 lineto
50216.8 49296.1 lineto
50237.2 49263.7 lineto
50257.5 49198.8 lineto
50257.5 49133.9 lineto
50237.2 49036.7 lineto
49992.6 48647.5 lineto
50257.5 48647.5 lineto
stroke
0 0 0 setrgbcolor
80 setlinewidth
0 0 0 setrgbcolor
0 0 0 setrgbcolor
newpath
69590.1 47283.6 moveto
69328.2 47116.9 lineto
stroke
newpath
69590.1 46997.9 moveto
69040.1 46997.9 lineto
69040.1 47188.3 lineto
69066.3 47236 lineto
69092.5 47259.8 lineto
69144.9 47283.6 lineto
69223.5 47283.6 lineto
69275.9 47259.8 lineto
69302.1 47236 lineto
69328.2 47188.3 lineto
69328.2 46997.9 lineto
stroke
0 0 0 setrgbcolor
0 0 0 setrgbcolor
0 0 0 setrgbcolor
newpath
69687 39291.5 moveto
69425.1 39124.8 lineto
stroke
newpath
69687 39005.7 moveto
69137 39005.7 lineto
69137 39196.2 lineto
69163.2 39243.8 lineto
69189.4 39267.6 lineto
69241.8 39291.5 lineto
69320.3 39291.5 lineto
69372.7 39267.6 lineto
69398.9 39243.8 lineto
69425.1 39196.2 lineto
69425.1 39005.7 lineto
stroke
0 0 0 setrgbcolor
120 setlinewidth
0 0 0 setrgbcolor
106 setlinewidth
0 0 0 setrgbcolor
newpath
70539.4 44789.8 moveto
70203.7 44648.5 lineto
stroke
newpath
70539.4 44547.5 moveto
69834.4 44547.5 lineto
69834.4 44709.1 lineto
69868 44749.4 lineto
69901.5 44769.6 lineto
69968.7 44789.8 lineto
70069.4 44789.8 lineto
70136.5 44769.6 lineto
70170.1 44749.4 lineto
70203.7 44709.1 lineto
70203.7 44547.5 lineto
stroke
newpath
69834.4 44911 moveto
70539.4 45052.3 lineto
69834.4 45193.6 lineto
stroke
newpath
70539.4 45557.1 moveto
70539.4 45314.8 lineto
stroke
newpath
70539.4 45435.9 moveto
69834.4 45435.9 lineto
69935.1 45395.5 lineto
70002.3 45355.2 lineto
70035.8 45314.8 lineto
stroke
120 setlinewidth
0 0 0 setrgbcolor
0 0 0 setrgbcolor
106 setlinewidth
0 0 0 setrgbcolor
newpath
72539.4 41167.8 moveto
72203.7 41026.4 lineto
stroke
newpath
72539.4 40925.5 moveto
71834.4 40925.5 lineto
71834.4 41087 lineto
71868 41127.4 lineto
71901.5 41147.6 lineto
71968.7 41167.8 lineto
72069.4 41167.8 lineto
72136.5 41147.6 lineto
72170.1 41127.4 lineto
72203.7 41087 lineto
72203.7 40925.5 lineto
stroke
newpath
71834.4 41288.9 moveto
72539.4 41430.3 lineto
71834.4 41571.6 lineto
stroke
newpath
71901.5 41692.7 moveto
71868 41712.9 lineto
71834.4 41753.3 lineto
71834.4 41854.3 lineto
71868 41894.6 lineto
71901.5 41914.8 lineto
71968.7 41935 lineto
72035.8 41935 lineto
72136.5 41914.8 lineto
72539.4 41672.5 lineto
72539.4 41935 lineto
stroke
120 setlinewidth
0 0 0 setrgbcolor
0 0 0 setrgbcolor
106 setlinewidth
0 0 0 setrgbcolor
newpath
66606.1 48011 moveto
66606.1 47440.2 lineto
66626.3 47373.1 lineto
66646.5 47339.5 lineto
66686.8 47306 lineto
66767.6 47306 lineto
66808 47339.5 lineto
66828.2 47373.1 lineto
66848.4 47440.2 lineto
66848.4 48011 lineto
stroke
newpath
67272.4 47306 moveto
67030.1 47306 lineto
stroke
newpath
67151.2 47306 moveto
67151.2 48011 lineto
67110.8 47910.2 lineto
67070.5 47843.1 lineto
67030.1 47809.5 lineto
stroke
120 setlinewidth
0 0 0 setrgbcolor
0 0 0 setrgbcolor
106 setlinewidth
0 0 0 setrgbcolor
newpath
66606.1 39105.4 moveto
66606.1 38534.7 lineto
66626.3 38467.6 lineto
66646.5 38434 lineto
66686.8 38400.4 lineto
66767.6 38400.4 lineto
66808 38434 lineto
66828.2 38467.6 lineto
66848.4 38534.7 lineto
66848.4 39105.4 lineto
stroke
newpath
67030.1 39038.3 moveto
67050.3 39071.9 lineto
67090.7 39105.4 lineto
67191.6 39105.4 lineto
67232 39071.9 lineto
67252.2 39038.3 lineto
67272.4 38971.2 lineto
67272.4 38904 lineto
67252.2 38803.3 lineto
67009.9 38400.4 lineto
67272.4 38400.4 lineto
stroke
120 setlinewidth
showpage
grestore
%%EOF
