EESchema Schematic File Version 2
LIBS:power
LIBS:device
LIBS:transistors
LIBS:conn
LIBS:linear
LIBS:regul
LIBS:74xx
LIBS:cmos4000
LIBS:adc-dac
LIBS:memory
LIBS:xilinx
LIBS:special
LIBS:microcontrollers
LIBS:dsp
LIBS:microchip
LIBS:analog_switches
LIBS:motorola
LIBS:texas
LIBS:intel
LIBS:audio
LIBS:interface
LIBS:digital-audio
LIBS:philips
LIBS:display
LIBS:cypress
LIBS:siliconi
LIBS:opto
LIBS:atmel
LIBS:contrib
LIBS:valves
LIBS:fuente-cache
EELAYER 24 0
EELAYER END
$Descr A4 11693 8268
encoding utf-8
Sheet 1 1
Title ""
Date ""
Rev ""
Comp ""
Comment1 ""
Comment2 ""
Comment3 ""
Comment4 ""
$EndDescr
$Comp
L LM337T U2
U 1 1 529E0CC0
P 5650 5050
F 0 "U2" H 5450 4850 40  0000 C CNN
F 1 "LM337T" H 5650 4850 40  0000 L CNN
F 2 "TO-220" H 5650 4950 30  0000 C CIN
F 3 "" H 5650 5050 60  0000 C CNN
	1    5650 5050
	1    0    0    -1  
$EndComp
$Comp
L LM317T U1
U 1 1 529E0CCF
P 5650 2700
F 0 "U1" H 5450 2900 40  0000 C CNN
F 1 "LM317T" H 5650 2900 40  0000 L CNN
F 2 "TO-220" H 5650 2800 30  0000 C CIN
F 3 "" H 5650 2700 60  0000 C CNN
	1    5650 2700
	1    0    0    -1  
$EndComp
$Comp
L CP C1
U 1 1 529E0CDE
P 4800 3100
F 0 "C1" H 4850 3200 40  0000 L CNN
F 1 "CP" H 4850 3000 40  0000 L CNN
F 2 "" H 4900 2950 30  0000 C CNN
F 3 "" H 4800 3100 300 0000 C CNN
	1    4800 3100
	1    0    0    -1  
$EndComp
$Comp
L CP C2
U 1 1 529E0CED
P 4800 4500
F 0 "C2" H 4850 4600 40  0000 L CNN
F 1 "CP" H 4850 4400 40  0000 L CNN
F 2 "" H 4900 4350 30  0000 C CNN
F 3 "" H 4800 4500 300 0000 C CNN
	1    4800 4500
	1    0    0    -1  
$EndComp
$Comp
L CP C3
U 1 1 529E0CFC
P 5650 3550
F 0 "C3" H 5700 3650 40  0000 L CNN
F 1 "CP" H 5700 3450 40  0000 L CNN
F 2 "" H 5750 3400 30  0000 C CNN
F 3 "" H 5650 3550 300 0000 C CNN
	1    5650 3550
	1    0    0    -1  
$EndComp
$Comp
L CP C4
U 1 1 529E0D0B
P 5650 4300
F 0 "C4" H 5700 4400 40  0000 L CNN
F 1 "CP" H 5700 4200 40  0000 L CNN
F 2 "" H 5750 4150 30  0000 C CNN
F 3 "" H 5650 4300 300 0000 C CNN
	1    5650 4300
	1    0    0    -1  
$EndComp
$Comp
L R R1
U 1 1 529E0D88
P 6450 2900
F 0 "R1" V 6530 2900 40  0000 C CNN
F 1 "R" V 6457 2901 40  0000 C CNN
F 2 "" V 6380 2900 30  0000 C CNN
F 3 "" H 6450 2900 30  0000 C CNN
	1    6450 2900
	1    0    0    -1  
$EndComp
$Comp
L R R2
U 1 1 529E0D97
P 6450 4850
F 0 "R2" V 6530 4850 40  0000 C CNN
F 1 "R" V 6457 4851 40  0000 C CNN
F 2 "" V 6380 4850 30  0000 C CNN
F 3 "" H 6450 4850 30  0000 C CNN
	1    6450 4850
	1    0    0    -1  
$EndComp
$Comp
L POT RV1
U 1 1 529E0DA6
P 6450 3500
F 0 "RV1" H 6450 3400 50  0000 C CNN
F 1 "POT" H 6450 3500 50  0000 C CNN
F 2 "" H 6450 3500 60  0000 C CNN
F 3 "" H 6450 3500 60  0000 C CNN
	1    6450 3500
	0    -1   -1   0   
$EndComp
$Comp
L POT RV2
U 1 1 529E0DB5
P 6450 4200
F 0 "RV2" H 6450 4100 50  0000 C CNN
F 1 "POT" H 6450 4200 50  0000 C CNN
F 2 "" H 6450 4200 60  0000 C CNN
F 3 "" H 6450 4200 60  0000 C CNN
	1    6450 4200
	0    -1   -1   0   
$EndComp
$Comp
L CP C5
U 1 1 529E0FEA
P 6950 3200
F 0 "C5" H 7000 3300 40  0000 L CNN
F 1 "CP" H 7000 3100 40  0000 L CNN
F 2 "" H 7050 3050 30  0000 C CNN
F 3 "" H 6950 3200 300 0000 C CNN
	1    6950 3200
	1    0    0    -1  
$EndComp
$Comp
L CP C6
U 1 1 529E0FF9
P 6950 4550
F 0 "C6" H 7000 4650 40  0000 L CNN
F 1 "CP" H 7000 4450 40  0000 L CNN
F 2 "" H 7050 4400 30  0000 C CNN
F 3 "" H 6950 4550 300 0000 C CNN
	1    6950 4550
	1    0    0    -1  
$EndComp
$Comp
L DIODE D2
U 1 1 529E10AA
P 4000 3450
F 0 "D2" H 4000 3550 40  0000 C CNN
F 1 "DIODE" H 4000 3350 40  0000 C CNN
F 2 "" H 4000 3450 60  0000 C CNN
F 3 "" H 4000 3450 60  0000 C CNN
	1    4000 3450
	1    0    0    -1  
$EndComp
$Comp
L DIODE D3
U 1 1 529E10B9
P 4000 4200
F 0 "D3" H 4000 4300 40  0000 C CNN
F 1 "DIODE" H 4000 4100 40  0000 C CNN
F 2 "" H 4000 4200 60  0000 C CNN
F 3 "" H 4000 4200 60  0000 C CNN
	1    4000 4200
	1    0    0    -1  
$EndComp
$Comp
L DIODE D1
U 1 1 529E10C8
P 3700 3800
F 0 "D1" H 3700 3900 40  0000 C CNN
F 1 "DIODE" H 3700 3700 40  0000 C CNN
F 2 "" H 3700 3800 60  0000 C CNN
F 3 "" H 3700 3800 60  0000 C CNN
	1    3700 3800
	0    -1   -1   0   
$EndComp
$Comp
L DIODE D4
U 1 1 529E10D7
P 4200 3800
F 0 "D4" H 4200 3900 40  0000 C CNN
F 1 "DIODE" H 4200 3700 40  0000 C CNN
F 2 "" H 4200 3800 60  0000 C CNN
F 3 "" H 4200 3800 60  0000 C CNN
	1    4200 3800
	0    -1   -1   0   
$EndComp
$Comp
L CONN_3 K1
U 1 1 529E120F
P 2650 3850
F 0 "K1" V 2600 3850 50  0000 C CNN
F 1 "CONN_3" V 2700 3850 40  0000 C CNN
F 2 "" H 2650 3850 60  0000 C CNN
F 3 "" H 2650 3850 60  0000 C CNN
	1    2650 3850
	-1   0    0    1   
$EndComp
$Comp
L GND #PWR01
U 1 1 529E1249
P 5250 4000
F 0 "#PWR01" H 5250 4000 30  0001 C CNN
F 1 "GND" H 5250 3930 30  0001 C CNN
F 2 "" H 5250 4000 60  0000 C CNN
F 3 "" H 5250 4000 60  0000 C CNN
	1    5250 4000
	1    0    0    -1  
$EndComp
$Comp
L CONN_3 K2
U 1 1 529E12E5
P 8000 3850
F 0 "K2" V 7950 3850 50  0000 C CNN
F 1 "CONN_3" V 8050 3850 40  0000 C CNN
F 2 "" H 8000 3850 60  0000 C CNN
F 3 "" H 8000 3850 60  0000 C CNN
	1    8000 3850
	1    0    0    -1  
$EndComp
Wire Wire Line
	6050 2650 7650 2650
Wire Wire Line
	6450 3150 6450 3250
Wire Wire Line
	6450 4450 6450 4600
Wire Wire Line
	5650 3200 6450 3200
Connection ~ 6450 3200
Wire Wire Line
	4350 2650 5250 2650
Wire Wire Line
	4800 2650 4800 2900
Wire Wire Line
	4800 3300 4800 4300
Wire Wire Line
	5650 2950 5650 3350
Wire Wire Line
	6050 5100 7650 5100
Wire Wire Line
	3700 5100 5250 5100
Wire Wire Line
	4800 5100 4800 4700
Connection ~ 5650 3200
Wire Wire Line
	5650 3750 5650 4100
Wire Wire Line
	5650 4800 5650 4500
Wire Wire Line
	4550 3850 7650 3850
Connection ~ 5650 3850
Connection ~ 4800 3850
Wire Wire Line
	6150 4200 6300 4200
Wire Wire Line
	6150 3500 6150 4200
Connection ~ 6150 3850
Wire Wire Line
	6300 3500 6150 3500
Wire Wire Line
	6950 2650 6950 3000
Connection ~ 6450 2650
Wire Wire Line
	6950 3400 6950 4350
Wire Wire Line
	6950 5100 6950 4750
Connection ~ 6450 5100
Connection ~ 6950 3850
Wire Wire Line
	3700 3600 3700 3450
Wire Wire Line
	3250 3450 3800 3450
Wire Wire Line
	4200 3450 4200 3600
Wire Wire Line
	4200 4000 4200 4400
Wire Wire Line
	3800 4200 3700 4200
Wire Wire Line
	3700 4000 3700 5100
Wire Wire Line
	4200 3450 4350 3450
Wire Wire Line
	4350 3450 4350 2650
Connection ~ 4800 2650
Connection ~ 4800 5100
Connection ~ 3700 4200
Wire Wire Line
	3000 3850 3400 3850
Wire Wire Line
	3400 3850 3400 4500
Wire Wire Line
	3400 4500 4550 4500
Wire Wire Line
	4550 4500 4550 3850
Wire Wire Line
	5250 4000 5250 3850
Connection ~ 5250 3850
Wire Wire Line
	3250 3450 3250 3750
Wire Wire Line
	3250 3750 3000 3750
Connection ~ 3700 3450
Wire Wire Line
	3000 3950 3000 4400
Wire Wire Line
	3000 4400 4200 4400
Connection ~ 4200 4200
Connection ~ 6950 2650
Wire Wire Line
	7650 5100 7650 3950
Connection ~ 6950 5100
Wire Wire Line
	7650 2650 7650 3750
$Comp
L CONN_1 P2
U 1 1 529E146C
P 5200 3250
F 0 "P2" H 5280 3250 40  0000 L CNN
F 1 "CONN_1" H 5200 3305 30  0001 C CNN
F 2 "" H 5200 3250 60  0000 C CNN
F 3 "" H 5200 3250 60  0000 C CNN
	1    5200 3250
	0    1    1    0   
$EndComp
$Comp
L CONN_1 P1
U 1 1 529E147B
P 5150 4550
F 0 "P1" H 5230 4550 40  0000 L CNN
F 1 "CONN_1" H 5150 4605 30  0001 C CNN
F 2 "" H 5150 4550 60  0000 C CNN
F 3 "" H 5150 4550 60  0000 C CNN
	1    5150 4550
	0    -1   -1   0   
$EndComp
Wire Wire Line
	5200 3100 5200 2650
Connection ~ 5200 2650
Wire Wire Line
	5150 4700 5150 5100
Connection ~ 5150 5100
Wire Wire Line
	6450 4550 5650 4550
Connection ~ 5650 4550
Connection ~ 6450 4550
$EndSCHEMATC
