EESchema Schematic File Version 2
LIBS:power
LIBS:device
LIBS:transistors
LIBS:conn
LIBS:linear
LIBS:regul
LIBS:74xx
LIBS:cmos4000
LIBS:adc-dac
LIBS:memory
LIBS:xilinx
LIBS:special
LIBS:microcontrollers
LIBS:dsp
LIBS:microchip
LIBS:analog_switches
LIBS:motorola
LIBS:texas
LIBS:intel
LIBS:audio
LIBS:interface
LIBS:digital-audio
LIBS:philips
LIBS:display
LIBS:cypress
LIBS:siliconi
LIBS:opto
LIBS:atmel
LIBS:contrib
LIBS:valves
LIBS:Termocupla-cache
EELAYER 24 0
EELAYER END
$Descr A4 11693 8268
encoding utf-8
Sheet 1 1
Title ""
Date ""
Rev ""
Comp ""
Comment1 ""
Comment2 ""
Comment3 ""
Comment4 ""
$EndDescr
$Comp
L TL082 U1
U 1 1 52A159CF
P 4350 2850
F 0 "U1" H 4300 3050 60  0000 L CNN
F 1 "TL082" H 4300 2600 60  0000 L CNN
F 2 "" H 4350 2850 60  0000 C CNN
F 3 "" H 4350 2850 60  0000 C CNN
	1    4350 2850
	1    0    0    -1  
$EndComp
$Comp
L TL082 U1
U 2 1 52A159DE
P 6150 2750
F 0 "U1" H 6100 2950 60  0000 L CNN
F 1 "TL082" H 6100 2500 60  0000 L CNN
F 2 "" H 6150 2750 60  0000 C CNN
F 3 "" H 6150 2750 60  0000 C CNN
	2    6150 2750
	1    0    0    -1  
$EndComp
$Comp
L LM-35 L1
U 1 1 52A15ACD
P 2650 2350
F 0 "L1" H 2650 2201 40  0000 R CNN
F 1 "LM-35" H 2650 2500 40  0000 R CNN
F 2 "TO92" H 2550 2452 29  0000 C CNN
F 3 "" H 2650 2350 60  0000 C CNN
	1    2650 2350
	-1   0    0    1   
$EndComp
$Comp
L R R4
U 1 1 52A15B02
P 3000 2650
F 0 "R4" V 3080 2650 40  0000 C CNN
F 1 "R" V 3007 2651 40  0000 C CNN
F 2 "" V 2930 2650 30  0000 C CNN
F 3 "" H 3000 2650 30  0000 C CNN
	1    3000 2650
	1    0    0    -1  
$EndComp
$Comp
L R R2
U 1 1 52A15B11
P 2550 3250
F 0 "R2" V 2630 3250 40  0000 C CNN
F 1 "R" V 2557 3251 40  0000 C CNN
F 2 "" V 2480 3250 30  0000 C CNN
F 3 "" H 2550 3250 30  0000 C CNN
	1    2550 3250
	1    0    0    -1  
$EndComp
$Comp
L R R5
U 1 1 52A15B2A
P 3000 3250
F 0 "R5" V 3080 3250 40  0000 C CNN
F 1 "R" V 3007 3251 40  0000 C CNN
F 2 "" V 2930 3250 30  0000 C CNN
F 3 "" H 3000 3250 30  0000 C CNN
	1    3000 3250
	1    0    0    -1  
$EndComp
$Comp
L R R6
U 1 1 52A15B58
P 3500 2950
F 0 "R6" V 3580 2950 40  0000 C CNN
F 1 "R" V 3507 2951 40  0000 C CNN
F 2 "" V 3430 2950 30  0000 C CNN
F 3 "" H 3500 2950 30  0000 C CNN
	1    3500 2950
	0    -1   -1   0   
$EndComp
$Comp
L R R8
U 1 1 52A15B67
P 4250 3400
F 0 "R8" V 4330 3400 40  0000 C CNN
F 1 "R" V 4257 3401 40  0000 C CNN
F 2 "" V 4180 3400 30  0000 C CNN
F 3 "" H 4250 3400 30  0000 C CNN
	1    4250 3400
	0    -1   -1   0   
$EndComp
$Comp
L GND #PWR01
U 1 1 52A15B8E
P 2800 3600
F 0 "#PWR01" H 2800 3600 30  0001 C CNN
F 1 "GND" H 2800 3530 30  0001 C CNN
F 2 "" H 2800 3600 60  0000 C CNN
F 3 "" H 2800 3600 60  0000 C CNN
	1    2800 3600
	1    0    0    -1  
$EndComp
$Comp
L R R10
U 1 1 52A15C02
P 5300 2850
F 0 "R10" V 5380 2850 40  0000 C CNN
F 1 "R" V 5307 2851 40  0000 C CNN
F 2 "" V 5230 2850 30  0000 C CNN
F 3 "" H 5300 2850 30  0000 C CNN
	1    5300 2850
	0    -1   -1   0   
$EndComp
$Comp
L R R12
U 1 1 52A15C11
P 6050 3300
F 0 "R12" V 6130 3300 40  0000 C CNN
F 1 "R" V 6057 3301 40  0000 C CNN
F 2 "" V 5980 3300 30  0000 C CNN
F 3 "" H 6050 3300 30  0000 C CNN
	1    6050 3300
	0    -1   -1   0   
$EndComp
$Comp
L GND #PWR02
U 1 1 52A15C7F
P 3700 2800
F 0 "#PWR02" H 3700 2800 30  0001 C CNN
F 1 "GND" H 3700 2730 30  0001 C CNN
F 2 "" H 3700 2800 60  0000 C CNN
F 3 "" H 3700 2800 60  0000 C CNN
	1    3700 2800
	1    0    0    -1  
$EndComp
$Comp
L GND #PWR03
U 1 1 52A15C8E
P 5500 2700
F 0 "#PWR03" H 5500 2700 30  0001 C CNN
F 1 "GND" H 5500 2630 30  0001 C CNN
F 2 "" H 5500 2700 60  0000 C CNN
F 3 "" H 5500 2700 60  0000 C CNN
	1    5500 2700
	1    0    0    -1  
$EndComp
$Comp
L ZENER D1
U 1 1 52A15CCF
P 7300 2950
F 0 "D1" H 7300 3050 50  0000 C CNN
F 1 "ZENER" H 7300 2850 40  0000 C CNN
F 2 "" H 7300 2950 60  0000 C CNN
F 3 "" H 7300 2950 60  0000 C CNN
	1    7300 2950
	0    -1   -1   0   
$EndComp
$Comp
L R R14
U 1 1 52A15CDE
P 6950 2750
F 0 "R14" V 7030 2750 40  0000 C CNN
F 1 "R" V 6957 2751 40  0000 C CNN
F 2 "" V 6880 2750 30  0000 C CNN
F 3 "" H 6950 2750 30  0000 C CNN
	1    6950 2750
	0    -1   -1   0   
$EndComp
$Comp
L GND #PWR04
U 1 1 52A15D26
P 7300 3250
F 0 "#PWR04" H 7300 3250 30  0001 C CNN
F 1 "GND" H 7300 3180 30  0001 C CNN
F 2 "" H 7300 3250 60  0000 C CNN
F 3 "" H 7300 3250 60  0000 C CNN
	1    7300 3250
	1    0    0    -1  
$EndComp
$Comp
L TL082 U2
U 1 1 52A15D62
P 2700 5450
F 0 "U2" H 2650 5650 60  0000 L CNN
F 1 "TL082" H 2650 5200 60  0000 L CNN
F 2 "" H 2700 5450 60  0000 C CNN
F 3 "" H 2700 5450 60  0000 C CNN
	1    2700 5450
	1    0    0    -1  
$EndComp
$Comp
L TL082 U2
U 2 1 52A15D71
P 4650 5350
F 0 "U2" H 4600 5550 60  0000 L CNN
F 1 "TL082" H 4600 5100 60  0000 L CNN
F 2 "" H 4650 5350 60  0000 C CNN
F 3 "" H 4650 5350 60  0000 C CNN
	2    4650 5350
	1    0    0    -1  
$EndComp
$Comp
L TL082 U4
U 1 1 52A15D80
P 6800 5250
F 0 "U4" H 6750 5450 60  0000 L CNN
F 1 "TL082" H 6750 5000 60  0000 L CNN
F 2 "" H 6800 5250 60  0000 C CNN
F 3 "" H 6800 5250 60  0000 C CNN
	1    6800 5250
	1    0    0    -1  
$EndComp
$Comp
L TL082 U4
U 2 1 52A15D8F
P 8600 5150
F 0 "U4" H 8550 5350 60  0000 L CNN
F 1 "TL082" H 8550 4900 60  0000 L CNN
F 2 "" H 8600 5150 60  0000 C CNN
F 3 "" H 8600 5150 60  0000 C CNN
	2    8600 5150
	1    0    0    -1  
$EndComp
$Comp
L R R1
U 1 1 52A15D9E
P 1800 5550
F 0 "R1" V 1880 5550 40  0000 C CNN
F 1 "R" V 1807 5551 40  0000 C CNN
F 2 "" V 1730 5550 30  0000 C CNN
F 3 "" H 1800 5550 30  0000 C CNN
	1    1800 5550
	0    -1   -1   0   
$EndComp
$Comp
L R R7
U 1 1 52A15DAD
P 3450 5200
F 0 "R7" V 3530 5200 40  0000 C CNN
F 1 "R" V 3457 5201 40  0000 C CNN
F 2 "" V 3380 5200 30  0000 C CNN
F 3 "" H 3450 5200 30  0000 C CNN
	1    3450 5200
	-1   0    0    1   
$EndComp
$Comp
L R R11
U 1 1 52A15DBC
P 5800 5350
F 0 "R11" V 5880 5350 40  0000 C CNN
F 1 "R" V 5807 5351 40  0000 C CNN
F 2 "" V 5730 5350 30  0000 C CNN
F 3 "" H 5800 5350 30  0000 C CNN
	1    5800 5350
	0    -1   -1   0   
$EndComp
$Comp
L R R15
U 1 1 52A15DCB
P 7700 5250
F 0 "R15" V 7780 5250 40  0000 C CNN
F 1 "R" V 7707 5251 40  0000 C CNN
F 2 "" V 7630 5250 30  0000 C CNN
F 3 "" H 7700 5250 30  0000 C CNN
	1    7700 5250
	0    -1   -1   0   
$EndComp
$Comp
L R R3
U 1 1 52A15DDA
P 2550 6100
F 0 "R3" V 2630 6100 40  0000 C CNN
F 1 "R" V 2557 6101 40  0000 C CNN
F 2 "" V 2480 6100 30  0000 C CNN
F 3 "" H 2550 6100 30  0000 C CNN
	1    2550 6100
	0    -1   -1   0   
$EndComp
$Comp
L R R13
U 1 1 52A15DF8
P 6650 5800
F 0 "R13" V 6730 5800 40  0000 C CNN
F 1 "R" V 6657 5801 40  0000 C CNN
F 2 "" V 6580 5800 30  0000 C CNN
F 3 "" H 6650 5800 30  0000 C CNN
	1    6650 5800
	0    -1   -1   0   
$EndComp
$Comp
L R R16
U 1 1 52A15E16
P 9600 5150
F 0 "R16" V 9680 5150 40  0000 C CNN
F 1 "R" V 9607 5151 40  0000 C CNN
F 2 "" V 9530 5150 30  0000 C CNN
F 3 "" H 9600 5150 30  0000 C CNN
	1    9600 5150
	0    -1   -1   0   
$EndComp
$Comp
L ZENER D2
U 1 1 52A15E25
P 10050 5400
F 0 "D2" H 10050 5500 50  0000 C CNN
F 1 "ZENER" H 10050 5300 40  0000 C CNN
F 2 "" H 10050 5400 60  0000 C CNN
F 3 "" H 10050 5400 60  0000 C CNN
	1    10050 5400
	0    -1   -1   0   
$EndComp
$Comp
L GND #PWR05
U 1 1 52A16154
P 2100 5450
F 0 "#PWR05" H 2100 5450 30  0001 C CNN
F 1 "GND" H 2100 5380 30  0001 C CNN
F 2 "" H 2100 5450 60  0000 C CNN
F 3 "" H 2100 5450 60  0000 C CNN
	1    2100 5450
	1    0    0    -1  
$EndComp
$Comp
L GND #PWR06
U 1 1 52A16163
P 4050 5300
F 0 "#PWR06" H 4050 5300 30  0001 C CNN
F 1 "GND" H 4050 5230 30  0001 C CNN
F 2 "" H 4050 5300 60  0000 C CNN
F 3 "" H 4050 5300 60  0000 C CNN
	1    4050 5300
	1    0    0    -1  
$EndComp
$Comp
L GND #PWR07
U 1 1 52A16172
P 6150 5250
F 0 "#PWR07" H 6150 5250 30  0001 C CNN
F 1 "GND" H 6150 5180 30  0001 C CNN
F 2 "" H 6150 5250 60  0000 C CNN
F 3 "" H 6150 5250 60  0000 C CNN
	1    6150 5250
	1    0    0    -1  
$EndComp
$Comp
L GND #PWR08
U 1 1 52A16181
P 7950 5100
F 0 "#PWR08" H 7950 5100 30  0001 C CNN
F 1 "GND" H 7950 5030 30  0001 C CNN
F 2 "" H 7950 5100 60  0000 C CNN
F 3 "" H 7950 5100 60  0000 C CNN
	1    7950 5100
	1    0    0    -1  
$EndComp
$Comp
L -5V #PWR09
U 1 1 52A167DE
P 5450 5950
F 0 "#PWR09" H 5450 6090 20  0001 C CNN
F 1 "-5V" H 5450 6060 30  0000 C CNN
F 2 "" H 5450 5950 60  0000 C CNN
F 3 "" H 5450 5950 60  0000 C CNN
	1    5450 5950
	-1   0    0    1   
$EndComp
$Comp
L +5V #PWR010
U 1 1 52A16851
P 4250 1850
F 0 "#PWR010" H 4250 1940 20  0001 C CNN
F 1 "+5V" H 4250 1940 30  0000 C CNN
F 2 "" H 4250 1850 60  0000 C CNN
F 3 "" H 4250 1850 60  0000 C CNN
	1    4250 1850
	1    0    0    -1  
$EndComp
$Comp
L GND #PWR011
U 1 1 52A168C6
P 10050 5700
F 0 "#PWR011" H 10050 5700 30  0001 C CNN
F 1 "GND" H 10050 5630 30  0001 C CNN
F 2 "" H 10050 5700 60  0000 C CNN
F 3 "" H 10050 5700 60  0000 C CNN
	1    10050 5700
	1    0    0    -1  
$EndComp
$Comp
L CONN_2 P1
U 1 1 52A1693B
P 1150 5650
F 0 "P1" V 1100 5650 40  0000 C CNN
F 1 "CONN_2" V 1200 5650 40  0000 C CNN
F 2 "" H 1150 5650 60  0000 C CNN
F 3 "" H 1150 5650 60  0000 C CNN
	1    1150 5650
	-1   0    0    1   
$EndComp
$Comp
L GND #PWR012
U 1 1 52A1694A
P 1600 5850
F 0 "#PWR012" H 1600 5850 30  0001 C CNN
F 1 "GND" H 1600 5780 30  0001 C CNN
F 2 "" H 1600 5850 60  0000 C CNN
F 3 "" H 1600 5850 60  0000 C CNN
	1    1600 5850
	1    0    0    -1  
$EndComp
$Comp
L CONN_3 K1
U 1 1 52A16A29
P 8650 2600
F 0 "K1" V 8600 2600 50  0000 C CNN
F 1 "CONN_3" V 8700 2600 40  0000 C CNN
F 2 "" H 8650 2600 60  0000 C CNN
F 3 "" H 8650 2600 60  0000 C CNN
	1    8650 2600
	1    0    0    -1  
$EndComp
$Comp
L GND #PWR013
U 1 1 52A16B10
P 8050 2700
F 0 "#PWR013" H 8050 2700 30  0001 C CNN
F 1 "GND" H 8050 2630 30  0001 C CNN
F 2 "" H 8050 2700 60  0000 C CNN
F 3 "" H 8050 2700 60  0000 C CNN
	1    8050 2700
	1    0    0    -1  
$EndComp
$Comp
L CONN_2 P2
U 1 1 52A16B8F
P 9950 3800
F 0 "P2" V 9900 3800 40  0000 C CNN
F 1 "CONN_2" V 10000 3800 40  0000 C CNN
F 2 "" H 9950 3800 60  0000 C CNN
F 3 "" H 9950 3800 60  0000 C CNN
	1    9950 3800
	1    0    0    -1  
$EndComp
$Comp
L C C1
U 1 1 52A16CFF
P 3350 5800
F 0 "C1" H 3350 5900 40  0000 L CNN
F 1 "C" H 3356 5715 40  0000 L CNN
F 2 "" H 3388 5650 30  0000 C CNN
F 3 "" H 3350 5800 60  0000 C CNN
	1    3350 5800
	1    0    0    -1  
$EndComp
$Comp
L GND #PWR014
U 1 1 52A16D8A
P 3350 6100
F 0 "#PWR014" H 3350 6100 30  0001 C CNN
F 1 "GND" H 3350 6030 30  0001 C CNN
F 2 "" H 3350 6100 60  0000 C CNN
F 3 "" H 3350 6100 60  0000 C CNN
	1    3350 6100
	1    0    0    -1  
$EndComp
$Comp
L C C2
U 1 1 52A16E17
P 4950 2550
F 0 "C2" H 4950 2650 40  0000 L CNN
F 1 "C" H 4956 2465 40  0000 L CNN
F 2 "" H 4988 2400 30  0000 C CNN
F 3 "" H 4950 2550 60  0000 C CNN
	1    4950 2550
	1    0    0    -1  
$EndComp
$Comp
L GND #PWR015
U 1 1 52A16E26
P 5200 2450
F 0 "#PWR015" H 5200 2450 30  0001 C CNN
F 1 "GND" H 5200 2380 30  0001 C CNN
F 2 "" H 5200 2450 60  0000 C CNN
F 3 "" H 5200 2450 60  0000 C CNN
	1    5200 2450
	1    0    0    -1  
$EndComp
Connection ~ 4950 2850
Wire Wire Line
	4950 2750 4950 2850
Wire Wire Line
	5200 2350 5200 2450
Wire Wire Line
	4950 2350 5200 2350
Wire Wire Line
	3350 6000 3350 6100
Connection ~ 3350 5450
Wire Wire Line
	3350 5600 3350 5450
Connection ~ 10050 5150
Wire Wire Line
	9600 3950 9600 3900
Wire Wire Line
	9400 3950 9600 3950
Wire Wire Line
	9400 4250 9400 3950
Wire Wire Line
	10050 4250 9400 4250
Connection ~ 7300 2750
Wire Wire Line
	8950 3700 9600 3700
Wire Wire Line
	8950 3450 8950 3700
Wire Wire Line
	7550 3450 8950 3450
Wire Wire Line
	7550 2750 7550 3450
Wire Wire Line
	8050 2600 8050 2700
Wire Wire Line
	8300 2600 8050 2600
Connection ~ 5050 3550
Wire Wire Line
	8300 3550 5050 3550
Wire Wire Line
	8300 2700 8300 3550
Connection ~ 6050 2000
Wire Wire Line
	6500 2000 6500 2500
Wire Wire Line
	6500 2500 8300 2500
Wire Wire Line
	1550 5550 1500 5550
Wire Wire Line
	1600 5750 1600 5850
Wire Wire Line
	1500 5750 1600 5750
Wire Wire Line
	10050 5700 10050 5600
Connection ~ 5450 5850
Wire Wire Line
	5450 5850 5450 5950
Connection ~ 5050 3250
Connection ~ 5350 5850
Wire Wire Line
	5350 5850 5350 5000
Wire Wire Line
	5350 5000 5050 5000
Wire Wire Line
	5050 5000 5050 3250
Wire Wire Line
	5800 3150 6050 3150
Wire Wire Line
	5800 3250 5800 3150
Wire Wire Line
	4250 3250 5800 3250
Connection ~ 6700 5650
Wire Wire Line
	8500 5650 8500 5550
Connection ~ 4550 5850
Wire Wire Line
	6250 5650 8500 5650
Wire Wire Line
	6250 5850 6250 5650
Wire Wire Line
	4550 5850 4550 5750
Wire Wire Line
	2600 5850 6250 5850
Wire Wire Line
	8050 5750 8050 5250
Wire Wire Line
	8400 5750 8050 5750
Connection ~ 6650 3950
Wire Wire Line
	2200 3950 8500 3950
Wire Wire Line
	8500 3950 8500 4750
Connection ~ 4550 3950
Wire Wire Line
	6700 3950 6700 4850
Connection ~ 2600 3950
Wire Wire Line
	4550 3950 4550 4950
Connection ~ 4250 2000
Wire Wire Line
	4250 1850 4250 2450
Connection ~ 2550 2000
Wire Wire Line
	6050 2000 6050 2350
Wire Wire Line
	2550 2000 2550 2150
Wire Wire Line
	2200 2000 6500 2000
Wire Wire Line
	2200 2000 2200 3950
Wire Wire Line
	6650 3950 6700 3950
Wire Wire Line
	2600 5050 2600 3950
Wire Wire Line
	7950 5050 7950 5100
Wire Wire Line
	8100 5050 7950 5050
Wire Wire Line
	6150 5150 6150 5250
Wire Wire Line
	6300 5150 6150 5150
Wire Wire Line
	4050 5250 4050 5300
Wire Wire Line
	4150 5250 4050 5250
Wire Wire Line
	2100 5350 2200 5350
Wire Wire Line
	2100 5450 2100 5350
Wire Wire Line
	10050 4250 10050 5200
Wire Wire Line
	9850 5150 10050 5150
Wire Wire Line
	9100 5150 9350 5150
Connection ~ 8050 5250
Wire Wire Line
	7950 5250 8100 5250
Wire Wire Line
	7300 5250 7450 5250
Wire Wire Line
	7300 5800 7300 5250
Wire Wire Line
	6900 5800 7300 5800
Connection ~ 6200 5350
Wire Wire Line
	6200 5800 6400 5800
Wire Wire Line
	6200 5350 6200 5800
Wire Wire Line
	6050 5350 6300 5350
Wire Wire Line
	5150 5350 5550 5350
Wire Wire Line
	5150 6050 5150 5350
Wire Wire Line
	4750 6050 5150 6050
Connection ~ 4050 5450
Wire Wire Line
	4050 6050 4250 6050
Wire Wire Line
	4050 5450 4050 6050
Wire Wire Line
	3650 5450 4150 5450
Wire Wire Line
	3200 5450 3450 5450
Wire Wire Line
	3200 6100 3200 5450
Wire Wire Line
	2800 6100 3200 6100
Connection ~ 2100 5550
Wire Wire Line
	2100 6100 2100 5550
Wire Wire Line
	2300 6100 2100 6100
Wire Wire Line
	2050 5550 2200 5550
Wire Wire Line
	7300 3250 7300 3150
Wire Wire Line
	6650 2750 6700 2750
Wire Wire Line
	7200 2750 7550 2750
Wire Wire Line
	3700 2750 3700 2800
Wire Wire Line
	3850 2750 3700 2750
Wire Wire Line
	5500 2650 5500 2700
Wire Wire Line
	5650 2650 5500 2650
Connection ~ 5600 2850
Wire Wire Line
	5600 3300 5600 2850
Wire Wire Line
	5800 3300 5600 3300
Wire Wire Line
	6650 3300 6650 2750
Wire Wire Line
	6300 3300 6650 3300
Wire Wire Line
	5550 2850 5650 2850
Wire Wire Line
	4850 2850 5050 2850
Wire Wire Line
	4850 3400 4850 2850
Wire Wire Line
	4500 3400 4850 3400
Connection ~ 3800 2950
Wire Wire Line
	3800 3400 4000 3400
Wire Wire Line
	3800 2950 3800 3400
Wire Wire Line
	3750 2950 3850 2950
Connection ~ 2800 3500
Wire Wire Line
	2800 3600 2800 3500
Wire Wire Line
	2550 3500 3000 3500
Connection ~ 3000 2950
Connection ~ 2550 2950
Wire Wire Line
	2550 2950 3250 2950
Wire Wire Line
	3000 2900 3000 3000
Wire Wire Line
	3000 2350 3000 2400
Wire Wire Line
	2850 2350 3000 2350
Wire Wire Line
	2550 2550 2550 3000
$Comp
L R R17
U 1 1 52A17E16
P 8650 5750
F 0 "R17" V 8730 5750 40  0000 C CNN
F 1 "R" V 8657 5751 40  0000 C CNN
F 2 "" V 8580 5750 30  0000 C CNN
F 3 "" H 8650 5750 30  0000 C CNN
	1    8650 5750
	0    -1   -1   0   
$EndComp
Wire Wire Line
	9100 5150 9100 5750
Wire Wire Line
	9100 5750 8900 5750
$Comp
L POT RV1
U 1 1 52A17EC6
P 4600 6150
F 0 "RV1" H 4600 6050 50  0000 C CNN
F 1 "POT" H 4600 6150 50  0000 C CNN
F 2 "" H 4600 6150 60  0000 C CNN
F 3 "" H 4600 6150 60  0000 C CNN
	1    4600 6150
	1    0    0    -1  
$EndComp
Wire Wire Line
	4350 6150 4250 6150
Wire Wire Line
	4250 6150 4250 6050
Wire Wire Line
	4600 6000 4750 6000
Wire Wire Line
	4750 6000 4750 6050
$Comp
L R R9
U 1 1 52A18007
P 3650 5200
F 0 "R9" V 3730 5200 40  0000 C CNN
F 1 "R" V 3657 5201 40  0000 C CNN
F 2 "" V 3580 5200 30  0000 C CNN
F 3 "" H 3650 5200 30  0000 C CNN
	1    3650 5200
	1    0    0    -1  
$EndComp
Wire Wire Line
	3650 4950 3450 4950
$EndSCHEMATC
