EESchema Schematic File Version 2
LIBS:power
LIBS:device
LIBS:transistors
LIBS:conn
LIBS:linear
LIBS:regul
LIBS:74xx
LIBS:cmos4000
LIBS:adc-dac
LIBS:memory
LIBS:xilinx
LIBS:special
LIBS:microcontrollers
LIBS:dsp
LIBS:microchip
LIBS:analog_switches
LIBS:motorola
LIBS:texas
LIBS:intel
LIBS:audio
LIBS:interface
LIBS:digital-audio
LIBS:philips
LIBS:display
LIBS:cypress
LIBS:siliconi
LIBS:opto
LIBS:atmel
LIBS:contrib
LIBS:valves
LIBS:proyecto final-cache
EELAYER 24 0
EELAYER END
$Descr A4 11693 8268
encoding utf-8
Sheet 1 1
Title ""
Date "25 oct 2013"
Rev ""
Comp ""
Comment1 ""
Comment2 ""
Comment3 ""
Comment4 ""
$EndDescr
$Comp
L GND #PWR01
U 1 1 5269CF9A
P 6200 2000
F 0 "#PWR01" H 6200 2000 30  0001 C CNN
F 1 "GND" H 6200 1930 30  0001 C CNN
F 2 "" H 6200 2000 60  0001 C CNN
F 3 "" H 6200 2000 60  0001 C CNN
	1    6200 2000
	1    0    0    -1  
$EndComp
$Comp
L CONN_13X2 P4
U 1 1 5269CF31
P 6800 2600
F 0 "P4" H 6800 3300 60  0000 C CNN
F 1 "CONN_13X2" V 6800 2600 50  0000 C CNN
F 2 "" H 6800 2600 60  0001 C CNN
F 3 "" H 6800 2600 60  0001 C CNN
	1    6800 2600
	1    0    0    -1  
$EndComp
$Comp
L CONN_12X2 P3
U 1 1 5269CEE8
P 5300 2650
F 0 "P3" H 5300 3300 60  0000 C CNN
F 1 "CONN_12X2" V 5300 2650 50  0000 C CNN
F 2 "" H 5300 2650 60  0001 C CNN
F 3 "" H 5300 2650 60  0001 C CNN
	1    5300 2650
	1    0    0    -1  
$EndComp
$Comp
L CP C4
U 1 1 5269CE0C
P 10150 2750
F 0 "C4" H 10200 2850 50  0000 L CNN
F 1 "CP" H 10200 2650 50  0000 L CNN
F 2 "" H 10150 2750 60  0001 C CNN
F 3 "" H 10150 2750 60  0001 C CNN
	1    10150 2750
	0    1    1    0   
$EndComp
$Comp
L GND #PWR02
U 1 1 5269CDB4
P 9900 2600
F 0 "#PWR02" H 9900 2600 30  0001 C CNN
F 1 "GND" H 9900 2530 30  0001 C CNN
F 2 "" H 9900 2600 60  0001 C CNN
F 3 "" H 9900 2600 60  0001 C CNN
	1    9900 2600
	1    0    0    -1  
$EndComp
$Comp
L GND #PWR03
U 1 1 5269CC4B
P 10400 2350
F 0 "#PWR03" H 10400 2350 30  0001 C CNN
F 1 "GND" H 10400 2280 30  0001 C CNN
F 2 "" H 10400 2350 60  0001 C CNN
F 3 "" H 10400 2350 60  0001 C CNN
	1    10400 2350
	1    0    0    -1  
$EndComp
$Comp
L CP C5
U 1 1 5269CC44
P 10400 2050
F 0 "C5" H 10450 2150 50  0000 L CNN
F 1 "CP" H 10450 1950 50  0000 L CNN
F 2 "" H 10400 2050 60  0001 C CNN
F 3 "" H 10400 2050 60  0001 C CNN
	1    10400 2050
	1    0    0    -1  
$EndComp
$Comp
L CP C3
U 1 1 5269CC18
P 10050 2050
F 0 "C3" H 10100 2150 50  0000 L CNN
F 1 "CP" H 10100 1950 50  0000 L CNN
F 2 "" H 10050 2050 60  0001 C CNN
F 3 "" H 10050 2050 60  0001 C CNN
	1    10050 2050
	1    0    0    1   
$EndComp
$Comp
L GND #PWR04
U 1 1 5269CBF5
P 10600 2800
F 0 "#PWR04" H 10600 2800 30  0001 C CNN
F 1 "GND" H 10600 2730 30  0001 C CNN
F 2 "" H 10600 2800 60  0001 C CNN
F 3 "" H 10600 2800 60  0001 C CNN
	1    10600 2800
	1    0    0    -1  
$EndComp
$Comp
L CP C2
U 1 1 5269CB88
P 8050 2550
F 0 "C2" H 8100 2650 50  0000 L CNN
F 1 "CP" H 8100 2450 50  0000 L CNN
F 2 "" H 8050 2550 60  0001 C CNN
F 3 "" H 8050 2550 60  0001 C CNN
	1    8050 2550
	1    0    0    -1  
$EndComp
$Comp
L CP C1
U 1 1 5269CB85
P 8050 2050
F 0 "C1" H 8100 2150 50  0000 L CNN
F 1 "CP" H 8100 1950 50  0000 L CNN
F 2 "" H 8050 2050 60  0001 C CNN
F 3 "" H 8050 2050 60  0001 C CNN
	1    8050 2050
	1    0    0    -1  
$EndComp
$Comp
L MAX232 U1
U 1 1 5269CB4F
P 9000 2550
F 0 "U1" H 9000 3400 70  0000 C CNN
F 1 "MAX232" H 9000 1700 70  0000 C CNN
F 2 "" H 9000 2550 60  0001 C CNN
F 3 "" H 9000 2550 60  0001 C CNN
	1    9000 2550
	1    0    0    -1  
$EndComp
$Comp
L CONN_4 P9
U 1 1 527319EF
P 10500 3100
F 0 "P9" V 10450 3100 50  0000 C CNN
F 1 "CONN_4" V 10550 3100 50  0000 C CNN
F 2 "" H 10500 3100 60  0000 C CNN
F 3 "" H 10500 3100 60  0000 C CNN
	1    10500 3100
	1    0    0    -1  
$EndComp
$Comp
L CONN_4 P5
U 1 1 52731B50
P 6200 4350
F 0 "P5" V 6150 4350 50  0000 C CNN
F 1 "CONN_4" V 6250 4350 50  0000 C CNN
F 2 "" H 6200 4350 60  0000 C CNN
F 3 "" H 6200 4350 60  0000 C CNN
	1    6200 4350
	0    1    1    0   
$EndComp
$Comp
L JUMPER3 JP2
U 1 1 52731CE7
P 7400 3950
F 0 "JP2" H 7450 3850 40  0000 L CNN
F 1 "JUMPER3" H 7400 4050 40  0000 C CNN
F 2 "" H 7400 3950 60  0000 C CNN
F 3 "" H 7400 3950 60  0000 C CNN
	1    7400 3950
	0    -1   -1   0   
$EndComp
$Comp
L JUMPER3 JP1
U 1 1 52731D18
P 6950 4000
F 0 "JP1" H 7000 3900 40  0000 L CNN
F 1 "JUMPER3" H 6950 4100 40  0000 C CNN
F 2 "" H 6950 4000 60  0000 C CNN
F 3 "" H 6950 4000 60  0000 C CNN
	1    6950 4000
	0    -1   -1   0   
$EndComp
$Comp
L CONN_14 P7
U 1 1 52731F30
P 7400 5000
F 0 "P7" V 7370 5000 60  0000 C CNN
F 1 "CONN_14" V 7480 5000 60  0000 C CNN
F 2 "" H 7400 5000 60  0000 C CNN
F 3 "" H 7400 5000 60  0000 C CNN
	1    7400 5000
	0    1    1    0   
$EndComp
$Comp
L GND #PWR05
U 1 1 5273295A
P 6600 4900
F 0 "#PWR05" H 6600 4900 30  0001 C CNN
F 1 "GND" H 6600 4830 30  0001 C CNN
F 2 "" H 6600 4900 60  0000 C CNN
F 3 "" H 6600 4900 60  0000 C CNN
	1    6600 4900
	1    0    0    -1  
$EndComp
$Comp
L +5V #PWR06
U 1 1 527329E6
P 6850 4600
F 0 "#PWR06" H 6850 4690 20  0001 C CNN
F 1 "+5V" H 6850 4690 30  0000 C CNN
F 2 "" H 6850 4600 60  0000 C CNN
F 3 "" H 6850 4600 60  0000 C CNN
	1    6850 4600
	1    0    0    -1  
$EndComp
$Comp
L POT RV1
U 1 1 52732A73
P 6150 5050
F 0 "RV1" H 6150 4950 50  0000 C CNN
F 1 "POT" H 6150 5050 50  0000 C CNN
F 2 "" H 6150 5050 60  0000 C CNN
F 3 "" H 6150 5050 60  0000 C CNN
	1    6150 5050
	0    1    1    0   
$EndComp
$Comp
L GND #PWR07
U 1 1 52732AA0
P 6150 5400
F 0 "#PWR07" H 6150 5400 30  0001 C CNN
F 1 "GND" H 6150 5330 30  0001 C CNN
F 2 "" H 6150 5400 60  0000 C CNN
F 3 "" H 6150 5400 60  0000 C CNN
	1    6150 5400
	1    0    0    -1  
$EndComp
Wire Wire Line
	5700 2700 5950 2700
Wire Wire Line
	5950 2700 5950 3300
Wire Wire Line
	5950 3300 7700 3300
Wire Wire Line
	7700 3300 7700 2950
Wire Wire Line
	7700 2950 8200 2950
Wire Wire Line
	10600 2800 10600 2750
Wire Wire Line
	10600 2750 10350 2750
Wire Wire Line
	9900 2600 9900 2450
Wire Wire Line
	9900 2450 9800 2450
Wire Wire Line
	9800 1850 10400 1850
Wire Wire Line
	8200 2750 8050 2750
Wire Wire Line
	8200 2250 8050 2250
Wire Wire Line
	8200 1850 8050 1850
Wire Wire Line
	8200 2350 8050 2350
Wire Wire Line
	9800 2250 10050 2250
Connection ~ 10050 1850
Wire Wire Line
	10400 2350 10400 2250
Wire Wire Line
	9800 2750 9950 2750
Wire Wire Line
	10050 1600 10050 1850
Wire Wire Line
	6200 2000 6200 1950
Wire Wire Line
	5700 2800 5900 2800
Wire Wire Line
	5900 2800 5900 3350
Wire Wire Line
	5900 3350 7750 3350
Wire Wire Line
	7750 3350 7750 3150
Wire Wire Line
	7750 3150 8200 3150
Wire Wire Line
	7200 1600 10050 1600
Wire Wire Line
	7200 1500 7200 2000
Wire Wire Line
	6400 2000 6400 1950
Wire Wire Line
	6400 1950 6200 1950
Wire Wire Line
	10150 2950 9800 2950
Wire Wire Line
	10150 3050 9800 3050
Wire Wire Line
	10150 3150 9800 3150
Wire Wire Line
	10150 3250 9800 3250
Wire Wire Line
	8200 3050 7850 3050
Wire Wire Line
	7850 3050 7850 3600
Wire Wire Line
	8200 3250 7900 3250
Wire Wire Line
	7900 3250 7900 3750
Wire Wire Line
	7900 3750 7550 3750
Wire Wire Line
	6400 3200 6400 3600
Wire Wire Line
	7200 3100 7300 3100
Wire Wire Line
	7300 3100 7300 4300
Wire Wire Line
	5700 2400 6250 2400
Wire Wire Line
	6250 2400 6250 3750
Wire Wire Line
	6250 3750 6350 3750
Wire Wire Line
	6350 3750 6350 4000
Wire Wire Line
	5700 2500 6200 2500
Wire Wire Line
	6200 2500 6200 3800
Wire Wire Line
	6200 3800 6250 3800
Wire Wire Line
	6250 3800 6250 4000
Wire Wire Line
	4900 2600 4000 2600
Wire Wire Line
	4000 2600 4000 3850
Wire Wire Line
	4000 3850 6150 3850
Wire Wire Line
	6150 3850 6150 4000
Wire Wire Line
	5700 2600 6050 2600
Wire Wire Line
	6050 2600 6050 4000
Wire Wire Line
	7550 3750 7550 3550
Wire Wire Line
	6950 3550 6950 3750
Wire Wire Line
	7650 3500 7650 3950
Wire Wire Line
	7650 3950 7500 3950
Wire Wire Line
	6400 3600 7100 3600
Wire Wire Line
	7100 3600 7100 4000
Wire Wire Line
	7100 4000 7050 4000
Wire Wire Line
	6300 3500 7650 3500
Wire Wire Line
	7850 3600 7150 3600
Wire Wire Line
	7150 3600 7150 3550
Wire Wire Line
	7150 3550 6950 3550
Wire Wire Line
	7550 3550 7400 3550
Wire Wire Line
	7400 3550 7400 3700
Wire Wire Line
	7400 4200 7400 4400
Wire Wire Line
	7400 4400 8050 4400
Wire Wire Line
	8050 4400 8050 4650
Wire Wire Line
	6950 4250 7950 4250
Wire Wire Line
	7950 4250 7950 4650
Wire Wire Line
	6400 3100 6000 3100
Wire Wire Line
	6000 3100 6000 3700
Wire Wire Line
	6000 3700 7850 3700
Wire Wire Line
	7850 3700 7850 4650
Wire Wire Line
	6400 3000 5850 3000
Wire Wire Line
	5850 3000 5850 3400
Wire Wire Line
	5850 3400 7750 3400
Wire Wire Line
	7750 3400 7750 4650
Wire Wire Line
	7200 2900 7600 2900
Wire Wire Line
	7600 2900 7600 4100
Wire Wire Line
	7600 4100 7650 4100
Wire Wire Line
	7650 4100 7650 4650
Wire Wire Line
	6400 2900 6300 2900
Wire Wire Line
	6300 2900 6300 3500
Wire Wire Line
	7300 4300 7550 4300
Wire Wire Line
	7550 4300 7550 4650
Wire Wire Line
	6400 2800 6150 2800
Wire Wire Line
	6150 2800 6150 3650
Wire Wire Line
	6150 3650 7250 3650
Wire Wire Line
	7250 3650 7250 4350
Wire Wire Line
	7250 4350 7450 4350
Wire Wire Line
	7450 4350 7450 4650
Wire Wire Line
	6400 2700 6100 2700
Wire Wire Line
	6100 2700 6100 3550
Wire Wire Line
	6100 3550 6800 3550
Wire Wire Line
	6800 3550 6800 3450
Wire Wire Line
	6800 3450 7200 3450
Wire Wire Line
	7200 3450 7200 4400
Wire Wire Line
	7200 4400 7350 4400
Wire Wire Line
	7350 4400 7350 4650
Wire Wire Line
	7200 2600 7400 2600
Wire Wire Line
	7400 2600 7400 3250
Wire Wire Line
	7400 3250 6900 3250
Wire Wire Line
	6900 3250 6900 4450
Wire Wire Line
	6900 4450 7250 4450
Wire Wire Line
	7250 4450 7250 4650
Wire Wire Line
	6400 2600 6100 2600
Wire Wire Line
	6100 2600 6100 2550
Wire Wire Line
	6100 2550 6000 2550
Wire Wire Line
	6000 1900 7800 1900
Wire Wire Line
	7800 1900 7800 4550
Wire Wire Line
	7800 4550 7150 4550
Wire Wire Line
	7150 4550 7150 4650
Wire Wire Line
	7200 2400 7500 2400
Wire Wire Line
	7500 2400 7500 4200
Wire Wire Line
	7500 4200 7600 4200
Wire Wire Line
	7600 4200 7600 4600
Wire Wire Line
	7600 4600 7050 4600
Wire Wire Line
	7050 4600 7050 4650
Wire Wire Line
	6000 2550 6000 1900
Wire Wire Line
	6750 4650 6600 4650
Wire Wire Line
	6600 4650 6600 4900
Wire Wire Line
	6150 5300 6150 5400
Wire Wire Line
	6850 4650 6850 4600
Wire Wire Line
	6300 5050 6300 4500
Wire Wire Line
	6300 4500 6950 4500
Wire Wire Line
	6950 4500 6950 4650
$Comp
L +5V #PWR08
U 1 1 52732D2D
P 6150 4700
F 0 "#PWR08" H 6150 4790 20  0001 C CNN
F 1 "+5V" H 6150 4790 30  0000 C CNN
F 2 "" H 6150 4700 60  0000 C CNN
F 3 "" H 6150 4700 60  0000 C CNN
	1    6150 4700
	1    0    0    -1  
$EndComp
Wire Wire Line
	6150 4800 6150 4700
$Comp
L SW_PUSH SW1
U 1 1 52732E8D
P 6800 1500
F 0 "SW1" H 6950 1610 50  0000 C CNN
F 1 "SW_PUSH" H 6800 1420 50  0000 C CNN
F 2 "" H 6800 1500 60  0000 C CNN
F 3 "" H 6800 1500 60  0000 C CNN
	1    6800 1500
	1    0    0    -1  
$EndComp
Wire Wire Line
	7100 1500 7200 1500
Connection ~ 7200 1600
Wire Wire Line
	6500 1500 6350 1500
Wire Wire Line
	6350 1500 6350 2100
Wire Wire Line
	6350 2100 6400 2100
$Comp
L CONN_12 P6
U 1 1 527330CD
P 6850 650
F 0 "P6" V 6800 650 60  0000 C CNN
F 1 "CONN_12" V 6900 650 60  0000 C CNN
F 2 "" H 6850 650 60  0000 C CNN
F 3 "" H 6850 650 60  0000 C CNN
	1    6850 650 
	0    -1   -1   0   
$EndComp
Wire Wire Line
	7200 3200 7950 3200
Wire Wire Line
	7950 3200 7950 1050
Wire Wire Line
	7950 1050 7400 1050
Wire Wire Line
	7400 1050 7400 1000
Wire Wire Line
	7200 3000 7900 3000
Wire Wire Line
	7900 3000 7900 1100
Wire Wire Line
	7900 1100 7300 1100
Wire Wire Line
	7300 1100 7300 1000
Wire Wire Line
	7200 2800 7850 2800
Wire Wire Line
	7850 2800 7850 1150
Wire Wire Line
	7850 1150 7200 1150
Wire Wire Line
	7200 1150 7200 1000
Wire Wire Line
	7200 2700 7750 2700
Wire Wire Line
	7750 2700 7750 1200
Wire Wire Line
	7750 1200 7100 1200
Wire Wire Line
	7100 1200 7100 1000
Wire Wire Line
	7200 2500 7700 2500
Wire Wire Line
	7700 2500 7700 1300
Wire Wire Line
	7700 1300 7000 1300
Wire Wire Line
	7000 1300 7000 1000
Wire Wire Line
	7200 2300 7600 2300
Wire Wire Line
	7600 2300 7600 1250
Wire Wire Line
	7600 1250 6900 1250
Wire Wire Line
	6900 1250 6900 1000
Wire Wire Line
	7200 2200 7550 2200
Wire Wire Line
	7550 2200 7550 1350
Wire Wire Line
	7550 1350 6800 1350
Wire Wire Line
	6800 1350 6800 1000
Wire Wire Line
	7200 2100 7450 2100
Wire Wire Line
	7450 2100 7450 1400
Wire Wire Line
	7450 1400 6700 1400
Wire Wire Line
	6700 1400 6700 1000
Wire Wire Line
	6400 2500 6300 2500
Wire Wire Line
	6300 2500 6300 2450
Wire Wire Line
	6300 2450 5800 2450
Wire Wire Line
	5800 2450 5800 1000
Wire Wire Line
	5800 1000 6300 1000
Wire Wire Line
	6400 2400 6300 2400
Wire Wire Line
	6300 2400 6300 2350
Wire Wire Line
	6300 2350 5950 2350
Wire Wire Line
	5950 2350 5950 1050
Wire Wire Line
	5950 1050 6400 1050
Wire Wire Line
	6400 1050 6400 1000
Wire Wire Line
	6400 2300 6050 2300
Wire Wire Line
	6050 2300 6050 1250
Wire Wire Line
	6050 1250 6500 1250
Wire Wire Line
	6500 1250 6500 1000
Wire Wire Line
	6250 2200 6400 2200
Wire Wire Line
	6250 2200 6250 1350
Wire Wire Line
	6250 1350 6600 1350
Wire Wire Line
	6600 1350 6600 1000
$Comp
L CONN_7 P2
U 1 1 52733931
P 5350 900
F 0 "P2" V 5320 900 60  0000 C CNN
F 1 "CONN_7" V 5420 900 60  0000 C CNN
F 2 "" H 5350 900 60  0000 C CNN
F 3 "" H 5350 900 60  0000 C CNN
	1    5350 900 
	0    -1   -1   0   
$EndComp
Wire Wire Line
	5700 3200 5700 3600
Wire Wire Line
	5700 3600 4300 3600
Wire Wire Line
	4300 3600 4300 1600
Wire Wire Line
	4300 1600 5650 1600
Wire Wire Line
	5650 1600 5650 1250
Wire Wire Line
	5700 3100 5750 3100
Wire Wire Line
	5750 3100 5750 3550
Wire Wire Line
	5750 3550 4400 3550
Wire Wire Line
	4400 3550 4400 1700
Wire Wire Line
	4400 1700 5550 1700
Wire Wire Line
	5550 1700 5550 1250
Wire Wire Line
	5700 3000 5800 3000
Wire Wire Line
	5800 3000 5800 3650
Wire Wire Line
	5800 3650 4500 3650
Wire Wire Line
	4500 3650 4500 1800
Wire Wire Line
	4500 1800 5450 1800
Wire Wire Line
	5450 1800 5450 1250
Wire Wire Line
	5700 2900 5900 2900
Wire Wire Line
	5900 2900 5900 1300
Wire Wire Line
	5900 1300 5350 1300
Wire Wire Line
	5350 1300 5350 1250
Wire Wire Line
	5700 2300 5850 2300
Wire Wire Line
	5850 2300 5850 1450
Wire Wire Line
	5850 1450 5250 1450
Wire Wire Line
	5250 1450 5250 1250
Wire Wire Line
	5700 2200 5750 2200
Wire Wire Line
	5750 2200 5750 1500
Wire Wire Line
	5750 1500 5150 1500
Wire Wire Line
	5150 1500 5150 1250
Wire Wire Line
	5700 2100 5700 1850
Wire Wire Line
	5700 1850 5050 1850
Wire Wire Line
	5050 1850 5050 1250
$Comp
L CONN_11 P1
U 1 1 52733FE4
P 3350 2650
F 0 "P1" V 3300 2650 60  0000 C CNN
F 1 "CONN_11" V 3400 2650 60  0000 C CNN
F 2 "" H 3350 2650 60  0000 C CNN
F 3 "" H 3350 2650 60  0000 C CNN
	1    3350 2650
	-1   0    0    1   
$EndComp
Wire Wire Line
	4900 2100 3700 2100
Wire Wire Line
	3700 2100 3700 2150
Wire Wire Line
	4900 2200 3700 2200
Wire Wire Line
	3700 2200 3700 2250
Wire Wire Line
	4900 2300 3700 2300
Wire Wire Line
	3700 2300 3700 2350
Wire Wire Line
	4900 2400 3700 2400
Wire Wire Line
	3700 2400 3700 2450
Wire Wire Line
	4900 2500 3700 2500
Wire Wire Line
	3700 2500 3700 2550
Wire Wire Line
	4900 2700 3700 2700
Wire Wire Line
	3700 2700 3700 2650
Wire Wire Line
	4900 2800 3700 2800
Wire Wire Line
	3700 2800 3700 2750
Wire Wire Line
	4900 2900 3700 2900
Wire Wire Line
	3700 2900 3700 2850
Wire Wire Line
	4900 3000 3700 3000
Wire Wire Line
	3700 3000 3700 2950
Wire Wire Line
	4900 3100 3700 3100
Wire Wire Line
	3700 3100 3700 3050
Wire Wire Line
	4900 3200 3700 3200
Wire Wire Line
	3700 3200 3700 3150
$Comp
L R R1
U 1 1 527349D5
P 9200 1200
F 0 "R1" V 9280 1200 40  0000 C CNN
F 1 "R" V 9207 1201 40  0000 C CNN
F 2 "" V 9130 1200 30  0000 C CNN
F 3 "" H 9200 1200 30  0000 C CNN
	1    9200 1200
	1    0    0    -1  
$EndComp
$Comp
L LED D1
U 1 1 527349E4
P 9400 900
F 0 "D1" H 9400 1000 50  0000 C CNN
F 1 "LED" H 9400 800 50  0000 C CNN
F 2 "" H 9400 900 60  0000 C CNN
F 3 "" H 9400 900 60  0000 C CNN
	1    9400 900 
	1    0    0    -1  
$EndComp
Wire Wire Line
	9200 950  9200 900 
$Comp
L +5V #PWR09
U 1 1 52734CDC
P 8650 1350
F 0 "#PWR09" H 8650 1440 20  0001 C CNN
F 1 "+5V" H 8650 1440 30  0000 C CNN
F 2 "" H 8650 1350 60  0000 C CNN
F 3 "" H 8650 1350 60  0000 C CNN
	1    8650 1350
	1    0    0    -1  
$EndComp
Wire Wire Line
	8650 1350 8650 1600
Connection ~ 8650 1600
$Comp
L CONN_2 P8
U 1 1 52734DE1
P 8400 900
F 0 "P8" V 8350 900 40  0000 C CNN
F 1 "CONN_2" V 8450 900 40  0000 C CNN
F 2 "" H 8400 900 60  0000 C CNN
F 3 "" H 8400 900 60  0000 C CNN
	1    8400 900 
	0    -1   -1   0   
$EndComp
Wire Wire Line
	8300 1250 8300 1600
Wire Wire Line
	8300 1600 8350 1600
Connection ~ 8350 1600
$Comp
L GND #PWR010
U 1 1 52734EE8
P 8500 1400
F 0 "#PWR010" H 8500 1400 30  0001 C CNN
F 1 "GND" H 8500 1330 30  0001 C CNN
F 2 "" H 8500 1400 60  0000 C CNN
F 3 "" H 8500 1400 60  0000 C CNN
	1    8500 1400
	1    0    0    -1  
$EndComp
Wire Wire Line
	8500 1250 8500 1400
$Comp
L LM7805 U2
U 1 1 52735001
P 10150 1050
F 0 "U2" H 10300 854 60  0000 C CNN
F 1 "LM7805" H 10150 1250 60  0000 C CNN
F 2 "" H 10150 1050 60  0000 C CNN
F 3 "" H 10150 1050 60  0000 C CNN
	1    10150 1050
	1    0    0    -1  
$EndComp
Wire Wire Line
	9200 1450 9200 1600
Connection ~ 9200 1600
$Comp
L GND #PWR011
U 1 1 52735309
P 9600 1300
F 0 "#PWR011" H 9600 1300 30  0001 C CNN
F 1 "GND" H 9600 1230 30  0001 C CNN
F 2 "" H 9600 1300 60  0000 C CNN
F 3 "" H 9600 1300 60  0000 C CNN
	1    9600 1300
	1    0    0    -1  
$EndComp
Wire Wire Line
	9600 900  9600 1300
Wire Wire Line
	10150 1300 9700 1300
Wire Wire Line
	9700 1300 9700 1200
Wire Wire Line
	9700 1200 9600 1200
Connection ~ 9600 1200
Wire Wire Line
	9750 1000 9750 1600
Connection ~ 9750 1600
$Comp
L CONN_1 P10
U 1 1 5273561F
P 10750 1000
F 0 "P10" H 10830 1000 40  0000 L CNN
F 1 "CONN_1" H 10750 1055 30  0001 C CNN
F 2 "" H 10750 1000 60  0000 C CNN
F 3 "" H 10750 1000 60  0000 C CNN
	1    10750 1000
	1    0    0    -1  
$EndComp
Wire Wire Line
	10600 1000 10550 1000
$EndSCHEMATC
