\relax 
\catcode`"\active
\catcode`<\active
\catcode`>\active
\@nameuse{es@quoting}
\select@language{spanish}
\@writefile{toc}{\select@language{spanish}}
\@writefile{lof}{\select@language{spanish}}
\@writefile{lot}{\select@language{spanish}}
\@writefile{toc}{\contentsline {section}{\numberline {1}Resumen}{1}}
\@writefile{toc}{\contentsline {section}{\numberline {2}Marco Te\IeC {\'o}rico}{2}}
\@writefile{toc}{\contentsline {subsection}{\numberline {2.1}Termocupla}{2}}
\@writefile{lof}{\contentsline {figure}{\numberline {1}{\ignorespaces Modelo termocupla.}}{2}}
\@writefile{lof}{\contentsline {figure}{\numberline {2}{\ignorespaces Termocupla utilizada.}}{3}}
\@writefile{toc}{\contentsline {subsection}{\numberline {2.2}Soldadura por reflow}{3}}
\@writefile{lof}{\contentsline {figure}{\numberline {3}{\ignorespaces Fases en perfil de temperatura/tiempo para pasta de soldadura Sn/Pb}}{4}}
\@writefile{toc}{\contentsline {section}{\numberline {3}Hardware}{5}}
\@writefile{toc}{\contentsline {subsection}{\numberline {3.1}Horno}{5}}
\@writefile{lof}{\contentsline {figure}{\numberline {4}{\ignorespaces ATMA GRILL MODELO AG872}}{5}}
\@writefile{toc}{\contentsline {subsection}{\numberline {3.2}Adaptador de se\IeC {\~n}al para termocupla}{5}}
\@writefile{toc}{\contentsline {subsubsection}{\numberline {3.2.1}Circuito}{6}}
\@writefile{toc}{\contentsline {subsection}{\numberline {3.3}Pulsadores de Control y Leds de se\IeC {\~n}alizaci\IeC {\'o}n}{7}}
\@writefile{toc}{\contentsline {subsubsection}{\numberline {3.3.1}Pulsadores}{7}}
\@writefile{lof}{\contentsline {figure}{\numberline {5}{\ignorespaces Circuito utilizado en pulsadores}}{7}}
\@writefile{toc}{\contentsline {subsubsection}{\numberline {3.3.2}Leds de se\IeC {\~n}alizaci\IeC {\'o}n}{7}}
\@writefile{lof}{\contentsline {figure}{\numberline {6}{\ignorespaces Circuito utilizado para control de los leds de se\IeC {\~n}alizaci\IeC {\'o}n}}{8}}
\@writefile{toc}{\contentsline {subsection}{\numberline {3.4}Control de Potencia}{9}}
\@writefile{lof}{\contentsline {figure}{\numberline {7}{\ignorespaces Circuito utilizado para control de potencia}}{9}}
\@writefile{toc}{\contentsline {section}{\numberline {4}Software}{10}}
\@writefile{toc}{\contentsline {subsection}{\numberline {4.1}Microcontrolador - Herramientas de programaci\IeC {\'o}n y simulaci\IeC {\'o}n}{10}}
\@writefile{toc}{\contentsline {subsection}{\numberline {4.2}Firmware desarrollado}{10}}
\@writefile{toc}{\contentsline {subsubsection}{\numberline {4.2.1}Main}{10}}
\@writefile{toc}{\contentsline {subsubsection}{\numberline {4.2.2}LCD}{11}}
\@writefile{toc}{\contentsline {subsubsection}{\numberline {4.2.3}DELAY}{11}}
\@writefile{toc}{\contentsline {subsubsection}{\numberline {4.2.4}ADC}{12}}
\@writefile{toc}{\contentsline {subsubsection}{\numberline {4.2.5}LED}{12}}
\@writefile{toc}{\contentsline {subsubsection}{\numberline {4.2.6}ERROR}{13}}
\@writefile{toc}{\contentsline {subsubsection}{\numberline {4.2.7}CHEQUEO}{13}}
\@writefile{toc}{\contentsline {subsubsection}{\numberline {4.2.8}PWM}{13}}
\@writefile{toc}{\contentsline {subsubsection}{\numberline {4.2.9}MENU}{14}}
\@writefile{toc}{\contentsline {subsubsection}{\numberline {4.2.10}RELOJ}{14}}
\@writefile{toc}{\contentsline {subsubsection}{\numberline {4.2.11}CONTROL}{15}}
\@writefile{toc}{\contentsline {subsection}{\numberline {4.3}PID Digital}{15}}
\@writefile{toc}{\contentsline {section}{\numberline {5}Mediciones}{17}}
\@writefile{toc}{\contentsline {subsection}{\numberline {5.1}Relevamiento Horno}{17}}
\@writefile{toc}{\contentsline {subsection}{\numberline {5.2}Relevamiento Funcionamiento Est\IeC {\'a}ndar}{19}}
\@writefile{toc}{\contentsline {section}{\numberline {6}Conclusi\IeC {\'o}n}{19}}
